\version "2.18.2"

\include "lily-jazz/ignatzek-jazz-chords.ily"
\include "lily-jazz/lily-jazz.ily"





% PLUGINS 1.2
% -----------
% ~.:.~.:.~.:.~.:.~.:.~.:.~.:.~.:.~.:.~.:.~.:.<>.:.~.:.~.:.~.:.~.:.~.:.~.:.~.:.~.:.~.:.~.:.~
% ~.:.~.:.~.:.~.:.~.:.~.:.~.:.~.:.~.:.~.:.~.:.<>.:.~.:.~.:.~.:.~.:.~.:.~.:.~.:.~.:.~.:.~.:.~
% ~.:.~.:.~.:.~.:.~.:.~.:.~.:.~.:.~.:.~.:.~.:.<>.:.~.:.~.:.~.:.~.:.~.:.~.:.~.:.~.:.~.:.~.:.~





% multi-mark-engraver
% [][][][][][][][][][][][][][][][][][][][][][][][][][][][][][][][][][][][][][][][][][][][][]
% Aporta la posibilidad de pintar un rehearsal mark al final de una línea y 
% al comienzo de la siguiente.
% http://lists.gnu.org/archive/html/lilypond-user/2011-08/msg00157.html
% [][][][][][][][][][][][][][][][][][][][][][][][][][][][][][][][][][][][][][][][][][][][][]
#(define (multi-mark-engraver ctx)
   (let ((texts '())
         (final-texts '())
         (events '()))

     `((start-translation-timestep
        . ,(lambda (trans)
             (set! final-texts '())))

       (listeners
        (mark-event
         . ,(lambda (trans ev)
              (set! events (cons ev events)))))

       (acknowledgers
        (break-alignment-interface
         . ,(lambda (trans grob source)
              (for-each (lambda (mark)
                          (set! (ly:grob-parent mark X) grob))
                        texts))))

       (process-music
        . ,(lambda (trans)
             (for-each
              (lambda (ev)
                (let* ((mark-grob
                        (ly:engraver-make-grob trans 'RehearsalMark ev))
                       (label (ly:event-property ev 'label))
                       (formatter (ly:context-property ctx 'markFormatter)))

                  (if (and (procedure? formatter)
                           (not (markup? label)))
                      (begin
                       (if (not (number? label))
                           (set! label
                                 (ly:context-property ctx 'rehearsalMark)))

                       (if (and (integer? label)
                                (exact? label))
                           (set! (ly:context-property ctx 'rehearsalMark)
                                 (1+ label)))

                       (if (number? label)
                           (set! label (apply formatter (list label ctx)))
                           (ly:warning "rehearsalMark must have
integer value"))))

                  (if (markup? label)
                      (begin
                       (set! (ly:grob-property mark-grob 'text) label)
                       (let ((dir (ly:event-property ev 'direction)))
                         (and (ly:dir? dir)
                              (set! (ly:grob-property mark-grob 'direction)
                                    dir))))
                      (ly:warning "mark label must be a markup object"))

                  (set! texts (cons mark-grob texts))))
              (reverse events))))

       (stop-translation-timestep
        . ,(lambda (trans)
             (if (pair? texts)
                 (let ((staves (ly:context-property ctx 'stavesFound))
                       (priority-index 0))
                   (for-each (lambda (grob)
                               (let ((my-priority (ly:grob-property
grob 'outside-staff-priority 1500)))
                                 (for-each (lambda (stave)

(ly:pointer-group-interface::add-grob grob 'side-support-elements
                                               stave))
                                           staves)
                                 (set! (ly:grob-property grob
'outside-staff-priority) (+ my-priority priority-index))
                                 (set! priority-index (1+ priority-index))
                                 (set! final-texts (cons grob final-texts))))
                             (reverse texts))
                     (set! texts '())
                     (set! events '())))))

        (finalize
         . ,(lambda (trans)
              (and (pair? final-texts)
                   (for-each (lambda (grob)
                               (set! (ly:grob-property grob 'break-visibility)
                                     end-of-line-visible))
                             final-texts)))))))


% Funciones originales
%{
myMark =
#(define-music-function (parser location text) (markup?)
  (make-music 'MarkEvent
              'label text))
			  
toCoda = {
	\tweak #'self-alignment-X #RIGHT
	\tweak #'break-visibility #begin-of-line-invisible
	\myMark \markup { \hspace #1.25 \raise #1.25 \musicglyph #"scripts.coda" }
}
%}

% Función maqueada.
% Se apoya en el código obtenido por consola al ejecutar { \displayMusic { \toCoda }}
eolMark =
#(define-music-function (parser location text) (markup?)
	(make-music 
		'MarkEvent 
		'tweaks (list 
			(cons (quote self-alignment-X) 1)
			(cons (quote break-visibility) #(#t #t #f))
		) 
		'label (markup
			#:line (
				#:hspace 1.25
				#:raise 1.25
				text
			)
		)
	)
)










% rest-score y merge-rests-on-positioning
% [][][][][][][][][][][][][][][][][][][][][][][][][][][][][][][][][][][][][][][][][][][][][]
% Permite realizar la fusión de los silencios entre dos voces en un mismo pentagrama.
% https://code.google.com/p/lilypond/issues/detail?id=1228 (fichero merge-rests.ily)
% [][][][][][][][][][][][][][][][][][][][][][][][][][][][][][][][][][][][][][][][][][][][][]

#(define (rest-score r)
  (let ((score 0)
	(yoff (ly:grob-property-data r 'Y-offset))
	(sp (ly:grob-property-data r 'staff-position)))
    (if (number? yoff)
	(set! score (+ score 2))
	(if (eq? yoff 'calculation-in-progress)
	    (set! score (- score 3))))
    (and (number? sp)
	 (<= 0 2 sp)
	 (set! score (+ score 2))
	 (set! score (- score (abs (- 1 sp)))))
    score))

#(define (merge-rests-on-positioning grob)
  (let* ((can-merge #f)
	 (elts (ly:grob-object grob 'elements))
	 (num-elts (and (ly:grob-array? elts)
			(ly:grob-array-length elts)))
	 (two-voice? (= num-elts 2)))
    (if two-voice?
	(let* ((v1-grob (ly:grob-array-ref elts 0))
	       (v2-grob (ly:grob-array-ref elts 1))
	       (v1-rest (ly:grob-object v1-grob 'rest))
	       (v2-rest (ly:grob-object v2-grob 'rest)))
	  (and
	   (ly:grob? v1-rest)
	   (ly:grob? v2-rest)
	   (let* ((v1-duration-log (ly:grob-property v1-rest 'duration-log))
		  (v2-duration-log (ly:grob-property v2-rest 'duration-log))
		  (v1-dot (ly:grob-object v1-rest 'dot))
		  (v2-dot (ly:grob-object v2-rest 'dot))
		  (v1-dot-count (and (ly:grob? v1-dot)
				     (ly:grob-property v1-dot 'dot-count -1)))
		  (v2-dot-count (and (ly:grob? v2-dot)
				     (ly:grob-property v2-dot 'dot-count -1))))
	     (set! can-merge
		   (and
		    (number? v1-duration-log)
		    (number? v2-duration-log)
		    (= v1-duration-log v2-duration-log)
		    (eq? v1-dot-count v2-dot-count)))
	     (if can-merge
		 ;; keep the rest that looks best:
		 (let* ((keep-v1? (>= (rest-score v1-rest)
				      (rest-score v2-rest)))
			(rest-to-keep (if keep-v1? v1-rest v2-rest))
			(dot-to-kill (if keep-v1? v2-dot v1-dot)))
		   ;; uncomment if you're curious of which rest was chosen:
		   ;;(ly:grob-set-property! v1-rest 'color green)
		   ;;(ly:grob-set-property! v2-rest 'color blue)
		   (ly:grob-suicide! (if keep-v1? v2-rest v1-rest))
		   (if (ly:grob? dot-to-kill)
		       (ly:grob-suicide! dot-to-kill))
		   (ly:grob-set-property! rest-to-keep 'direction 0)
		   (ly:rest::y-offset-callback rest-to-keep)))))))
    (if can-merge
	#t
	(ly:rest-collision::calc-positioning-done grob))))










% startParenthesis y endParenthesis
% [][][][][][][][][][][][][][][][][][][][][][][][][][][][][][][][][][][][][][][][][][][][][]
% http://comments.gmane.org/gmane.comp.gnu.lilypond.general/64087
% [][][][][][][][][][][][][][][][][][][][][][][][][][][][][][][][][][][][][][][][][][][][][]

% ELIMINADO










% bendBefore
% [][][][][][][][][][][][][][][][][][][][][][][][][][][][][][][][][][][][][][][][][][][][][]
% Adaptación
% http://lilypondblog.org/2013/08/adding-ornamentations-to-note-heads-part-1/
% [][][][][][][][][][][][][][][][][][][][][][][][][][][][][][][][][][][][][][][][][][][][][]

%%%
%%% Utilities for defining new grobs, grob properties and music event types
%%% (there should be built-in commands to do that in LilyPond)
%%%
#(define (define-grob-type grob-name grob-entry)
   (let* ((meta-entry   (assoc-get 'meta grob-entry))
          (class        (assoc-get 'class meta-entry))
          (ifaces-entry (assoc-get 'interfaces meta-entry)))
     (set-object-property! grob-name 'translation-type? list?)
     (set-object-property! grob-name 'is-grob? #t)
     (set! ifaces-entry (append (case class
                                  ((Item) '(item-interface))
                                  ((Spanner) '(spanner-interface))
                                  ((Paper_column) '((item-interface
                                                     paper-column-interface)))
                                  ((System) '((system-interface
                                               spanner-interface)))
                                  (else '(unknown-interface)))
                                ifaces-entry))
     (set! ifaces-entry (uniq-list (sort ifaces-entry symbol<?)))
     (set! ifaces-entry (cons 'grob-interface ifaces-entry))
     (set! meta-entry (assoc-set! meta-entry 'name grob-name))
     (set! meta-entry (assoc-set! meta-entry 'interfaces
                                  ifaces-entry))
     (set! grob-entry (assoc-set! grob-entry 'meta meta-entry))
     (set! all-grob-descriptions
           (cons (cons grob-name grob-entry)
                 all-grob-descriptions))))

#(define-public (define-grob-property symbol type? description)
  (set-object-property! symbol 'backend-type? type?)
  (set-object-property! symbol 'backend-doc description)
  symbol)

#(defmacro*-public define-music-type (type-name parents #:rest properties)
   (let ((gproperties (gensym "properties")))
     `(let ((,gproperties (list-copy ',properties)))
        ,@(map (lambda (parent)
                `(define-event-class ',(ly:camel-case->lisp-identifier type-name)
                   ',parent))
               parents)
        (set-object-property! ',type-name
                              'music-description
                              (cdr (assq 'description ,gproperties)))
        (set! ,gproperties (assoc-set! ,gproperties 'name ',type-name))
        (set! ,gproperties (assq-remove! ,gproperties 'description))
        (hashq-set! music-name-to-property-table ',type-name ,gproperties)
        (set! music-descriptions
              (cons (cons ',type-name ,gproperties)
                    music-descriptions)))))

%%%
%%% Grob definition
%%%
#(define (head-ornamentation::print me)
   (let* ((notes (ly:grob-object me 'elements))
          (y-ref (ly:grob-common-refpoint-of-array me notes Y))
          (x-ref (ly:grob-common-refpoint-of-array me notes X))
          (x-ext (ly:relative-group-extent notes x-ref X))
          (y-ext (ly:relative-group-extent notes y-ref Y))
          (y-coord (interval-center y-ext))
          (text (ly:text-interface::print me))
          (width (/ (interval-length (ly:stencil-extent text X)) 2.0))
          (x-coord (- (car x-ext) width)))
     (ly:stencil-translate
      text
      (cons
       (- (- x-coord (ly:grob-relative-coordinate me x-ref X)) .7)
       (- (- y-coord (ly:grob-relative-coordinate me y-ref Y)) 1.5)))))

#(define-grob-type 'HeadOrnamentation
  `((text . ,#{ \markup \fontsize #-4 \musicglyph #"brackettips.up" #})
    (stencil . ,head-ornamentation::print)
    (meta . ((class . Item)
             (interfaces . (font-interface))))))

\layout {
  \context {
    \Global
    \grobdescriptions #all-grob-descriptions
  }
}

%%%
%%% Engraver
%%%
%%% The head-ornamentation engraver, with its note-head acknowledger
%%% (which add HeadOrnamentation grobs to note heads)
#(define head-ornamentation-engraver
   (make-engraver
    (acknowledgers
     ((note-head-interface engraver note-grob source)
      ;; When the note-head event attached to the note-head grob has
      ;; ornamentation events among its articulations, then create a
      ;; HeadOrnamentation grob
      (let* ((note-event (ly:grob-property note-grob 'cause)))
        (for-each
         (lambda (articulation)
           (if (memq 'head-ornamentation-event
                     (ly:event-property articulation 'class))
               (let ((ornament-grob (ly:engraver-make-grob engraver
                                                           'HeadOrnamentation
                                                           note-grob)))
                 (ly:pointer-group-interface::add-grob ornament-grob
                                                       'elements
                                                       note-grob)
                 (set! (ly:grob-parent ornament-grob Y) note-grob)
                 (set! (ly:grob-property ornament-grob 'font-size)
                       (+ (ly:grob-property ornament-grob 'font-size 0.0)
                          (ly:grob-property note-grob 'font-size 0.0))))))
         (ly:event-property note-event 'articulations)))))))

\layout {
  \context {
    \Voice
    \consists #head-ornamentation-engraver
  }
}

%%%
%%% Event type definition
%%%
#(define-music-type HeadOrnamentationEvent (music-event)
   (description . "Print an ornamentation at a note head side")
   (types . (general-music post-event event head-ornamentation-event)))

bendBefore = #(make-music 'HeadOrnamentationEvent)










% [][][][][][][][][][][][][][][][][][][][][][][][][][][][][][][][][][][][][][][][][][][][][]
% Funciones propias
% [][][][][][][][][][][][][][][][][][][][][][][][][][][][][][][][][][][][][][][][][][][][][]





% Índice con borde circular y un cómodo espacio interior (y no el que viene por defecto)
% [][][][][][][][][][][][][][][][][][][][][][][][][][][][][][][][][][][][][][][][][][][][][]
#(define-markup-command (boxindex layout props text) (markup?)
	(interpret-markup layout props
		(markup #:huge #:override '(box-padding . 0.5) #:box text)
	)
)

#(define-markup-command (boxed layout props text) (markup?)
	(interpret-markup layout props
		(markup #:huge 
		  #:override '(box-padding . 0.75) 
		  #:override '(thickness . 2.5) 
		  #:box text)
	)
)

% Ritardando
% [][][][][][][][][][][][][][][][][][][][][][][][][][][][][][][][][][][][][][][][][][][][][]
rit =
#(make-music 'CrescendoEvent
             'span-direction START
             'span-type 'text
             'span-text "rit.")

% Negra oblicua
% [][][][][][][][][][][][][][][][][][][][][][][][][][][][][][][][][][][][][][][][][][][][][]
rs = {
  \once \override Rest #'stencil = #ly:percent-repeat-item-interface::beat-slash
  \once \override Rest #'thickness = #0.48
  \once \override Rest #'slope = #1.7
  r4
}











% Añadido de funciones al contexto
% [][][][][][][][][][][][][][][][][][][][][][][][][][][][][][][][][][][][][][][][][][][][][]
\layout {
  \context {
    \Score		
    
    % multi-mark-engraver
    \remove "Mark_engraver"
    \consists #multi-mark-engraver
    \consists "Tweak_engraver"
    
    % merge-rests-on-positioning
    \override RestCollision #'positioning-done = #merge-rests-on-positioning
    
    % aspecto de los silencios multicompás
    \override MultiMeasureRest.expand-limit = #1
    
    % margen extra de las articulaciones para evitar la colisión con las ligaduras
    \override Script.padding = #0.5
    \override Script.avoid-slur = #'inside
    
    % glissando bonito
    \override Glissando.style = #'trill
    \override Glissando.bound-details.left.padding = #1.7
  }
}












% LAYOUT
% ------
% ~.:.~.:.~.:.~.:.~.:.~.:.~.:.~.:.~.:.~.:.~.:.<>.:.~.:.~.:.~.:.~.:.~.:.~.:.~.:.~.:.~.:.~.:.~
% ~.:.~.:.~.:.~.:.~.:.~.:.~.:.~.:.~.:.~.:.~.:.<>.:.~.:.~.:.~.:.~.:.~.:.~.:.~.:.~.:.~.:.~.:.~
% ~.:.~.:.~.:.~.:.~.:.~.:.~.:.~.:.~.:.~.:.~.:.<>.:.~.:.~.:.~.:.~.:.~.:.~.:.~.:.~.:.~.:.~.:.~






\header {
  title = "Beyond The Sea"
  instrument = "Baritone Sax"
  composer = "Charles TRENET"
  arranger = "Arr: Matt AMY"
  poet = ""
  tagline = ""
}

\paper {
  % El definir otro tipo de fuente no permite cambiar el tamaño global del staff. Es un bug conocigo
  #(define fonts (make-pango-font-tree "LilyJAZZText" "Nimbus Sans" "Luxi Mono" (/ 20 20)))
  
  % distancia entre la parte superior de la página y el título
  top-markup-spacing #'basic-distance = 5
  
  % distancia entre el título y el primer sistema
  markup-system-spacing #'basic-distance = 25
  
  % distancia entre el texto y el primer sistema 
  top-system-spacing #'basic-distance = 15
  
  % márgen inferior
  bottom-margin = 20
    
  page-count = 2
  
  ragged-last-bottom = ##f 
  
  oddHeaderMarkup = \markup {
    \on-the-fly #not-first-page \fill-line {
      \fromproperty #'page:page-number-string
      \fromproperty #'header:title
      \fromproperty #'header:instrument
    }
  }
  
  evenHeaderMarkup = \markup {
    \on-the-fly #not-first-page \fill-line {
      \fromproperty #'header:instrument
      \fromproperty #'header:title
      \fromproperty #'page:page-number-string
    }
  }
}










% MUSIC PARTS
% -----------
% ~.:.~.:.~.:.~.:.~.:.~.:.~.:.~.:.~.:.~.:.~.:.<>.:.~.:.~.:.~.:.~.:.~.:.~.:.~.:.~.:.~.:.~.:.~
% ~.:.~.:.~.:.~.:.~.:.~.:.~.:.~.:.~.:.~.:.~.:.<>.:.~.:.~.:.~.:.~.:.~.:.~.:.~.:.~.:.~.:.~.:.~
% ~.:.~.:.~.:.~.:.~.:.~.:.~.:.~.:.~.:.~.:.~.:.<>.:.~.:.~.:.~.:.~.:.~.:.~.:.~.:.~.:.~.:.~.:.~




% scoreMarkup
% [][][][][][][][][][][][][][][][][][][][][][][][][][][][][][][][][][][][][][][][][][][][][]
scoreMarkup = \new Staff \with {
   \RemoveEmptyStaves
}
{
  % Oculta el primer pentagrama del markup
  \override Staff.VerticalAxisGroup #'remove-first = ##t
  
  s1*4
  
  \bar "||"
  \mark \markup \boxed "5"
  s1*12
  
  \mark \markup \boxed "17"
  s1*12
  s16
  
  \bar "||"
  \mark \markup \boxed "29"
  s1*12
  
  \bar "||"
  s1*12
  
  \bar "||"
  \mark \markup \boxed "53"
  s1*18
  s8
  
  \bar "||"
  \mark \markup \boxed "71"
  s1*21
  
  \once \override Score.RehearsalMark.X-offset = #3
  \mark \markup { 
    \column {
      \vspace #0.75
      \boxed "92" 
    }
    \column {
      \line { "Open" } 
      \vspace #0.25
      \line { "Vocal ad. lib " \teeny "(Recording is 10x - Bones play 6x)" }
    }
  }
  s1*6
  
  \bar "|."
}





% scoreChords
% [][][][][][][][][][][][][][][][][][][][][][][][][][][][][][][][][][][][][][][][][][][][][]
scoreChords = \chords {
  
}





% music
% [][][][][][][][][][][][][][][][][][][][][][][][][][][][][][][][][][][][][][][][][][][][][]
baritoneSax = \relative c' {

  % Para pintar todos los números de compás debajo del pentagrama
  % \override Score.BarNumber #'break-visibility = #end-of-line-invisible
  % \override Score.BarNumber #'direction = #DOWN
  % \override Score.BarNumber #'extra-offset = #'(1.5 . 0)

  \jazzOn
  \compressFullBarRests
  
  % Arregla el problema de tener el scoreMarkup añadido
  \revert MultiMeasureRest #'staff-position
  \override Voice.Rest #'staff-position = #0
  \set Staff.explicitKeySignatureVisibility = #begin-of-line-visible
  
  \mark \jazzTempoMarkup "Medium Swing" c4 "140"
  
  % trombones
  \transpose ees c \relative c'' {
    
    \key f \major
    
    r2 f4 -. \f f -. 
    g4. \bendBefore g8 ~ g2
    r2 f4 -. f -. 
    g4. \bendBefore g8 ~ g2
    
    r2 f4 -. \mp f -. 
    g4. g8 ~ g2
    \break
    r2 f4 -. f -. 
    g4. g8 ~ g2
    
    r2 g4 -. a -. 
    a4. g8 ~ g2
    r2 f4 -. f -. 
    g4. a8 ~ a2
    
    \break
    r8 g -> r4 r8 g -> r4
    r8 a -> r4 r8 a -> r4
    r8 g a [ bes ] c d e f
    r bes, -> e,4 -^ e -^ r 
  }
  
  % 17: saxos
  \relative c'' {
    
    \key d \major
    
    r4 r8 a \mf b d b e ~ 
    e4. a,8 ~ a2
    r4 r8 a b d b e ~ 
    e4. a,8 ~ a2
    
    \break
    r4 r8 a cis e cis b ~ 
    b4. cis8 ~ cis2
    r4 r8 a b d b g ~ 
    g4. b8 ~ b2
    
    \break
    b2 a4 -. r
    d,4. -> b'8 -> ~ b4. e,8 -> ~ 
    e4. a8 -> ~ a2
  }
  
  % 28: trombones
  \transpose ees c' \relative c'' {
    
    \key f \major
    
    r2 bes4 -^ \f \glissando \cadenzaOn \hideNotes bes,16 \unHideNotes \cadenzaOff r4
    
    \break
    R1*4
    r2 a4 -. \f -^ r
    a -. -^ r8 a -> \bendAfter #-4 r2
    
    R1*4
    g'8 e r g r g r bes
    \break
    r g r f r g r4
    
    r2 f4 -. \mp f -. 
    g4. g8 ~ g2
    r2 f4 -. f -. 
    g4. g8 ~ g2
    
    \break
    r2 g4 -. a -. 
    a4. g8 ~ g2
    r2 f4 -. f -. 
    g4. a8 ~ a2
    
    \break
    r8 g -> r4 r8 g -> r4
    r8 a -> r4 r8 a -> r4
    R1
  }
  
  % 52: trompetas
  \transpose ees bes \relative c' {
    
    \key g \major
    
    r2 r8 fis16 -. \f fis -. fis8. -. fis16
    
    \break
    b4 -^ r r2
    r8 a8 ~ a4 c -. c8 d ~ 
    
    d4. b8 ~ b4. g8 ~ 
    g4. a8 ~ a g fis4 -.
    \break
    r4 d'2. -. \prallprall 
    b4 \glissando \cadenzaOn \hideNotes b,16 \unHideNotes \cadenzaOff r4 r2
    
    R1*5
    r2 r8 ais'16 -. \f ais -. ais8. -. ais16
    
    dis4 -^ r4 r2
    \break
    r8 cis8 ~ cis4 e -. e8 fis ~ 
    
    fis4. dis8 ~ dis4. e8 ~ 
    e4. cis8 ~ cis ais e4 -.
    r4 fis'2. -. \prallprall 
    e4 \glissando \cadenzaOn \hideNotes e,16 \unHideNotes \cadenzaOff r4 r2
  }
  
  % 71: trombones
  \transpose ees c' \relative c'' {
    
    \key f \major
    
    R1*4
    
    R1
    g8 d r c ~ c2
  }
    
  % 77: saxos
  \relative c'' {
    
    \key d \major
        
    r4 r8 a \mf b d b e ~ 
    e4. a,8 ~ a2
    r4 r8 a b d b e ~ 
    e4. a,8 ~ a2
    
    \break
    r4 r8 a cis e cis b ~ 
    b4. cis8 ~ cis2
    r4 r8 a b d b g ~ 
    g4. b8 ~ b2
    
    \break
    b2 a4 -. r
    d,4. -> b'8 -> ~ b4. e,8 -> ~ 
    e4. a8 -> ~ a2
  }
  
  % 88: trombones
  \transpose ees c \relative c'' {
    
    \key f \major
    
    \break
    r2 f4 -. \mf f -. 
    g4. \bendBefore g8 ~ g2
    r2 f4 -. f -. 
    g4. \bendBefore g8 ~ g2
    
    \repeat volta 2 {
      \break
      r2 f4 -. \mf f -. 
      g4. \bendBefore g8 ~ g2
      r2 f4 -. f -. 
      g4. \bendBefore g8 ~ g2
      \mark \markup "Play 6x"
    }
    
    R1*2
  }
}





% score
% [][][][][][][][][][][][][][][][][][][][][][][][][][][][][][][][][][][][][][][][][][][][][]
\score {
  <<
    \scoreMarkup
    \scoreChords
    \new StaffGroup <<
      \new Staff { \baritoneSax }
    >>
  >>
}


