\version "2.18.2"


% Descripción de funcionalidades
% ~.:.~.:.~.:.~.:.~.:.~.:.~.:.~.:.~.:.~.:.~.:.<>.:.~.:.~.:.~.:.~.:.~.:.~.:.~.:.~.:.~.:.~.:.~
% ~.:.~.:.~.:.~.:.~.:.~.:.~.:.~.:.~.:.~.:.~.:.<>.:.~.:.~.:.~.:.~.:.~.:.~.:.~.:.~.:.~.:.~.:.~
% ~.:.~.:.~.:.~.:.~.:.~.:.~.:.~.:.~.:.~.:.~.:.<>.:.~.:.~.:.~.:.~.:.~.:.~.:.~.:.~.:.~.:.~.:.~

% PLUGINS
% - \eolMark:					mark al final de línea
% - \bendBefore: 				solución al bendBefore (i.e. dis8 \bendBefore)
% - \rit: 						crea una porción de ritardando que debe terminar como las dinámicas, con un \!
% - \improOn, \improOff:	negra de improvisación
% - \emptyStaff:				Imprime un pentagrama vacío
% - \emptyBar:					Imprime un compás invisible (útil para indentados)



% LAYOUT
% - El aspecto de los silencios multicompás es como los de las partituras de jazz
% - Margen extra de las articulaciones para evitar la colisión con las ligaduras
% - Glissandos bonitos



% PAPER
% - Se imprime el título, instrumento y número de página en todas las páginas
% - Solo se debe tocar el page-count (si eso). Sale bonito tal cual.

% ~.:.~.:.~.:.~.:.~.:.~.:.~.:.~.:.~.:.~.:.~.:.<>.:.~.:.~.:.~.:.~.:.~.:.~.:.~.:.~.:.~.:.~.:.~
% ~.:.~.:.~.:.~.:.~.:.~.:.~.:.~.:.~.:.~.:.~.:.<>.:.~.:.~.:.~.:.~.:.~.:.~.:.~.:.~.:.~.:.~.:.~








% Descripción de funcionalidades
% ~.:.~.:.~.:.~.:.~.:.~.:.~.:.~.:.~.:.~.:.~.:.<>.:.~.:.~.:.~.:.~.:.~.:.~.:.~.:.~.:.~.:.~.:.~
% ~.:.~.:.~.:.~.:.~.:.~.:.~.:.~.:.~.:.~.:.~.:.<>.:.~.:.~.:.~.:.~.:.~.:.~.:.~.:.~.:.~.:.~.:.~
% ~.:.~.:.~.:.~.:.~.:.~.:.~.:.~.:.~.:.~.:.~.:.<>.:.~.:.~.:.~.:.~.:.~.:.~.:.~.:.~.:.~.:.~.:.~

% 03-09-14: Layout
% Ahora las articulaciones van por dentro de las ligaduras. Parece que es la mejor solución



% 04-09-14: Layout
% Los creciendos y decreciendos tienen la línea un poco más gruesa
%
% Markup
% Añadidas guías para correcta posición y markup de la indicación de tempo
%
% Plugins
% Añadida función \emptyStave para imprimir un pentagrama vacío.
% En algunas partituras hay un pentagrama vacío antes del coda (lo cual mola bastante, por cierto)



% 05-09-14: Plugins
% Añadido a la función \emptyStave el esconder la armadura de la clave, que no estaba.



% 08-09-14: Layout
% Ahora no se muestra la cancelación de accidentales al haber un cambio de armadura



% 09-09-14: Chords
% Añadida sentencia para que los acordes menores salgan con un guión en vez de con una M minúscula



% 10-09-14: Plugins
% Mejorada la función \bendAfter.
% Ahora es genérica, y se puede definir cualquier texto en un lateral que haga las funciones de ornamento



% 15-09-14: Layout
% Añadido un poco más de margen a los reguladores



% 16-09-14: Plugins
% Mejorada la función para imprimir barras de improvisación.
% Antes se llamaba al comando \rs para pintar una barra que ocupaba una negra
% Se reemplaza \rs por \restImproOn y \restImproOff, siendo esta opción mucho más flexible.
% Cuando se activa \restImproOn, todo silencio se convierte en barra de improvisación, respetando su duración.



% 20-09-14: Plugins
% Mejorada la función para imprimir barras de improvisación.
% Se reemplaza \restImproOn y \restImproOff por \improOn y \improOff
% Ahora, también las notas del pentagrama salen como barra de improvisación.
% (los comandos \improvisationOn e \improvisationOff de lilypond no se llevan bien con LilyJAZZ)
% Se ha añadido un grob correspondiente a los slash de la fuente LilyJAZZ en el archivo lily-jazz.ly



% 20-09-14: Layout
% Comentada la línea que oculta la cancelación de accidentales al haber cambio de armadura.
% Realmente, la cancelación es muy bienvenida.



% 01-10-14: Plugins
% Renombrada la función \emptyStave a \emptyStaff (stave es el plural de staff) y 
% corregida (ya no muestra el número de compás).
% Recordar que después de usar \emptyStaff se necesita redefinir el 
% número de compás con \set Score.currentBarNumber = #xx
%
% Añadida la función \emptyBar que oculta un compás entero. Se puede usar para crear un 
% efecto de indentación en un pentagrama dado.
% Recordar que después de usar \emptyBar se necesita:
% - redefinir el número de compás con \set Score.currentBarNumber = #xx
% - volver a pintar la clave con \clef
% - volver a pintar la armadura con \key



% 15-10-14: Language
% Cambiado el lenguaje de entrada de notas del finlandes al inglés
% La diferencia es que ahora los sostenidos se escriben "-s" en vez de "-is"
% y los bemoles "-f" en vez de "-es".
%
% Estructura
% Para poder autoincluir los archivos de instrumento en otros 
% (para montar un midi, o un score), se han movido los plugins a un archivo separado
% y ahora se utiliza la función \includeOnce, evitando así el problema de las
% dependencias circulares.
%
% Global
% Todas las instrucciones que se colocaban justo antes de empezar la música están ahora
% recogidas en una función \global.
% A \global se le ha añadido instrucciones para que agrupe las corcheas de dos en dos
% en vez de cuatro en cuatro (el comportamiento por defecto).
%
% Plugins
% Se le ha aumentado el grosor de los bordes de la función \boxed



% 26-10-14: Chords
% Añadido el include "chord-exception.ily" que recoge una mejor notación de los acordes.
% Actualmente, recoge los acordes maj7, 7(b5), 7(#5), 7(b9), 7(#9), 7(add13), maj9(add13), 9(#11)
% Se irá añadiendo acordes a menudo.
 

% ~.:.~.:.~.:.~.:.~.:.~.:.~.:.~.:.~.:.~.:.~.:.<>.:.~.:.~.:.~.:.~.:.~.:.~.:.~.:.~.:.~.:.~.:.~
% ~.:.~.:.~.:.~.:.~.:.~.:.~.:.~.:.~.:.~.:.~.:.<>.:.~.:.~.:.~.:.~.:.~.:.~.:.~.:.~.:.~.:.~.:.~








% Dependencias
% ~.:.~.:.~.:.~.:.~.:.~.:.~.:.~.:.~.:.~.:.~.:.<>.:.~.:.~.:.~.:.~.:.~.:.~.:.~.:.~.:.~.:.~.:.~
% ~.:.~.:.~.:.~.:.~.:.~.:.~.:.~.:.~.:.~.:.~.:.<>.:.~.:.~.:.~.:.~.:.~.:.~.:.~.:.~.:.~.:.~.:.~
% ~.:.~.:.~.:.~.:.~.:.~.:.~.:.~.:.~.:.~.:.~.:.<>.:.~.:.~.:.~.:.~.:.~.:.~.:.~.:.~.:.~.:.~.:.~

% \includeOnce
% Incluye una dependencia solo una vez. Así se pueden incluir los archivos en otros 
% (para montar un score por ejemplo) sin liarla parda con dependencias cíclicas.

includeOnce = #(
	define-void-function (parser location filename) (string?) (
		if (not (defined? (string->symbol filename))) (
			begin (
				ly:parser-include-string parser (
					string-concatenate (list "\\include \"" filename "\"")
				)
			)
			(primitive-eval (list 'define (string->symbol filename) #t))
		)
	)
)



% LilyJAZZ
\includeOnce "includes/ignatzek-jazz-chords.ily"
\includeOnce "includes/lily-jazz.ily"



% Language
\language "english"



% Plugins
\includeOnce "includes/plugins-1.2.ily"



% Chord Exceptions
\includeOnce "includes/chord-exceptions.ily"

% ~.:.~.:.~.:.~.:.~.:.~.:.~.:.~.:.~.:.~.:.~.:.<>.:.~.:.~.:.~.:.~.:.~.:.~.:.~.:.~.:.~.:.~.:.~
% ~.:.~.:.~.:.~.:.~.:.~.:.~.:.~.:.~.:.~.:.~.:.<>.:.~.:.~.:.~.:.~.:.~.:.~.:.~.:.~.:.~.:.~.:.~











% Disposición
% ~.:.~.:.~.:.~.:.~.:.~.:.~.:.~.:.~.:.~.:.~.:.<>.:.~.:.~.:.~.:.~.:.~.:.~.:.~.:.~.:.~.:.~.:.~
% ~.:.~.:.~.:.~.:.~.:.~.:.~.:.~.:.~.:.~.:.~.:.<>.:.~.:.~.:.~.:.~.:.~.:.~.:.~.:.~.:.~.:.~.:.~
% ~.:.~.:.~.:.~.:.~.:.~.:.~.:.~.:.~.:.~.:.~.:.<>.:.~.:.~.:.~.:.~.:.~.:.~.:.~.:.~.:.~.:.~.:.~

% Cabecera
\header {
	title = "Blue Bossa"
	instrument = \markup { "Trumpet II (E" \hspace #-.4 \tiny \jazzglyph #'"accidentals.flatjazz" \hspace #-.4 ")" }
	composer = "By KENNY Dorha"
	arranger = "Arranged by MICHAEL SWEENE"
	poet = ""
	tagline = ""
}



% Márgenes, fuentes y distancias del papel
\paper {
	% El definir otro tipo de fuente no permite cambiar el tamaño global del staff. Es un bug conocigo
	#(define fonts (make-pango-font-tree "LilyJAZZText" "Nimbus Sans" "Luxi Mono" (/ 20 20)))

	% distancia entre la parte superior de la página y el título
	top-markup-spacing #'basic-distance = 5

	% distancia entre el título y el primer sistema
	markup-system-spacing #'basic-distance = 25

	% distancia entre el texto y el primer sistema 
	top-system-spacing #'basic-distance = 15

	% márgen inferior
	bottom-margin = 20
	
	% intentado del primer sistema
	indent = 0
	 
	% número de páginas
	% page-count = 1

	ragged-last-bottom = ##f 

	oddHeaderMarkup = \markup {
	 \on-the-fly #not-first-page \fill-line {
		\fromproperty #'page:page-number-string
		\fromproperty #'header:title
		\fromproperty #'header:instrument
	 }
	}

	evenHeaderMarkup = \markup {
	 \on-the-fly #not-first-page \fill-line {
		\fromproperty #'header:instrument
		\fromproperty #'header:title
		\fromproperty #'page:page-number-string
	 }
	}
}

% ~.:.~.:.~.:.~.:.~.:.~.:.~.:.~.:.~.:.~.:.~.:.<>.:.~.:.~.:.~.:.~.:.~.:.~.:.~.:.~.:.~.:.~.:.~
% ~.:.~.:.~.:.~.:.~.:.~.:.~.:.~.:.~.:.~.:.~.:.<>.:.~.:.~.:.~.:.~.:.~.:.~.:.~.:.~.:.~.:.~.:.~







% Elementos comunes de la partitura
% ~.:.~.:.~.:.~.:.~.:.~.:.~.:.~.:.~.:.~.:.~.:.<>.:.~.:.~.:.~.:.~.:.~.:.~.:.~.:.~.:.~.:.~.:.~
% ~.:.~.:.~.:.~.:.~.:.~.:.~.:.~.:.~.:.~.:.~.:.<>.:.~.:.~.:.~.:.~.:.~.:.~.:.~.:.~.:.~.:.~.:.~
% ~.:.~.:.~.:.~.:.~.:.~.:.~.:.~.:.~.:.~.:.~.:.<>.:.~.:.~.:.~.:.~.:.~.:.~.:.~.:.~.:.~.:.~.:.~

% Elementos comunes de texto (marcas de ensayo, tempo, etc)
scoreMarkup = \new Staff \with { \RemoveEmptyStaves } {
	% Oculta el primer pentagrama del markup
	\override Staff.VerticalAxisGroup #'remove-first = ##t

	% Indicación de tiempo
	\once \override Score.RehearsalMark.X-offset = #5
	\mark \markup \small "(Moderate Latin)"

	s1*8
	\mark \markup {
		\column { \boxed "9" }
		\hspace #2
		\column { \vspace #-.3 \normalsize \jazzglyph #'"scripts.segnojazz" }
	}
	
	s1*8
	\mark \markup \boxed "17"
	
	s1*8
	\mark \markup \boxed "25"
	
	s1*8
	\mark \markup \boxed "33"
	
	s1*6
	\mark \markup \boxed "39"
	
	s1*8
	\mark \markup \boxed "47"
	
	s1*8
	\mark \markup \boxed "55"
	
	s1*8
	\mark \markup \boxed "63"
	
	s1*8
	\mark \markup \boxed "71"
	
	s1*8
	\eolMark \markup "D.S. al Coda"
	\mark \markup {
		\column { \small \jazzglyph #'"scripts.varcodajazz" }
		\column { \vspace #.3 \normalsize "Coda" }
	}
}



% Función musical global
global = {
	% Para pintar todos los números de compás debajo del pentagrama
	\override Score.BarNumber #'break-visibility = #end-of-line-invisible
	\override Score.BarNumber #'direction = #DOWN
	\override Score.BarNumber #'extra-offset = #'(1.5 . 0)

	\jazzOn
	\compressFullBarRests

	% Arregla el problema de tener el scoreMarkup añadido
	\revert MultiMeasureRest #'staff-position
	\override Voice.Rest #'staff-position = #0	

	\set Timing.beamExceptions = #'()
	\set Timing.baseMoment = #(ly:make-moment 1/4)
	\set Timing.beatStructure = #'(1 1 1 1) 
}

% ~.:.~.:.~.:.~.:.~.:.~.:.~.:.~.:.~.:.~.:.~.:.<>.:.~.:.~.:.~.:.~.:.~.:.~.:.~.:.~.:.~.:.~.:.~
% ~.:.~.:.~.:.~.:.~.:.~.:.~.:.~.:.~.:.~.:.~.:.<>.:.~.:.~.:.~.:.~.:.~.:.~.:.~.:.~.:.~.:.~.:.~








% Elementos específicos del instrumento
% ~.:.~.:.~.:.~.:.~.:.~.:.~.:.~.:.~.:.~.:.~.:.<>.:.~.:.~.:.~.:.~.:.~.:.~.:.~.:.~.:.~.:.~.:.~
% ~.:.~.:.~.:.~.:.~.:.~.:.~.:.~.:.~.:.~.:.~.:.<>.:.~.:.~.:.~.:.~.:.~.:.~.:.~.:.~.:.~.:.~.:.~
% ~.:.~.:.~.:.~.:.~.:.~.:.~.:.~.:.~.:.~.:.~.:.<>.:.~.:.~.:.~.:.~.:.~.:.~.:.~.:.~.:.~.:.~.:.~

% Cifrado
scoreChords = \chords {    
	\set minorChordModifier = \markup { "-" }
	\set chordNameExceptions = #chordNameExceptions
	\override ChordName.font-size = #2.5

	s1*46
	
	a1:m
	s
	d:m7
	g:7
	
	b:m7.5-
	e2:7 e:5+.7
	a1:m
	s1
	
	c:m7
	f:7
	bf:maj7
	s1
	
	b:m7.5-
	e:5+.7
	a1:m
	s1
}

% Música
music = \relative c'' {
  
	\global
	\key c \major

	R1*4
	
	r2 c4. \mf b8 ~
	b1
	r2 c4. -> \f e8 -^
	r2 r4 e,4 -. \f
	
	\break
	e'4. d8 c -- b -. r a -> ~
	a2. g4 -.
	f2 ~ f8 e' -. r d -> ~ 
	d2. r4
	
	d4. c8 b -- a -. r g -> ~
	\break
	g2. f4 -. 
	e2 ~ e8 d' -. r c -> ~
	c2. r4
	
	c4. bf8 a -- g -. r f -> ~
	f2. ef4 -.
	\break
	ef4. d8 g4. f8
	f2. r4
	
	f4 -. e?8 -- g -> ~ g4. f8
	f4 -. e8 -- g -> ~ g4. f8
	e1 ~ 
	\break
	e2 r4 e4 -. \f
	
	c'4. b8 a -- a -. r g -> ~
	g2. e4 -.
	d2 ~ d8 c' -. r b -> ~ 
	b2. r4
	
	\break
	b4. a8 a -- f -. r g -> ~
	g2. f4 -. 
	e2 ~ e8 d' -. r c -> ~
	c2 e,8 ( fs a b )
	
	\break
	c4. bf8 a -- g -. r f? -> ~
	f2. r4
	R1
	r2 a8 ( \mf bf a g )
	
	f4 -. e8 -- g -> ~ g4. f8
	\break
	f4 -. e8 -- g -> ~ g4. f8
	e1 ~ 
	e2 r2
	
	R1*2
	r2 c'4. \mf b8 ~
	b1
	\pageBreak
	r2 c4. -> \f e8 -^
	r8 e,8 ( \mf f g gs b d f )
	
	\bar "[|:"
	e2. d8 ( c )
	b ( c16 b a2 ) g8 e
	\break
	f4 a8 c e2 ~
	e4 e8 ( d ) e -- d -. r4
	
	r4 f,8 ( e f g a c )
	b4. a8 gs8 -- d' -. r c ( -> ~
	\break
	c4 b8 c ) d4 ( c8 d )
	e2. r4
	
	g,4. a8 bf -- c -. r d -> ~
	d4. c8 b? -- c -. r f -> ~
	\break
	f4. d8 c4 -. bf8 -- a -> ~
	a2 r4 bf8 ( c
	
	d e f e ~ e2 )
	c8 ( d e d ~ d2 )
	\break
	b8 ( c d c ) b4 -. g8 -- e -> ~
	e2 r2
	\bar ":|]"
	
	b'2 \mf ~ b8 c -. gs -- a -> ~
	a2 ~ a8 g? -. e -- f -> ~
	\break
	f2 ~ f8 e -. cs -- d -> ~
	d2. r4
	
	b'2 \mf ~ b8 b -. fs -- g -> ~
	g2 ~ g8 f? -. ef -- e -> ~
	\break
	e2 ~ e8 d' -. b -- c -> ~
	c2. r4
	
	R1*3
	r4 f,8 ( \mf \< g a bf c4 ) 
	
	\break
	b?2. \f -> b8 -- d -> ~
	d2 ~ d8 r8 r4
	R1
	r2 r4 e,4 -. \mf
	\bar "||"
	
	\break
	r2 c'4. -> \f  b8 -> ~
	b1 ~ _"Dim." 
	b1 ~
	b1
	
	R1
	gs1 \mp \fermata
	\bar "|."
}

% ~.:.~.:.~.:.~.:.~.:.~.:.~.:.~.:.~.:.~.:.~.:.<>.:.~.:.~.:.~.:.~.:.~.:.~.:.~.:.~.:.~.:.~.:.~
% ~.:.~.:.~.:.~.:.~.:.~.:.~.:.~.:.~.:.~.:.~.:.<>.:.~.:.~.:.~.:.~.:.~.:.~.:.~.:.~.:.~.:.~.:.~








% Impresión de la partitura
% (Sólo se imprime el primer \book que encuentra Lilypond!! ojo al incluir archivos)
% ~.:.~.:.~.:.~.:.~.:.~.:.~.:.~.:.~.:.~.:.~.:.<>.:.~.:.~.:.~.:.~.:.~.:.~.:.~.:.~.:.~.:.~.:.~
% ~.:.~.:.~.:.~.:.~.:.~.:.~.:.~.:.~.:.~.:.~.:.<>.:.~.:.~.:.~.:.~.:.~.:.~.:.~.:.~.:.~.:.~.:.~
% ~.:.~.:.~.:.~.:.~.:.~.:.~.:.~.:.~.:.~.:.~.:.<>.:.~.:.~.:.~.:.~.:.~.:.~.:.~.:.~.:.~.:.~.:.~

\book {
	\score {
		<<
			\scoreMarkup
			\scoreChords
			\new StaffGroup <<
				\new Staff { \transpose ef bf \music }
			>>
		>>
	}
}


