\version "2.18.2"

\include "lily-jazz/ignatzek-jazz-chords.ily"
\include "lily-jazz/lily-jazz.ily"

% PLUGINS
% - \eolMark: 		mark al final de línea
% - \bendBefore: 	solución al bendBefore (i.e. dis8 \bendBefore)
% - \rit: 			crea una porción de ritardando que debe terminar como las dinámicas, con un \!
% - \rs: 			negra de improvisación
% - \emptyStave:	Imprime un pentagrama vacío

% LAYOUT
% - El aspecto de los silencios multicompás es como los de las partituras de jazz
% - Margen extra de las articulaciones para evitar la colisión con las ligaduras
% - Glissandos bonitos

% PAPER
% - Se imprime el título, instrumento y número de página en todas las páginas
% - Solo se debe tocar el page-count (si eso). Sale bonito tal cual.

% CAMBIOS
% 03-09-14: Layout
% Ahora las articulaciones van por dentro de las ligaduras. Parece que es la mejor solución
%
% 04-09-14: Layout
% Los creciendos y decreciendos tienen la línea un poco más gruesa
%
% Markup
% Añadidas guías para correcta posición y markup de la indicación de tempo
%
% Plugins
% Añadida función \emptyStave para imprimir un pentagrama vacío.
% En algunas partituras hay un pentagrama vacío antes del coda (lo cual mola bastante, por cierto)
%
% 05-09-14: Plugins
% Añadido a la función \emptyStave el esconder la armadura de la clave, que no estaba.
%
% 08-09-14: Layout
% Ahora no se muestra la cancelación de accidentales al haber un cambio de armadura
%
% 09-09-14: Chords
% Añadida sentencia para que los acordes menores salgan con un guión en vez de con una M minúscula
%
% 10-09-14: Plugins
% Mejorada la función \bendAfter.
% Ahora es genérica, y se puede definir cualquier texto en un lateral que haga las funciones de ornamento
%
% 15-09-14: Layout
% Añadido un poco más de margen a los reguladores
%
% 16-09-14: Plugins
% Mejorada la función para imprimir barras de improvisación.
% Antes se llamaba al comando \rs para pintar una barra que ocupaba una negra
% Se reemplaza \rs por \restImproOn y \restImproOff, siendo esta opción mucho más flexible.
% Cuando se activa \restImproOn, todo silencio se convierte en barra de improvisación, respetando su duración.
%
% 20-09-14: Plugins
% Mejorada la función para imprimir barras de improvisación.
% Se reemplaza \restImproOn y \restImproOff por \improOn y \improOff
% Ahora, también las notas del pentagrama salen como barra de improvisación.
% (los comandos \improvisationOn e \improvisationOff de lilypond no se llevan bien con LilyJAZZ)
% Se ha añadido un grob correspondiente a los slash de la fuente LilyJAZZ en el archivo lily-jazz.ly
%
% 20-09-14: Layout
% Comentada la línea que oculta la cancelación de accidentales al haber cambio de armadura.
% Realmente, la cancelación es muy bienvenida.


% PLUGINS 1.2
% -----------
% ~.:.~.:.~.:.~.:.~.:.~.:.~.:.~.:.~.:.~.:.~.:.<>.:.~.:.~.:.~.:.~.:.~.:.~.:.~.:.~.:.~.:.~.:.~
% ~.:.~.:.~.:.~.:.~.:.~.:.~.:.~.:.~.:.~.:.~.:.<>.:.~.:.~.:.~.:.~.:.~.:.~.:.~.:.~.:.~.:.~.:.~
% ~.:.~.:.~.:.~.:.~.:.~.:.~.:.~.:.~.:.~.:.~.:.<>.:.~.:.~.:.~.:.~.:.~.:.~.:.~.:.~.:.~.:.~.:.~





% multi-mark-engraver
% [][][][][][][][][][][][][][][][][][][][][][][][][][][][][][][][][][][][][][][][][][][][][]
% Aporta la posibilidad de pintar un rehearsal mark al final de una línea y 
% al comienzo de la siguiente.
% http://lists.gnu.org/archive/html/lilypond-user/2011-08/msg00157.html
% [][][][][][][][][][][][][][][][][][][][][][][][][][][][][][][][][][][][][][][][][][][][][]
#(define (multi-mark-engraver ctx)
   (let ((texts '())
         (final-texts '())
         (events '()))

     `((start-translation-timestep
        . ,(lambda (trans)
             (set! final-texts '())))

       (listeners
        (mark-event
         . ,(lambda (trans ev)
              (set! events (cons ev events)))))

       (acknowledgers
        (break-alignment-interface
         . ,(lambda (trans grob source)
              (for-each (lambda (mark)
                          (set! (ly:grob-parent mark X) grob))
                        texts))))

       (process-music
        . ,(lambda (trans)
             (for-each
              (lambda (ev)
                (let* ((mark-grob
                        (ly:engraver-make-grob trans 'RehearsalMark ev))
                       (label (ly:event-property ev 'label))
                       (formatter (ly:context-property ctx 'markFormatter)))

                  (if (and (procedure? formatter)
                           (not (markup? label)))
                      (begin
                       (if (not (number? label))
                           (set! label
                                 (ly:context-property ctx 'rehearsalMark)))

                       (if (and (integer? label)
                                (exact? label))
                           (set! (ly:context-property ctx 'rehearsalMark)
                                 (1+ label)))

                       (if (number? label)
                           (set! label (apply formatter (list label ctx)))
                           (ly:warning "rehearsalMark must have
integer value"))))

                  (if (markup? label)
                      (begin
                       (set! (ly:grob-property mark-grob 'text) label)
                       (let ((dir (ly:event-property ev 'direction)))
                         (and (ly:dir? dir)
                              (set! (ly:grob-property mark-grob 'direction)
                                    dir))))
                      (ly:warning "mark label must be a markup object"))

                  (set! texts (cons mark-grob texts))))
              (reverse events))))

       (stop-translation-timestep
        . ,(lambda (trans)
             (if (pair? texts)
                 (let ((staves (ly:context-property ctx 'stavesFound))
                       (priority-index 0))
                   (for-each (lambda (grob)
                               (let ((my-priority (ly:grob-property
grob 'outside-staff-priority 1500)))
                                 (for-each (lambda (stave)

(ly:pointer-group-interface::add-grob grob 'side-support-elements
                                               stave))
                                           staves)
                                 (set! (ly:grob-property grob
'outside-staff-priority) (+ my-priority priority-index))
                                 (set! priority-index (1+ priority-index))
                                 (set! final-texts (cons grob final-texts))))
                             (reverse texts))
                     (set! texts '())
                     (set! events '())))))

        (finalize
         . ,(lambda (trans)
              (and (pair? final-texts)
                   (for-each (lambda (grob)
                               (set! (ly:grob-property grob 'break-visibility)
                                     end-of-line-visible))
                             final-texts)))))))


% Funciones originales
%{
myMark =
#(define-music-function (parser location text) (markup?)
  (make-music 'MarkEvent
              'label text))
			  
toCoda = {
	\tweak #'self-alignment-X #RIGHT
	\tweak #'break-visibility #begin-of-line-invisible
	\myMark \markup { \hspace #1.25 \raise #1.25 \musicglyph #"scripts.coda" }
}
%}

% Función maqueada.
% Se apoya en el código obtenido por consola al ejecutar { \displayMusic { \toCoda }}
eolMark =
#(define-music-function (parser location text) (markup?)
	(make-music 
		'MarkEvent 
		'tweaks (list 
			(cons (quote self-alignment-X) 1)
			(cons (quote break-visibility) #(#t #t #f))
		) 
		'label (markup
			#:line (
				#:hspace 1.25
				#:raise 1.25
				text
			)
		)
	)
)










% rest-score y merge-rests-on-positioning
% [][][][][][][][][][][][][][][][][][][][][][][][][][][][][][][][][][][][][][][][][][][][][]
% Permite realizar la fusión de los silencios entre dos voces en un mismo pentagrama.
% https://code.google.com/p/lilypond/issues/detail?id=1228 (fichero merge-rests.ily)
% [][][][][][][][][][][][][][][][][][][][][][][][][][][][][][][][][][][][][][][][][][][][][]

#(define (rest-score r)
  (let ((score 0)
	(yoff (ly:grob-property-data r 'Y-offset))
	(sp (ly:grob-property-data r 'staff-position)))
    (if (number? yoff)
	(set! score (+ score 2))
	(if (eq? yoff 'calculation-in-progress)
	    (set! score (- score 3))))
    (and (number? sp)
	 (<= 0 2 sp)
	 (set! score (+ score 2))
	 (set! score (- score (abs (- 1 sp)))))
    score))

#(define (merge-rests-on-positioning grob)
  (let* ((can-merge #f)
	 (elts (ly:grob-object grob 'elements))
	 (num-elts (and (ly:grob-array? elts)
			(ly:grob-array-length elts)))
	 (two-voice? (= num-elts 2)))
    (if two-voice?
	(let* ((v1-grob (ly:grob-array-ref elts 0))
	       (v2-grob (ly:grob-array-ref elts 1))
	       (v1-rest (ly:grob-object v1-grob 'rest))
	       (v2-rest (ly:grob-object v2-grob 'rest)))
	  (and
	   (ly:grob? v1-rest)
	   (ly:grob? v2-rest)
	   (let* ((v1-duration-log (ly:grob-property v1-rest 'duration-log))
		  (v2-duration-log (ly:grob-property v2-rest 'duration-log))
		  (v1-dot (ly:grob-object v1-rest 'dot))
		  (v2-dot (ly:grob-object v2-rest 'dot))
		  (v1-dot-count (and (ly:grob? v1-dot)
				     (ly:grob-property v1-dot 'dot-count -1)))
		  (v2-dot-count (and (ly:grob? v2-dot)
				     (ly:grob-property v2-dot 'dot-count -1))))
	     (set! can-merge
		   (and
		    (number? v1-duration-log)
		    (number? v2-duration-log)
		    (= v1-duration-log v2-duration-log)
		    (eq? v1-dot-count v2-dot-count)))
	     (if can-merge
		 ;; keep the rest that looks best:
		 (let* ((keep-v1? (>= (rest-score v1-rest)
				      (rest-score v2-rest)))
			(rest-to-keep (if keep-v1? v1-rest v2-rest))
			(dot-to-kill (if keep-v1? v2-dot v1-dot)))
		   ;; uncomment if you're curious of which rest was chosen:
		   ;;(ly:grob-set-property! v1-rest 'color green)
		   ;;(ly:grob-set-property! v2-rest 'color blue)
		   (ly:grob-suicide! (if keep-v1? v2-rest v1-rest))
		   (if (ly:grob? dot-to-kill)
		       (ly:grob-suicide! dot-to-kill))
		   (ly:grob-set-property! rest-to-keep 'direction 0)
		   (ly:rest::y-offset-callback rest-to-keep)))))))
    (if can-merge
	#t
	(ly:rest-collision::calc-positioning-done grob))))










% startParenthesis y endParenthesis
% [][][][][][][][][][][][][][][][][][][][][][][][][][][][][][][][][][][][][][][][][][][][][]
% http://comments.gmane.org/gmane.comp.gnu.lilypond.general/64087
% [][][][][][][][][][][][][][][][][][][][][][][][][][][][][][][][][][][][][][][][][][][][][]

% ELIMINADO










% bendBefore
% [][][][][][][][][][][][][][][][][][][][][][][][][][][][][][][][][][][][][][][][][][][][][]
% Adaptación
% http://lilypondblog.org/2013/08/adding-ornamentations-to-note-heads-part-1/
% [][][][][][][][][][][][][][][][][][][][][][][][][][][][][][][][][][][][][][][][][][][][][]

%%%
%%% Utilities for defining new grobs, grob properties and music event types
%%% (there should be built-in commands to do that in LilyPond)
%%%
#(define (define-grob-type grob-name grob-entry)
   "Define a new grob and add it to `all-grob-definitions', after
scm/define-grobs.scm fashion.
After grob definitions are added, use:

\\layout {
  \\context {
    \\Global
    \\grobdescriptions #all-grob-descriptions
  }
}

to register them."
   (let* ((meta-entry   (assoc-get 'meta grob-entry))
          (class        (assoc-get 'class meta-entry))
          (ifaces-entry (assoc-get 'interfaces meta-entry)))
     (set-object-property! grob-name 'translation-type? list?)
     (set-object-property! grob-name 'is-grob? #t)
     (set! ifaces-entry (append (case class
                                  ((Item) '(item-interface))
                                  ((Spanner) '(spanner-interface))
                                  ((Paper_column) '((item-interface
                                                     paper-column-interface)))
                                  ((System) '((system-interface
                                               spanner-interface)))
                                  (else '(unknown-interface)))
                                ifaces-entry))
     (set! ifaces-entry (uniq-list (sort ifaces-entry symbol<?)))
     (set! ifaces-entry (cons 'grob-interface ifaces-entry))
     (set! meta-entry (assoc-set! meta-entry 'name grob-name))
     (set! meta-entry (assoc-set! meta-entry 'interfaces
                                  ifaces-entry))
     (set! grob-entry (assoc-set! grob-entry 'meta meta-entry))
     (set! all-grob-descriptions
           (cons (cons grob-name grob-entry)
                 all-grob-descriptions))))

#(define-public (define-grob-property symbol type? description)
   "Define a new grob property.
`symbol': the property name
`type?': the type predicate for this property
`description': the type documentation"
  (set-object-property! symbol 'backend-type? type?)
  (set-object-property! symbol 'backend-doc description)
  symbol)

#(defmacro*-public define-music-type (type-name parents #:rest properties)
     "Add a new music type description to `music-descriptions'
and `music-name-to-property-table'.

`type-name': the music type name (a symbol)
`parents': the parent event classes (a list of symbols)
`properties': a (key . value) property set, which shall contain at least
   description and type properties.
"
   (let ((gproperties (gensym "properties")))
     `(let ((,gproperties (list-copy ',properties)))
        ,@(map (lambda (parent)
                `(define-event-class ',(ly:camel-case->lisp-identifier type-name)
                   ',parent))
               parents)
        (set-object-property! ',type-name
                              'music-description
                              (cdr (assq 'description ,gproperties)))
        (set! ,gproperties (assoc-set! ,gproperties 'name ',type-name))
        (set! ,gproperties (assq-remove! ,gproperties 'description))
        (hashq-set! music-name-to-property-table ',type-name ,gproperties)
        (set! music-descriptions
              (cons (cons ',type-name ,gproperties)
                    music-descriptions)))))

%%%
%%% Grob definition
%%%
#(define (head-ornamentation::print me)
   "Prints a HeadOrnamentation grob, on the left or right side of the
note head, depending on the grob direction."
   (let* ((notes (ly:grob-object me 'elements))
          (y-ref (ly:grob-common-refpoint-of-array me notes Y))
          (x-ref (ly:grob-common-refpoint-of-array me notes X))
          (x-ext (ly:relative-group-extent notes x-ref X))
          (y-ext (ly:relative-group-extent notes y-ref Y))
          (staff-position (ly:grob-staff-position (ly:grob-array-ref notes 0)))
          (y-coord (+ (interval-center y-ext)
                      (if (and (eq? (ly:grob-property me 'shift-when-on-line) #t)
                               (memq staff-position '(-4 -2 0 2 4)))
                          0.5
                          0)))
          (text (ly:text-interface::print me))
          (width (/ (interval-length (ly:stencil-extent text X)) 2.0))
          (x-coord (if (= (ly:grob-property me 'direction) LEFT)
                       (- (car x-ext) width)
                       (+ (cdr x-ext) width))))
     (ly:stencil-translate
      text
      (cons
       (- (- x-coord (ly:grob-relative-coordinate me x-ref X)) 
          (ly:grob-property me 'x-position))
       (- (- y-coord (ly:grob-relative-coordinate me y-ref Y)) 
          (ly:grob-property me 'y-position))
       ))))

%% a new grob property (used to shift an ornamentation when the
%% note head is on a staff line)
#(define-grob-property 'shift-when-on-line boolean?
   "If true, then the ornamentation is vertically shifted when
the note head is on a staff line.")

#(define-grob-property 'x-position number?
   "X position")

#(define-grob-property 'y-position number?
   "Y position")

#(define-grob-type 'HeadOrnamentation
  `((font-size . 0)
    (shift-when-on-line . #f)
    (x-position . 1)
    (y-position . 1)
    (stencil . ,head-ornamentation::print)
    (meta . ((class . Item)
             (interfaces . (font-interface))))))

\layout {
  \context {
    \Global
    \grobdescriptions #all-grob-descriptions
  }
}

%%%
%%% Engraver
%%%
%% The head-ornamentation engraver, with its note-head acknowledger
%% (which add HeadOrnamentation grobs to note heads)
#(define head-ornamentation-engraver
   (make-engraver
    (acknowledgers
     ((note-head-interface engraver note-grob source)
      ;; helper function to create HeadOrnamentation grobs
      (define (make-ornament-grob text direction shift-when-on-line x-position y-position)
        (let ((ornament-grob (ly:engraver-make-grob engraver
                                                    'HeadOrnamentation
                                                    note-grob)))
          ;; use the ornament event text as the grob text property
          (set! (ly:grob-property ornament-grob 'text) text)
          ;; set the grob direction (either LEFT or RIGHT)
          (set! (ly:grob-property ornament-grob 'direction) direction)
          ;; set the shift-when-on-line property using the given value
          (set! (ly:grob-property ornament-grob 'shift-when-on-line)
                shift-when-on-line)
          ;; set the grob x-pos
          (set! (ly:grob-property ornament-grob 'x-position) x-position)
          ;; set the grob y-pos
          (set! (ly:grob-property ornament-grob 'y-position) y-position)
          (ly:pointer-group-interface::add-grob ornament-grob
                                                'elements
                                                note-grob)
          
          ;; the ornamentation is vertically aligned with the note head
          (set! (ly:grob-parent ornament-grob Y) note-grob)
          ;; compute its font size
          (set! (ly:grob-property ornament-grob 'font-size)
                (+ (ly:grob-property ornament-grob 'font-size 0.0)
                   (ly:grob-property note-grob 'font-size 0.0)))
          ;; move accidentals and dots to avoid collision
          (let* ((ornament-stencil (ly:text-interface::print ornament-grob))
                 (ornament-width (interval-length
                                  (ly:stencil-extent ornament-stencil X)))
                 (note-column (ly:grob-object note-grob 'axis-group-parent-X))
                 ;; accidentals attached to the note:
                 (accidentals (and (ly:grob? note-column)
                                   (ly:note-column-accidentals note-column)))
                 ;; dots attached to the note:
                 (dot-column (and (ly:grob? note-column)
                                  (ly:note-column-dot-column note-column))))
            (cond ((and (= direction LEFT) (ly:grob? accidentals))
                   ;; if the ornament is on the left side, and there are
                   ;; accidentals, then increase padding between note
                   ;; and accidentals to make room for the ornament
                   (set! (ly:grob-property accidentals 'padding)
                         ornament-width))
                  ((and (= direction RIGHT) (ly:grob? dot-column))
                   ;; if the ornament is on the right side, and there
                   ;; are dots, then translate the dots to make room for
                   ;; the ornament
                   (set! (ly:grob-property dot-column 'positioning-done)
                         (lambda (grob)
                           (ly:dot-column::calc-positioning-done grob)
                           (ly:grob-translate-axis! grob ornament-width X))))))
          ornament-grob))
      ;; When the note-head event attached to the note-head grob has
      ;; ornamentation events among its articulations, then create a
      ;; HeadOrnamentation grob
      (for-each
       (lambda (articulation)
         (if (memq 'head-ornamentation-event
                   (ly:event-property articulation 'class))
             ;; this articulation is an ornamentation => make the grob
             ;; (either on LEFT or RIGHT direction)
             (begin
               (if (markup? (ly:event-property articulation 'left-text))
                   (make-ornament-grob
                    (ly:event-property articulation 'left-text)
                    LEFT
                    (ly:event-property articulation 'shift-when-on-line)
                    (ly:event-property articulation 'x-position)
                    (ly:event-property articulation 'y-position)))
               (if (markup? (ly:event-property articulation 'right-text))
                   (make-ornament-grob
                   (ly:event-property articulation 'right-text)
                   RIGHT
                   (ly:event-property articulation 'shift-when-on-line)
                   (ly:event-property articulation 'x-position)
                   (ly:event-property articulation 'y-position))))))
         (ly:event-property (ly:grob-property note-grob 'cause) 'articulations))))))

\layout {
  \context {
    \Score
    \consists #head-ornamentation-engraver
  }
}

%%%
%%% Event type definition
%%%
#(define-music-type HeadOrnamentationEvent (music-event)
   (description . "Print an ornamentation at a note head side")
   (types . (general-music post-event event head-ornamentation-event)))

bendBefore =
#(make-music 'HeadOrnamentationEvent
  'x-position 1
  'y-position 2
  'shift-when-on-line #f
  'left-text #{ \markup { \fontsize #0 \rotate #5 \musicglyph #"brackettips.up"} #})










% [][][][][][][][][][][][][][][][][][][][][][][][][][][][][][][][][][][][][][][][][][][][][]
% Funciones propias
% [][][][][][][][][][][][][][][][][][][][][][][][][][][][][][][][][][][][][][][][][][][][][]





% Índice con borde circular y un cómodo espacio interior (y no el que viene por defecto)
% [][][][][][][][][][][][][][][][][][][][][][][][][][][][][][][][][][][][][][][][][][][][][]
#(define-markup-command (boxindex layout props text) (markup?)
	(interpret-markup layout props
		(markup #:huge #:override '(box-padding . 0.5) #:box text)
	)
)

#(define-markup-command (boxed layout props text) (markup?)
	(interpret-markup layout props
		(markup #:huge #:override '(box-padding . 0.9) #:box text)
	)
)

% Ritardando
% [][][][][][][][][][][][][][][][][][][][][][][][][][][][][][][][][][][][][][][][][][][][][]
rit =
#(make-music 'CrescendoEvent
             'span-direction START
             'span-type 'text
             'span-text "rit.")

% Barras de improvisacion
% [][][][][][][][][][][][][][][][][][][][][][][][][][][][][][][][][][][][][][][][][][][][][]
improOn = {
  \override Rest.stencil = #ly:text-interface::print
  \override Rest.text = \markup \jazzglyph #"noteheads.s2slashjazz"
  \override NoteHead.stencil = #jazz-slashednotehead
}

improOff = {
  \revert Rest.stencil
  \revert Rest.text
  \revert NoteHead.stencil
}

% Pentagrama vacío
% [][][][][][][][][][][][][][][][][][][][][][][][][][][][][][][][][][][][][][][][][][][][][]
emptyStave = {
  \once \override Staff.KeySignature.stencil = ##f
  \once \override Staff.Clef.stencil = ##f
  \break
  s1
  \once \override Staff.BarLine.stencil = ##f
  \break
}










% Añadido de funciones al contexto
% [][][][][][][][][][][][][][][][][][][][][][][][][][][][][][][][][][][][][][][][][][][][][]
\layout {
  \context {
    \Score		
    
    % multi-mark-engraver
    \remove "Mark_engraver"
    \consists #multi-mark-engraver
    \consists "Tweak_engraver"
    
    % merge-rests-on-positioning
    \override RestCollision #'positioning-done = #merge-rests-on-positioning
    
    % aspecto de los silencios multicompás
    \override MultiMeasureRest.expand-limit = #1
    
    % margen extra de las articulaciones para evitar la colisión con las ligaduras
    \override Script.padding = #0.5
    \override Script.avoid-slur = #'inside
    
    % glissando bonito
    \override Glissando.style = #'trill
    \override Glissando.bound-details.left.padding = #1.7
    
    % dinámicas un poco mas gruesas
    \override Hairpin.thickness = #1.75
    \override Hairpin.bound-padding = #2
    
    % Esconde la cancelacion de accidentales en el cambio de armadura
    % \override KeyCancellation.break-visibility = #'#(#f #f #f)
  }
}












% LAYOUT
% ------
% ~.:.~.:.~.:.~.:.~.:.~.:.~.:.~.:.~.:.~.:.~.:.<>.:.~.:.~.:.~.:.~.:.~.:.~.:.~.:.~.:.~.:.~.:.~
% ~.:.~.:.~.:.~.:.~.:.~.:.~.:.~.:.~.:.~.:.~.:.<>.:.~.:.~.:.~.:.~.:.~.:.~.:.~.:.~.:.~.:.~.:.~
% ~.:.~.:.~.:.~.:.~.:.~.:.~.:.~.:.~.:.~.:.~.:.<>.:.~.:.~.:.~.:.~.:.~.:.~.:.~.:.~.:.~.:.~.:.~






\header {
  title = "Cabaret"
  instrument = "Piano"
  composer = "John KANDER & Fred EBB"
  arranger = ""
  poet = \markup \tiny "Reducción y edición: Gabriel PALACIOS"
  meter = \markup \tiny "gabriel.ps.ms@gmail.com"
  tagline = \markup {
    \center-column {
      \line { \tiny "Reducción y edición: Gabriel PALACIOS" }
      \line { \tiny "gabriel.ps.ms@gmail.com" }
    }
  }
}

\paper {
  % El definir otro tipo de fuente no permite cambiar el tamaño global del staff. Es un bug conocigo
  #(define fonts (make-pango-font-tree "LilyJAZZText" "Nimbus Sans" "Luxi Mono" (/ 20 20)))
  
  % distancia entre la parte superior de la página y el título
  top-markup-spacing #'basic-distance = 5
  
  % distancia entre el título y el primer sistema
  markup-system-spacing #'basic-distance = 25
  
  % distancia entre el texto y el primer sistema 
  top-system-spacing #'basic-distance = 15
  
  % márgen inferior
  bottom-margin = 20
    
  % número de páginas
  % page-count = 2
  
  ragged-last-bottom = ##f 
  
  oddHeaderMarkup = \markup {
    \on-the-fly #not-first-page \fill-line {
      \fromproperty #'page:page-number-string
      \fromproperty #'header:title
      \fromproperty #'header:instrument
    }
  }
  
  evenHeaderMarkup = \markup {
    \on-the-fly #not-first-page \fill-line {
      \fromproperty #'header:instrument
      \fromproperty #'header:title
      \fromproperty #'page:page-number-string
    }
  }
}

\language "english"









% MUSIC PARTS
% -----------
% ~.:.~.:.~.:.~.:.~.:.~.:.~.:.~.:.~.:.~.:.~.:.<>.:.~.:.~.:.~.:.~.:.~.:.~.:.~.:.~.:.~.:.~.:.~
% ~.:.~.:.~.:.~.:.~.:.~.:.~.:.~.:.~.:.~.:.~.:.<>.:.~.:.~.:.~.:.~.:.~.:.~.:.~.:.~.:.~.:.~.:.~
% ~.:.~.:.~.:.~.:.~.:.~.:.~.:.~.:.~.:.~.:.~.:.<>.:.~.:.~.:.~.:.~.:.~.:.~.:.~.:.~.:.~.:.~.:.~





% scoreMarkup
% [][][][][][][][][][][][][][][][][][][][][][][][][][][][][][][][][][][][][][][][][][][][][]
scoreMarkup = \new Staff \with {
   \RemoveEmptyStaves
}
{
  % Oculta el primer pentagrama del markup
  \override Staff.VerticalAxisGroup #'remove-first = ##t
  
  % Indicación de tiempo
  \once \override Score.RehearsalMark.X-offset = #5
  \mark \jazzTempoMarkup "Moderate Swing" c2 "85"
  s1*4
  
  \bar "||"
  \mark \markup \boxed "A"
  s1*8
  
  \bar "||"
  s1*8
  
  \bar "||"
  \mark \markup \boxed "B"
  s1*16
  
  \bar "||"
  \mark \markup {
    \column { \boxed "C" }
    \column { "(Intro to vocal)" }
  }
  s1*4
  
  \bar "||"
  \mark \markup {
    \column { \boxed "D" }
    \column { "(Vocal)" }
  }
  s1*16
  
  \bar "||"
  \mark \markup \boxed "E"
  s1*16
  
  \bar "||"
  \mark \markup \boxed "F"
  s1*8
  
  \bar "||"
  \mark \markup \boxed "G"
  s1*16
  
  \bar "||"
  \mark \markup "(Recitativo)"
  s1*24
  
  \mark \markup "(A tempo)"
  s1*14
  
  \bar "|."
}





% scoreChords
% [][][][][][][][][][][][][][][][][][][][][][][][][][][][][][][][][][][][][][][][][][][][][]
scoreChords = \chords {
    
  \set minorChordModifier = \markup { "-" }
  
  s1*96
  
  b2 fs:5+
  b s
  b fs:5+ 
  b s
  
  e:6 e:m6
  b:/fs b
  cs:m cs:7
  fs:7 s
  
  b fs:5+ 
  b s
  b fs:5+ 
  b s
  
  e:6 as4:5-.7 ds
  gs2:m cs:7
  cs:m7 fs:7
  b1
  
  bf1:7 
  bf4:7 ef2.
  cs1:7
  fs:5+
  
  b2 fs:5+/as
  b fs:5+/as
  b fs:5+/as
  fs:m/a b:7
  
  e1/gs 
  f1:dim
  cs1:m 
  gs2:7sus4 gs:7
}





% music
% [][][][][][][][][][][][][][][][][][][][][][][][][][][][][][][][][][][][][][][][][][][][][]
rightHand = \relative c' {

  % Para pintar todos los números de compás debajo del pentagrama
  % \override Score.BarNumber #'break-visibility = #end-of-line-invisible
  % \override Score.BarNumber #'direction = #DOWN
  % \override Score.BarNumber #'extra-offset = #'(1.5 . 0)

  \jazzOn
  \compressFullBarRests
  
  % Arregla el problema de tener el scoreMarkup añadido
  \revert MultiMeasureRest #'staff-position
  \override Voice.Rest #'staff-position = #0
  \set Score.explicitKeySignatureVisibility = #begin-of-line-visible
  
  \key f \major
  
  r4 \f <bf d f> r4 <bf d f>
  r4 \f <b d f>8 <b d f> ~ <b d f>2
  r8 <c e g>4 r8 <cf ef gf>4 <cf ef gf>
  <bf d f>4 <bf d f>8 \> <bf ff' af> r4 \! <bf ff' af>4
  
  \break
  r4 \mf <c f? a?> r4 <c f a>
  r <c f a> r4 <bf e gs>
  r  <c f a> <c f a> <bf e gs> ~
  <bf e gs>4 <bf e gs> r <bf e gs>
  
  \break
  r8 <c f a>4. <c f a>4 <c f a>
  r <a e' g> r <a e' g>
  r8 <a ef' g>4 r8 <a d f>4 <a d f>
  <a ef' g>1
  
  \break
  r4 \f <bf d f> r4 <bf d f>
  r4 <gs d' f> r4 <gs d' f>
  r <a e' g?> r <a e' g>
  r4 <c e g>8 <c fs a> ~ <c fs a>2
  
  \break
  r4 <bf d f?> r4 <bf d f>
  r4 <bf e a> <bf e gs>2
  r4 <g? cs f?> r <fs c' e>
  <f b ds>4 <f b ds>8 <e bf' d?> ~ <e bf' d>2
  
  \break
  r8 \mf <c' f a>4. <c f a>4 <c f a>
  r <c e a> r <bf e gs>
  r4 <c f a>4 r <c f a>
  r8 <bf e gs>4. <b e gs>4 <b e gs>
  
  \break
  r8 <c f a>4. <c f a>4 <c f a>
  r4 <a e' g> r <a d f>
  r4 <bf ef g> r <bf ef g>
  r4 <a ef' g> r <a ef' gf>
  
  \break
  r4 \f <bf d f> r4 <bf d f>
  r8 <af d f>4. <b f' af>4 <af d f>
  r4 <a? e' g> r4 <c e g>
  r <c e g> r <c fs a>
  
  \break
  r8 <bf d f?>4. <d f a>4 <bf d f>
  r8 <bf e a>4. r8 <bf e gs>4.
  r4 <c f a> r <c f a>
  r4 <c f a> r <c f a>
  
  \transpose ef ds' {
  	\key ef \major
  	
  	\break
  	<c ef af>4 <af c ef>2 <af c ef>4
  	<af d g>4. <af d g>8 ~ <af d g>4 <af d g>8 <af c ef> ~
  	<af c ef>2. <af c ef>8 \> <af b d> ~
  	<af b d>1 \!
  	
  	\break
  	r4 <bf ef g> r4 <bf ef g>
  	r4 <af d g> r4 <af d fs>
  	r4 <bf ef g> <bf ef g> <af d fs> ~
  	<af d fs> <af d fs> r <af d fs>
  	
  	\break
  	r8 <bf ef g>4. <bf ef g>4 <bf ef g>4
  	r4 <g d' f> r <g d' f>
  	r <g df' f> r <g c ef>
  	r <g b d>8 <g bf df> ~ <g bf df>2
  	
  	\break
  	r4 <af c ef> r <af c f>
  	r <c ef gf> r <c ef gf>
  	r <g d' f> <bf d f> <bf e g> ~
  	<bf e g> <bf e g> r <bf e g>
  	
  	\break
  	r <af c ef?> r <af c ef>
  	r <af d g> r <af d fs>
  	r <bf ef g> r <bf ef g>
  	r <af d g> r <af d g>
  	
  	\break
  	r4 <bf ef g> r4 <bf ef g>
  	r4 <af d g> r4 <af d fs>
  	r4 <bf ef g> r4 <bf ef g>
  	r4 <af d g> r4 <af d g>
  	
  	\break
  	r4 <bf ef g> r4 <bf ef g>
  	r4 <g d' f> r4 <g d' f>
  	r8 <g df' f>4. <g c ef>4 r8 <g b f'>8 ~
  	<g b f'>4 <bf df g>4 r2
  	
  	\break
  	r4 <af c ef> r4 <af c f>
  	r4 <c ef gf> r4 <c ef gf>
  	r <g? d' f> r <bf d f>
  	r <bf e g>2.
  	
  	\break
  	\mark \markup \jazzglyph #"scripts.segnojazz"
  	r4 <af c ef?> r4 <af c ef>
  	r4 <af d g> r4 <af d fs>
  	r4 <bf ef g>2. ~
  	<bf ef g>4 r4 r2
  	
  	\break
		r4 <cf ef f> r4 <cf ef f>
		r4 <cf ef f> r4 <cf ef f>
		r4 <bf ef g> r4 <bf ef g>
		r4 <bf ef g> r4 <bf ef g>
		
		\break
		r <c ef g> r <b ef g>
		r <bf ef g> r <a ef' g>
		<af d f>4 r r2
		R1
		
		\break
		<bf ef g>4 <bf ef g> r8 <bf ef g>4.
		<af d g>4 <af d g> r8 <af d fs>4.
		r4 <bf ef g> r4 <bf ef g>
		r4 <af d fs> r4 <af d fs>
		
		\break
		r4 <bf ef g> r4 <bf ef g>
		r4 <bf ef g> r4 <bf ef g>
		r4 <af df f> r4 <af df f>
		r4 <g df f> r4 <g df f>
		
		\break
		r <c ef f> r <c ef f>
		r <c ef gf> r <c ef gf> 
		\mark \markup {
			\column { "To" }
			\hspace #2
			\column { \vspace #-.3 \jazzglyph #"scripts.varcodajazz" }
		}
		r <g d' f> <bf d f> <bf e g> ~ 
  		<bf e g>1
  			  
  			  
  		\break
  		r8 <af c ef>4. <af c ef>4 <af c ef>4
  		r4 <af c ef>4 r4 <af c ef>4
  		r4 <bf ef g>2. ~
  		<bf ef g>4 r4 r2
  		
  		\break
  		\improOn r2 r2 r2 r2 r2 r2 r2 r2
  		
  		\break
  		r2 r2 r2 r2 r2 r2 r2 r2
  		
  		\break
  		r2 r2 r2 r2 r2 r2 r2 r2
  		
  		\break
  		r2 r4 r4 r2 r2 r2 r2 r2 r2
  		
  		\break
  		r2 r2 r4 r2. r2 r2 r2 r2
  		
  		\break
  		r2 r2 r2 r2 r2 r2 r2 r2
  		
  		\break
  		r2 r2 r2 r2 r2 r2 r2 r2
  	
  	\eolMark \markup "(D.S al Coda)"
  	\bar "||"
  	
  		\break
  		\improOff
  		\mark \markup \jazzglyph #"scripts.codajazz"
   	r4 <g d' f> <bf d f> <bf e g> ~ 
   	<bf e g>1
  	
  		r4 <af c ef> r4 <af c ef>
  		\break
  		r4 <a c ef> r4 <a c ef>
  		r4 <bf d f> <bf d f> <bf e g> ~
  		<bf e g>4 <bf e g>4 r <b d g>
  		
  		\break
  		r4 <c ef? af> r4 <c ef af>
  		r4 <c ef af> r4 <c ef af>
  		r2 <af c ef>
  		r2 <af c ef>
  		
  		\break
  		r4 <bf ef g> r4 <bf ef g>
  		r4 <bf ef g> r4 <b d g>
  		r4 <c ef af> <c f af> r4
  		r2 ef4 -^ ef -^
  }
  	
  	\bar "|."
}

leftHand = \relative c {
	

  \jazzOn
  \compressFullBarRests
  
  % Arregla el problema de tener el scoreMarkup añadido
  \revert MultiMeasureRest #'staff-position
  \override Voice.Rest #'staff-position = #0
  \set Score.explicitKeySignatureVisibility = #begin-of-line-visible
  
  \key f \major
  \clef bass
  
  g2 g
  gs2. gs4
  a2 af4 af
  g g8 gf r4 gf
  
  f r c r
  f r c r
  f r f r
  c r d e
  
  f r f r
  c r c r
  f r f r
  c' f, g a
  
  bf r bf, r
  b r b r
  c r c r
  d2. d4
  
  g r g r
  c, r c' bf
  a r d, r
  g g8 c, ~ c4 c
  
  f r f r
  c r c r
  f r f r
  c r c e
  
  f r c r
  f r f r
  c r c r
  f r c' f,
  
  bf r bf, r
  b r b r
  c r a' r
  d, r a' d,
  
  g r g r
  c, r c r
  f r c' r
  f, r c r
  
  
  \transpose ef ds, {
  	
  \key ef \major
  	f f2 f4
  	bf,4. bf8 ~ bf4 bf8 f ~
  	f2. f8 e ~
  	e1
  	
  	ef4 r ef r
  	bf r bf r
  	ef r ef r
  	bf r bf d
  	
  	ef r bf r
  	ef r bf r
  	ef r ef r
  	ef r ef g
  	
  	af r af r
  	a r a r
  	bf r g r
  	c g e c
  	
  	f r f r
  	bf, r bf r
  	ef r ef r
  	bf r bf bf
  	
  	ef r ef r
  	bf r bf r
  	ef r ef r
  	bf r bf d
  	
  	ef r ef r
  	bf r bf r
  	r8 bf4. c4 r8 d? ~
  	d4 ef r ef
  	
  	af r af r
  	a r a r
  	bf r g r
  	c c, d e
  	
  	f r f r
  	bf, r bf r
  	ef c' bf g 
  	ef r4 r2
  	
  	af4 r ef r 
  	af r af r
  	ef r bf' r
  	ef, r ef d
  	
  	c r g' r
  	c, r f r
  	bf, r r2
  	r4 bf c d
  	
  	ef r ef r
  	bf r bf r
  	ef r ef r
  	bf r bf r
  	
  	ef r bf r
  	ef r ef r
  	bf r bf' r
  	ef, r ef g
  	
  	af r af r
  	a r a r
  	bf r g r
  	c g e c
  	
  	f r f r
  	bf, r bf r
  	ef c' bf g
  	ef r r2
  	
  	R1*28
  	
  	bf'4 r g r
  	r8 c,4. d4 e
  	
  	f r f r
  	fs r fs r
  	g r g r
  	c, r e r
  	
  	f r c r 
  	f r c r
  	r2 <bf bf'>
  	r2 <bf bf'>
  	
  	ef4 r bf r
  	ef r ef e
  	f r bf, r
  	ef bf' ef, -^ ef -^
  }
}





% score
% [][][][][][][][][][][][][][][][][][][][][][][][][][][][][][][][][][][][][][][][][][][][][]
\score {
  <<
    \scoreMarkup
    \scoreChords
    \new PianoStaff <<
    	\new Staff { \transpose f df' \rightHand }
    	\new Staff { \transpose f df' \leftHand }
    >>
  >>
}


