\version "2.18.2"


% Descripción de funcionalidades
% ~.:.~.:.~.:.~.:.~.:.~.:.~.:.~.:.~.:.~.:.~.:.<>.:.~.:.~.:.~.:.~.:.~.:.~.:.~.:.~.:.~.:.~.:.~
% ~.:.~.:.~.:.~.:.~.:.~.:.~.:.~.:.~.:.~.:.~.:.<>.:.~.:.~.:.~.:.~.:.~.:.~.:.~.:.~.:.~.:.~.:.~
% ~.:.~.:.~.:.~.:.~.:.~.:.~.:.~.:.~.:.~.:.~.:.<>.:.~.:.~.:.~.:.~.:.~.:.~.:.~.:.~.:.~.:.~.:.~

% PLUGINS
% - \eolMark:					mark al final de línea
% - \bendBefore: 				solución al bendBefore (i.e. dis8 \bendBefore)
% - \rit: 						crea una porción de ritardando que debe terminar como las dinámicas, con un \!
% - \improOn, \improOff:	negra de improvisación
% - \emptyStaff:				Imprime un pentagrama vacío
% - \emptyBar:					Imprime un compás invisible (útil para indentados)



% LAYOUT
% - El aspecto de los silencios multicompás es como los de las partituras de jazz
% - Margen extra de las articulaciones para evitar la colisión con las ligaduras
% - Glissandos bonitos



% PAPER
% - Se imprime el título, instrumento y número de página en todas las páginas
% - Solo se debe tocar el page-count (si eso). Sale bonito tal cual.

% ~.:.~.:.~.:.~.:.~.:.~.:.~.:.~.:.~.:.~.:.~.:.<>.:.~.:.~.:.~.:.~.:.~.:.~.:.~.:.~.:.~.:.~.:.~
% ~.:.~.:.~.:.~.:.~.:.~.:.~.:.~.:.~.:.~.:.~.:.<>.:.~.:.~.:.~.:.~.:.~.:.~.:.~.:.~.:.~.:.~.:.~








% Descripción de funcionalidades
% ~.:.~.:.~.:.~.:.~.:.~.:.~.:.~.:.~.:.~.:.~.:.<>.:.~.:.~.:.~.:.~.:.~.:.~.:.~.:.~.:.~.:.~.:.~
% ~.:.~.:.~.:.~.:.~.:.~.:.~.:.~.:.~.:.~.:.~.:.<>.:.~.:.~.:.~.:.~.:.~.:.~.:.~.:.~.:.~.:.~.:.~
% ~.:.~.:.~.:.~.:.~.:.~.:.~.:.~.:.~.:.~.:.~.:.<>.:.~.:.~.:.~.:.~.:.~.:.~.:.~.:.~.:.~.:.~.:.~

% 03-09-14: Layout
% Ahora las articulaciones van por dentro de las ligaduras. Parece que es la mejor solución



% 04-09-14: Layout
% Los creciendos y decreciendos tienen la línea un poco más gruesa
%
% Markup
% Añadidas guías para correcta posición y markup de la indicación de tempo
%
% Plugins
% Añadida función \emptyStave para imprimir un pentagrama vacío.
% En algunas partituras hay un pentagrama vacío antes del coda (lo cual mola bastante, por cierto)



% 05-09-14: Plugins
% Añadido a la función \emptyStave el esconder la armadura de la clave, que no estaba.



% 08-09-14: Layout
% Ahora no se muestra la cancelación de accidentales al haber un cambio de armadura



% 09-09-14: Chords
% Añadida sentencia para que los acordes menores salgan con un guión en vez de con una M minúscula



% 10-09-14: Plugins
% Mejorada la función \bendAfter.
% Ahora es genérica, y se puede definir cualquier texto en un lateral que haga las funciones de ornamento



% 15-09-14: Layout
% Añadido un poco más de margen a los reguladores



% 16-09-14: Plugins
% Mejorada la función para imprimir barras de improvisación.
% Antes se llamaba al comando \rs para pintar una barra que ocupaba una negra
% Se reemplaza \rs por \restImproOn y \restImproOff, siendo esta opción mucho más flexible.
% Cuando se activa \restImproOn, todo silencio se convierte en barra de improvisación, respetando su duración.



% 20-09-14: Plugins
% Mejorada la función para imprimir barras de improvisación.
% Se reemplaza \restImproOn y \restImproOff por \improOn y \improOff
% Ahora, también las notas del pentagrama salen como barra de improvisación.
% (los comandos \improvisationOn e \improvisationOff de lilypond no se llevan bien con LilyJAZZ)
% Se ha añadido un grob correspondiente a los slash de la fuente LilyJAZZ en el archivo lily-jazz.ly



% 20-09-14: Layout
% Comentada la línea que oculta la cancelación de accidentales al haber cambio de armadura.
% Realmente, la cancelación es muy bienvenida.



% 01-10-14: Plugins
% Renombrada la función \emptyStave a \emptyStaff (stave es el plural de staff) y 
% corregida (ya no muestra el número de compás).
% Recordar que después de usar \emptyStaff se necesita redefinir el 
% número de compás con \set Score.currentBarNumber = #xx
%
% Añadida la función \emptyBar que oculta un compás entero. Se puede usar para crear un 
% efecto de indentación en un pentagrama dado.
% Recordar que después de usar \emptyBar se necesita:
% - redefinir el número de compás con \set Score.currentBarNumber = #xx
% - volver a pintar la clave con \clef
% - volver a pintar la armadura con \key



% 15-10-14: Language
% Cambiado el lenguaje de entrada de notas del finlandes al inglés
% La diferencia es que ahora los sostenidos se escriben "-s" en vez de "-is"
% y los bemoles "-f" en vez de "-es".
%
% Estructura
% Para poder autoincluir los archivos de instrumento en otros 
% (para montar un midi, o un score), se han movido los plugins a un archivo separado
% y ahora se utiliza la función \includeOnce, evitando así el problema de las
% dependencias circulares.
%
% Global
% Todas las instrucciones que se colocaban justo antes de empezar la música están ahora
% recogidas en una función \global.
% A \global se le ha añadido instrucciones para que agrupe las corcheas de dos en dos
% en vez de cuatro en cuatro (el comportamiento por defecto).
%
% Plugins
% Se le ha aumentado el grosor de los bordes de la función \boxed



% 26-10-14: Chords
% Añadido el include "chord-exception.ily" que recoge una mejor notación de los acordes.
% Actualmente, recoge los acordes maj7, 7(b5), 7(#5), 7(b9), 7(#9), 7(add13), maj9(add13), 9(#11)
% Se irá añadiendo acordes a menudo.
 

% ~.:.~.:.~.:.~.:.~.:.~.:.~.:.~.:.~.:.~.:.~.:.<>.:.~.:.~.:.~.:.~.:.~.:.~.:.~.:.~.:.~.:.~.:.~
% ~.:.~.:.~.:.~.:.~.:.~.:.~.:.~.:.~.:.~.:.~.:.<>.:.~.:.~.:.~.:.~.:.~.:.~.:.~.:.~.:.~.:.~.:.~








% Dependencias
% ~.:.~.:.~.:.~.:.~.:.~.:.~.:.~.:.~.:.~.:.~.:.<>.:.~.:.~.:.~.:.~.:.~.:.~.:.~.:.~.:.~.:.~.:.~
% ~.:.~.:.~.:.~.:.~.:.~.:.~.:.~.:.~.:.~.:.~.:.<>.:.~.:.~.:.~.:.~.:.~.:.~.:.~.:.~.:.~.:.~.:.~
% ~.:.~.:.~.:.~.:.~.:.~.:.~.:.~.:.~.:.~.:.~.:.<>.:.~.:.~.:.~.:.~.:.~.:.~.:.~.:.~.:.~.:.~.:.~

% \includeOnce
% Incluye una dependencia solo una vez. Así se pueden incluir los archivos en otros 
% (para montar un score por ejemplo) sin liarla parda con dependencias cíclicas.

includeOnce = #(
	define-void-function (parser location filename) (string?) (
		if (not (defined? (string->symbol filename))) (
			begin (
				ly:parser-include-string parser (
					string-concatenate (list "\\include \"" filename "\"")
				)
			)
			(primitive-eval (list 'define (string->symbol filename) #t))
		)
	)
)



% LilyJAZZ
\includeOnce "includes/ignatzek-jazz-chords.ily"
\includeOnce "includes/lily-jazz.ily"



% Language
\language "english"



% Plugins
\includeOnce "includes/plugins-1.2.ily"



% Chord Exceptions
\includeOnce "includes/chord-exceptions.ily"

% ~.:.~.:.~.:.~.:.~.:.~.:.~.:.~.:.~.:.~.:.~.:.<>.:.~.:.~.:.~.:.~.:.~.:.~.:.~.:.~.:.~.:.~.:.~
% ~.:.~.:.~.:.~.:.~.:.~.:.~.:.~.:.~.:.~.:.~.:.<>.:.~.:.~.:.~.:.~.:.~.:.~.:.~.:.~.:.~.:.~.:.~











% Disposición
% ~.:.~.:.~.:.~.:.~.:.~.:.~.:.~.:.~.:.~.:.~.:.<>.:.~.:.~.:.~.:.~.:.~.:.~.:.~.:.~.:.~.:.~.:.~
% ~.:.~.:.~.:.~.:.~.:.~.:.~.:.~.:.~.:.~.:.~.:.<>.:.~.:.~.:.~.:.~.:.~.:.~.:.~.:.~.:.~.:.~.:.~
% ~.:.~.:.~.:.~.:.~.:.~.:.~.:.~.:.~.:.~.:.~.:.<>.:.~.:.~.:.~.:.~.:.~.:.~.:.~.:.~.:.~.:.~.:.~

% Cabecera
\header {
	title = "Four"
	instrument = "Trumpet II (Eb)"
	composer = "Miles DAVIS"
	arranger = "Arr: Mark TAYLOR"
	poet = ""
	tagline = ""
}

% Tamaño de las notas y pentagrama
#(set-global-staff-size 20)

% Márgenes, fuentes y distancias del papel
\paper {
	% El definir otro tipo de fuente no permite cambiar el tamaño global del staff. Es un bug conocigo
	#(define fonts (make-pango-font-tree "LilyJAZZText" "Nimbus Sans" "Luxi Mono" (/ 20 20)))

	% distancia entre la parte superior de la página y el título
	top-markup-spacing #'basic-distance = 5

	% distancia entre el título y el primer sistema
	markup-system-spacing #'basic-distance = 25

	% distancia entre el texto y el primer sistema 
	top-system-spacing #'basic-distance = 15

	% márgen inferior
	bottom-margin = 20
	
	% intentado del primer sistema
	indent = 0
	 
	% número de páginas
	% page-count = 1

	ragged-last-bottom = ##f 

	oddHeaderMarkup = \markup {
	 \on-the-fly #not-first-page \fill-line {
		\fromproperty #'page:page-number-string
		\fromproperty #'header:title
		\fromproperty #'header:instrument
	 }
	}

	evenHeaderMarkup = \markup {
	 \on-the-fly #not-first-page \fill-line {
		\fromproperty #'header:instrument
		\fromproperty #'header:title
		\fromproperty #'page:page-number-string
	 }
	}
}

% ~.:.~.:.~.:.~.:.~.:.~.:.~.:.~.:.~.:.~.:.~.:.<>.:.~.:.~.:.~.:.~.:.~.:.~.:.~.:.~.:.~.:.~.:.~
% ~.:.~.:.~.:.~.:.~.:.~.:.~.:.~.:.~.:.~.:.~.:.<>.:.~.:.~.:.~.:.~.:.~.:.~.:.~.:.~.:.~.:.~.:.~







% Elementos comunes de la partitura
% ~.:.~.:.~.:.~.:.~.:.~.:.~.:.~.:.~.:.~.:.~.:.<>.:.~.:.~.:.~.:.~.:.~.:.~.:.~.:.~.:.~.:.~.:.~
% ~.:.~.:.~.:.~.:.~.:.~.:.~.:.~.:.~.:.~.:.~.:.<>.:.~.:.~.:.~.:.~.:.~.:.~.:.~.:.~.:.~.:.~.:.~
% ~.:.~.:.~.:.~.:.~.:.~.:.~.:.~.:.~.:.~.:.~.:.<>.:.~.:.~.:.~.:.~.:.~.:.~.:.~.:.~.:.~.:.~.:.~

% Elementos comunes de texto (marcas de ensayo, tempo, etc)
scoreMarkup = \new Staff \with { \RemoveEmptyStaves } {
	% Oculta el primer pentagrama del markup
	\override Staff.VerticalAxisGroup #'remove-first = ##t

	% Indicación de tiempo
	% \once \override Score.RehearsalMark.X-offset = #5
	% \mark \jazzTempoMarkup "Easy Swing" c4 "112"

	s1*8
	\mark \markup \boxed "9"
	
	s1*8
	\mark \markup \boxed "17"
	
	s1*8
	\once \override Score.RehearsalMark.X-offset = #0
	\mark \markup {
		\column { \boxed "25" }
		\hspace #1.5
		\column { \vspace #-.3 \jazzglyph #"scripts.varsegnojazz" }
	}
	
	s1*8
	\mark \markup \boxed "33"
	
	s1*6
	\eolMark \markup {
		\column { "To Coda" }
		\hspace #1.5
		\column { \vspace #-.3 \small \jazzglyph #"scripts.varcodajazz" }
	}
	
	s1*2
	\mark \markup \boxed "41"
		
	s1*8
	\mark \markup \boxed "49"
	
	s1*8
	\mark \markup \boxed "57"
	\once \override Score.RehearsalMark.X-offset = #0
	\mark \markup \small "(solo - as written or ad lib.)" 
	
	s1*8
	\mark \markup \boxed "65"
	
	s1*8
	\mark \markup \boxed "73"
	
	s1*8
	\mark \markup \boxed "81"
	
	s1*8
	\mark \markup \boxed "89"
	
	s1*8
	\eolMark \markup {
		\column { "D.S. al Coda" }
		\hspace #2
		\column { \vspace #-.3 \small \jazzglyph #"scripts.codajazz" }
		
	}
	
	s1
	\once \override Score.RehearsalMark.X-offset = #0
	\mark \markup {
		\column { \vspace #-.3 \small \jazzglyph #"scripts.varcodajazz" }
		\hspace #1.5
		\column { "Coda" }
	}
}



% Función musical global
global = {
	% Para pintar todos los números de compás debajo del pentagrama
	\override Score.BarNumber #'break-visibility = #end-of-line-invisible
	\override Score.BarNumber #'direction = #DOWN
	\override Score.BarNumber #'extra-offset = #'(1.5 . 0)

	\jazzOn
	\compressFullBarRests

	% Arregla el problema de tener el scoreMarkup añadido
	\revert MultiMeasureRest #'staff-position
	\override Voice.Rest #'staff-position = #0	

	\set Timing.beamExceptions = #'()
	\set Timing.baseMoment = #(ly:make-moment 1/4)
	\set Timing.beatStructure = #'(1 1 1 1) 
}

% ~.:.~.:.~.:.~.:.~.:.~.:.~.:.~.:.~.:.~.:.~.:.<>.:.~.:.~.:.~.:.~.:.~.:.~.:.~.:.~.:.~.:.~.:.~
% ~.:.~.:.~.:.~.:.~.:.~.:.~.:.~.:.~.:.~.:.~.:.<>.:.~.:.~.:.~.:.~.:.~.:.~.:.~.:.~.:.~.:.~.:.~








% Elementos específicos del instrumento
% ~.:.~.:.~.:.~.:.~.:.~.:.~.:.~.:.~.:.~.:.~.:.<>.:.~.:.~.:.~.:.~.:.~.:.~.:.~.:.~.:.~.:.~.:.~
% ~.:.~.:.~.:.~.:.~.:.~.:.~.:.~.:.~.:.~.:.~.:.<>.:.~.:.~.:.~.:.~.:.~.:.~.:.~.:.~.:.~.:.~.:.~
% ~.:.~.:.~.:.~.:.~.:.~.:.~.:.~.:.~.:.~.:.~.:.<>.:.~.:.~.:.~.:.~.:.~.:.~.:.~.:.~.:.~.:.~.:.~

% Cifrado
scoreChords = \chords {    
	\set minorChordModifier = \markup { "-" }
	\set chordNameExceptions = #chordNameExceptions
	\override ChordName.font-size = #2.5

	% c1:m f2:m g2:m7
}

% Música
music = \relative c'' {
  
	\global
	\key f \major

	a4 -^ \f f -^ a8 a -> r bf -> ~ 
	bf4 fs8 -- f -> ~ f4 r
	r8 bf4. -> a4 -^ g8 -- fs -> ~ 
	fs2 g8 ( [ a bf c ] -> ~ 
	
	\break
	c4 ) a8 ( c ) cs -- fs, -> r bf ( -> ~ 
	bf4 g8 \< bf c4 -> ) af8 -- \ff c ->
	R1
	r2 r8 c, ( \mf d e ) -> 
	
	\break
	r8 c ( d e ) ->  r8 c ( d e ) -> 
	r8 g ( f e ) ->  r8 c ( d ef ) -> ~
	ef2. ~ ef8 d -> 
	r4 r8 f ( e? [ f g a ] ) ->
	
	\break
	r8 f ( g a ) ->  r8 f ( g a ) -> 
	r8 c ( bf a ) ->  r8 f ( g af ) -> ~
	af2. bf8 -- g -> 
	R1
	
	\break
	R1
	r2 r4 r8 c -> \f
	R1*3
	r2 r4 d8 -- \f d ->
	R1
	r8 a -- a -- a -> r2
	
	\break
	R1*2
	r8 c \mf -> r4 c4. -> bf8 ->
	R1*3
	r8 df -> \mf r4 df4 -> bf8 -- g ->
	r4 r8 f -> \f r f -> r g --
	
	\break
	a4 -^ \f f -^ a8 -- a -> r bf -> ~ 
	bf4 fs8 -- f -> ~ f4 r
	r8 bf4. -> a4 -^ g8 -- fs -> ~ 
	fs2 g8 ( [ a bf c ] -> ~ 
	
	\break
	c4 ) a8 ( c cs fs, ) -> r bf ( -> ~ 
	bf4 g8 \< bf c?4 -> ) af8 -- \ff c ->
	R1*2
	
	r4 e2 ~ -> \sfz \< e8 e ~ -> \sfz \<
	e2. ~ e8 ef -> \ff 
	\pageBreak
	R1*6
	R1*8
	
	r4 r8 e, ~ e [ f g e ]
	f d r4 r4 r8 af'
	r8 af4. f8 af r c ~ 
	\break
	c [ bf af g ] r2
	
	r4 r8 g ~ \times 2/3 { g a? bf } c a
	bf g r4 r4 r8 df'
	r8 df4. bf8 df r f ~ 
	\break
	f [ ef df bf ] r2
	
	r8 c? d? e? d [ c a g ]
	b4 af8 ef' ~ ef4 r4
	r8 d bf? a? g [ a bf d ]
	\break
	c [ a bf c ] r2
	
	r8 e c a ef' b r bf ~ 
	bf [ d bf a ] af [ ef' df c ] ~ 
	c [ e, f g ] r c, d e \bendAfter #-5
	\break
	R1 ^ \markup \small "(end solo)"
	
	R1*2
	r8 c' ( \mf d e ~ e f4 g8 ~
	g [ e f g ] e c ~ c4 ~ 
	
	c1 ~
	c2. ) r4
	\break
	r8 c ( d ef ~ ef f4 g8 ~
	g [ ef f g ] f2 ~
	
	f1 )
	R1
	r8 f -> r d -- bf -- d -> r a ~ ( ->
	\break
	a c f,2. ~
	
	f1 )
	r2 r8 f af bf ->
	r c -> \< r df -> r ef -> r f --
	ef4. -> df8 ~ -> \ff df4 d4 -^
	
	\break
	r4 e?2 -> c4 -^
	ds ->  b8 -- gs -> \bendAfter #-5 r2
	r8 g ( a bf? ~ bf d4  f?8 
	e4 ) -^ r8 cs -> ~ cs4 d4 -^
	
	\break
	e4 -^ e2 -> c?4 -^
	ds8 --  b8 -> r gs -> \bendAfter #-5 r2
	r8 g -> r bf? -> r c -> r d --
	c4. -> \f c8 r2
	
	\bar "||"
	
	\break
	\emptyBar
	\clef treble
	\key f \major
	\set Score.currentBarNumber = #97
	R1
	r4 r8 e ~ -> \ff e2 \fermata
	
	\bar "|."
	
}

% ~.:.~.:.~.:.~.:.~.:.~.:.~.:.~.:.~.:.~.:.~.:.<>.:.~.:.~.:.~.:.~.:.~.:.~.:.~.:.~.:.~.:.~.:.~
% ~.:.~.:.~.:.~.:.~.:.~.:.~.:.~.:.~.:.~.:.~.:.<>.:.~.:.~.:.~.:.~.:.~.:.~.:.~.:.~.:.~.:.~.:.~








% Impresión de la partitura
% (Sólo se imprime el primer \book que encuentra Lilypond!! ojo al incluir archivos)
% ~.:.~.:.~.:.~.:.~.:.~.:.~.:.~.:.~.:.~.:.~.:.<>.:.~.:.~.:.~.:.~.:.~.:.~.:.~.:.~.:.~.:.~.:.~
% ~.:.~.:.~.:.~.:.~.:.~.:.~.:.~.:.~.:.~.:.~.:.<>.:.~.:.~.:.~.:.~.:.~.:.~.:.~.:.~.:.~.:.~.:.~
% ~.:.~.:.~.:.~.:.~.:.~.:.~.:.~.:.~.:.~.:.~.:.<>.:.~.:.~.:.~.:.~.:.~.:.~.:.~.:.~.:.~.:.~.:.~

\book {
	\score {
		<<
			\scoreMarkup
			\scoreChords
			\new StaffGroup <<
				\new Staff { \transpose ef bf \music }
			>>
		>>
	}
}


