\include "imports/ignatzek-jazz-chords.ily"
\include "imports/lily-jazz.ily"
\include "imports/score-plugins-1.1.ly"
\include "imports/score-layout.ly"
\include "imports/score-markup.ly"
\include "imports/score-chords.ly"