\version "2.18.2"

\include "lily-jazz/ignatzek-jazz-chords.ily"
\include "lily-jazz/lily-jazz.ily"

% PLUGINS
% - \eolMark: 		mark al final de línea
% - \bendBefore: 	solución al bendBefore (i.e. dis8 \bendBefore)
% - \rit: 			crea una porción de ritardando que debe terminar como las dinámicas, con un \!
% - \rs: 			negra de improvisación
% - \emptyStave:	Imprime un pentagrama vacío

% LAYOUT
% - El aspecto de los silencios multicompás es como los de las partituras de jazz
% - Margen extra de las articulaciones para evitar la colisión con las ligaduras
% - Glissandos bonitos

% PAPER
% - Se imprime el título, instrumento y número de página en todas las páginas
% - Solo se debe tocar el page-count (si eso). Sale bonito tal cual.

% CAMBIOS
% 03-09-14: Layout
% Ahora las articulaciones van por dentro de las ligaduras. Parece que es la mejor solución
%
% 04-09-14: Layout
% Los creciendos y decreciendos tienen la línea un poco más gruesa
%
% Markup
% Añadidas guías para correcta posición y markup de la indicación de tempo
%
% Plugins
% Añadida función \emptyStave para imprimir un pentagrama vacío.
% En algunas partituras hay un pentagrama vacío antes del coda (lo cual mola bastante, por cierto)
%
% 05-09-14: Plugins
% Añadido a la función \emptyStave el esconder la armadura de la clave, que no estaba.
%
% 08-09-14: Layout
% Ahora no se muestra la cancelación de accidentales al haber un cambio de armadura
%
% 09-09-14: Chords
% Añadida sentencia para que los acordes menores salgan con un guión en vez de con una M minúscula
%
% 10-09-14: Plugins
% Mejorada la función \bendAfter.
% Ahora es genérica, y se puede definir cualquier texto en un lateral que haga las funciones de ornamento
%
% 15-09-14: Layout
% Añadido un poco más de margen a los reguladores
%
% 16-09-14: Plugins
% Mejorada la función para imprimir barras de improvisación.
% Antes se llamaba al comando \rs para pintar una barra que ocupaba una negra
% Se reemplaza \rs por \restImproOn y \restImproOff, siendo esta opción mucho más flexible.
% Cuando se activa \restImproOn, todo silencio se convierte en barra de improvisación, respetando su duración.
%
% 20-09-14: Plugins
% Mejorada la función para imprimir barras de improvisación.
% Se reemplaza \restImproOn y \restImproOff por \improOn y \improOff
% Ahora, también las notas del pentagrama salen como barra de improvisación.
% (los comandos \improvisationOn e \improvisationOff de lilypond no se llevan bien con LilyJAZZ)
% Se ha añadido un grob correspondiente a los slash de la fuente LilyJAZZ en el archivo lily-jazz.ly
%
% 20-09-14: Layout
% Comentada la línea que oculta la cancelación de accidentales al haber cambio de armadura.
% Realmente, la cancelación es muy bienvenida.


% PLUGINS 1.2
% -----------
% ~.:.~.:.~.:.~.:.~.:.~.:.~.:.~.:.~.:.~.:.~.:.<>.:.~.:.~.:.~.:.~.:.~.:.~.:.~.:.~.:.~.:.~.:.~
% ~.:.~.:.~.:.~.:.~.:.~.:.~.:.~.:.~.:.~.:.~.:.<>.:.~.:.~.:.~.:.~.:.~.:.~.:.~.:.~.:.~.:.~.:.~
% ~.:.~.:.~.:.~.:.~.:.~.:.~.:.~.:.~.:.~.:.~.:.<>.:.~.:.~.:.~.:.~.:.~.:.~.:.~.:.~.:.~.:.~.:.~





% multi-mark-engraver
% [][][][][][][][][][][][][][][][][][][][][][][][][][][][][][][][][][][][][][][][][][][][][]
% Aporta la posibilidad de pintar un rehearsal mark al final de una línea y 
% al comienzo de la siguiente.
% http://lists.gnu.org/archive/html/lilypond-user/2011-08/msg00157.html
% [][][][][][][][][][][][][][][][][][][][][][][][][][][][][][][][][][][][][][][][][][][][][]
#(define (multi-mark-engraver ctx)
   (let ((texts '())
         (final-texts '())
         (events '()))

     `((start-translation-timestep
        . ,(lambda (trans)
             (set! final-texts '())))

       (listeners
        (mark-event
         . ,(lambda (trans ev)
              (set! events (cons ev events)))))

       (acknowledgers
        (break-alignment-interface
         . ,(lambda (trans grob source)
              (for-each (lambda (mark)
                          (set! (ly:grob-parent mark X) grob))
                        texts))))

       (process-music
        . ,(lambda (trans)
             (for-each
              (lambda (ev)
                (let* ((mark-grob
                        (ly:engraver-make-grob trans 'RehearsalMark ev))
                       (label (ly:event-property ev 'label))
                       (formatter (ly:context-property ctx 'markFormatter)))

                  (if (and (procedure? formatter)
                           (not (markup? label)))
                      (begin
                       (if (not (number? label))
                           (set! label
                                 (ly:context-property ctx 'rehearsalMark)))

                       (if (and (integer? label)
                                (exact? label))
                           (set! (ly:context-property ctx 'rehearsalMark)
                                 (1+ label)))

                       (if (number? label)
                           (set! label (apply formatter (list label ctx)))
                           (ly:warning "rehearsalMark must have
integer value"))))

                  (if (markup? label)
                      (begin
                       (set! (ly:grob-property mark-grob 'text) label)
                       (let ((dir (ly:event-property ev 'direction)))
                         (and (ly:dir? dir)
                              (set! (ly:grob-property mark-grob 'direction)
                                    dir))))
                      (ly:warning "mark label must be a markup object"))

                  (set! texts (cons mark-grob texts))))
              (reverse events))))

       (stop-translation-timestep
        . ,(lambda (trans)
             (if (pair? texts)
                 (let ((staves (ly:context-property ctx 'stavesFound))
                       (priority-index 0))
                   (for-each (lambda (grob)
                               (let ((my-priority (ly:grob-property
grob 'outside-staff-priority 1500)))
                                 (for-each (lambda (stave)

(ly:pointer-group-interface::add-grob grob 'side-support-elements
                                               stave))
                                           staves)
                                 (set! (ly:grob-property grob
'outside-staff-priority) (+ my-priority priority-index))
                                 (set! priority-index (1+ priority-index))
                                 (set! final-texts (cons grob final-texts))))
                             (reverse texts))
                     (set! texts '())
                     (set! events '())))))

        (finalize
         . ,(lambda (trans)
              (and (pair? final-texts)
                   (for-each (lambda (grob)
                               (set! (ly:grob-property grob 'break-visibility)
                                     end-of-line-visible))
                             final-texts)))))))


% Funciones originales
%{
myMark =
#(define-music-function (parser location text) (markup?)
  (make-music 'MarkEvent
              'label text))
			  
toCoda = {
	\tweak #'self-alignment-X #RIGHT
	\tweak #'break-visibility #begin-of-line-invisible
	\myMark \markup { \hspace #1.25 \raise #1.25 \musicglyph #"scripts.coda" }
}
%}

% Función maqueada.
% Se apoya en el código obtenido por consola al ejecutar { \displayMusic { \toCoda }}
eolMark =
#(define-music-function (parser location text) (markup?)
	(make-music 
		'MarkEvent 
		'tweaks (list 
			(cons (quote self-alignment-X) 1)
			(cons (quote break-visibility) #(#t #t #f))
		) 
		'label (markup
			#:line (
				#:hspace 1.25
				#:raise 1.25
				text
			)
		)
	)
)










% rest-score y merge-rests-on-positioning
% [][][][][][][][][][][][][][][][][][][][][][][][][][][][][][][][][][][][][][][][][][][][][]
% Permite realizar la fusión de los silencios entre dos voces en un mismo pentagrama.
% https://code.google.com/p/lilypond/issues/detail?id=1228 (fichero merge-rests.ily)
% [][][][][][][][][][][][][][][][][][][][][][][][][][][][][][][][][][][][][][][][][][][][][]

#(define (rest-score r)
  (let ((score 0)
	(yoff (ly:grob-property-data r 'Y-offset))
	(sp (ly:grob-property-data r 'staff-position)))
    (if (number? yoff)
	(set! score (+ score 2))
	(if (eq? yoff 'calculation-in-progress)
	    (set! score (- score 3))))
    (and (number? sp)
	 (<= 0 2 sp)
	 (set! score (+ score 2))
	 (set! score (- score (abs (- 1 sp)))))
    score))

#(define (merge-rests-on-positioning grob)
  (let* ((can-merge #f)
	 (elts (ly:grob-object grob 'elements))
	 (num-elts (and (ly:grob-array? elts)
			(ly:grob-array-length elts)))
	 (two-voice? (= num-elts 2)))
    (if two-voice?
	(let* ((v1-grob (ly:grob-array-ref elts 0))
	       (v2-grob (ly:grob-array-ref elts 1))
	       (v1-rest (ly:grob-object v1-grob 'rest))
	       (v2-rest (ly:grob-object v2-grob 'rest)))
	  (and
	   (ly:grob? v1-rest)
	   (ly:grob? v2-rest)
	   (let* ((v1-duration-log (ly:grob-property v1-rest 'duration-log))
		  (v2-duration-log (ly:grob-property v2-rest 'duration-log))
		  (v1-dot (ly:grob-object v1-rest 'dot))
		  (v2-dot (ly:grob-object v2-rest 'dot))
		  (v1-dot-count (and (ly:grob? v1-dot)
				     (ly:grob-property v1-dot 'dot-count -1)))
		  (v2-dot-count (and (ly:grob? v2-dot)
				     (ly:grob-property v2-dot 'dot-count -1))))
	     (set! can-merge
		   (and
		    (number? v1-duration-log)
		    (number? v2-duration-log)
		    (= v1-duration-log v2-duration-log)
		    (eq? v1-dot-count v2-dot-count)))
	     (if can-merge
		 ;; keep the rest that looks best:
		 (let* ((keep-v1? (>= (rest-score v1-rest)
				      (rest-score v2-rest)))
			(rest-to-keep (if keep-v1? v1-rest v2-rest))
			(dot-to-kill (if keep-v1? v2-dot v1-dot)))
		   ;; uncomment if you're curious of which rest was chosen:
		   ;;(ly:grob-set-property! v1-rest 'color green)
		   ;;(ly:grob-set-property! v2-rest 'color blue)
		   (ly:grob-suicide! (if keep-v1? v2-rest v1-rest))
		   (if (ly:grob? dot-to-kill)
		       (ly:grob-suicide! dot-to-kill))
		   (ly:grob-set-property! rest-to-keep 'direction 0)
		   (ly:rest::y-offset-callback rest-to-keep)))))))
    (if can-merge
	#t
	(ly:rest-collision::calc-positioning-done grob))))










% startParenthesis y endParenthesis
% [][][][][][][][][][][][][][][][][][][][][][][][][][][][][][][][][][][][][][][][][][][][][]
% http://comments.gmane.org/gmane.comp.gnu.lilypond.general/64087
% [][][][][][][][][][][][][][][][][][][][][][][][][][][][][][][][][][][][][][][][][][][][][]

% ELIMINADO










% bendBefore
% [][][][][][][][][][][][][][][][][][][][][][][][][][][][][][][][][][][][][][][][][][][][][]
% Adaptación
% http://lilypondblog.org/2013/08/adding-ornamentations-to-note-heads-part-1/
% [][][][][][][][][][][][][][][][][][][][][][][][][][][][][][][][][][][][][][][][][][][][][]

%%%
%%% Utilities for defining new grobs, grob properties and music event types
%%% (there should be built-in commands to do that in LilyPond)
%%%
#(define (define-grob-type grob-name grob-entry)
   "Define a new grob and add it to `all-grob-definitions', after
scm/define-grobs.scm fashion.
After grob definitions are added, use:

\\layout {
  \\context {
    \\Global
    \\grobdescriptions #all-grob-descriptions
  }
}

to register them."
   (let* ((meta-entry   (assoc-get 'meta grob-entry))
          (class        (assoc-get 'class meta-entry))
          (ifaces-entry (assoc-get 'interfaces meta-entry)))
     (set-object-property! grob-name 'translation-type? list?)
     (set-object-property! grob-name 'is-grob? #t)
     (set! ifaces-entry (append (case class
                                  ((Item) '(item-interface))
                                  ((Spanner) '(spanner-interface))
                                  ((Paper_column) '((item-interface
                                                     paper-column-interface)))
                                  ((System) '((system-interface
                                               spanner-interface)))
                                  (else '(unknown-interface)))
                                ifaces-entry))
     (set! ifaces-entry (uniq-list (sort ifaces-entry symbol<?)))
     (set! ifaces-entry (cons 'grob-interface ifaces-entry))
     (set! meta-entry (assoc-set! meta-entry 'name grob-name))
     (set! meta-entry (assoc-set! meta-entry 'interfaces
                                  ifaces-entry))
     (set! grob-entry (assoc-set! grob-entry 'meta meta-entry))
     (set! all-grob-descriptions
           (cons (cons grob-name grob-entry)
                 all-grob-descriptions))))

#(define-public (define-grob-property symbol type? description)
   "Define a new grob property.
`symbol': the property name
`type?': the type predicate for this property
`description': the type documentation"
  (set-object-property! symbol 'backend-type? type?)
  (set-object-property! symbol 'backend-doc description)
  symbol)

#(defmacro*-public define-music-type (type-name parents #:rest properties)
     "Add a new music type description to `music-descriptions'
and `music-name-to-property-table'.

`type-name': the music type name (a symbol)
`parents': the parent event classes (a list of symbols)
`properties': a (key . value) property set, which shall contain at least
   description and type properties.
"
   (let ((gproperties (gensym "properties")))
     `(let ((,gproperties (list-copy ',properties)))
        ,@(map (lambda (parent)
                `(define-event-class ',(ly:camel-case->lisp-identifier type-name)
                   ',parent))
               parents)
        (set-object-property! ',type-name
                              'music-description
                              (cdr (assq 'description ,gproperties)))
        (set! ,gproperties (assoc-set! ,gproperties 'name ',type-name))
        (set! ,gproperties (assq-remove! ,gproperties 'description))
        (hashq-set! music-name-to-property-table ',type-name ,gproperties)
        (set! music-descriptions
              (cons (cons ',type-name ,gproperties)
                    music-descriptions)))))

%%%
%%% Grob definition
%%%
#(define (head-ornamentation::print me)
   "Prints a HeadOrnamentation grob, on the left or right side of the
note head, depending on the grob direction."
   (let* ((notes (ly:grob-object me 'elements))
          (y-ref (ly:grob-common-refpoint-of-array me notes Y))
          (x-ref (ly:grob-common-refpoint-of-array me notes X))
          (x-ext (ly:relative-group-extent notes x-ref X))
          (y-ext (ly:relative-group-extent notes y-ref Y))
          (staff-position (ly:grob-staff-position (ly:grob-array-ref notes 0)))
          (y-coord (+ (interval-center y-ext)
                      (if (and (eq? (ly:grob-property me 'shift-when-on-line) #t)
                               (memq staff-position '(-4 -2 0 2 4)))
                          0.5
                          0)))
          (text (ly:text-interface::print me))
          (width (/ (interval-length (ly:stencil-extent text X)) 2.0))
          (x-coord (if (= (ly:grob-property me 'direction) LEFT)
                       (- (car x-ext) width)
                       (+ (cdr x-ext) width))))
     (ly:stencil-translate
      text
      (cons
       (- (- x-coord (ly:grob-relative-coordinate me x-ref X)) 
          (ly:grob-property me 'x-position))
       (- (- y-coord (ly:grob-relative-coordinate me y-ref Y)) 
          (ly:grob-property me 'y-position))
       ))))

%% a new grob property (used to shift an ornamentation when the
%% note head is on a staff line)
#(define-grob-property 'shift-when-on-line boolean?
   "If true, then the ornamentation is vertically shifted when
the note head is on a staff line.")

#(define-grob-property 'x-position number?
   "X position")

#(define-grob-property 'y-position number?
   "Y position")

#(define-grob-type 'HeadOrnamentation
  `((font-size . 0)
    (shift-when-on-line . #f)
    (x-position . 1)
    (y-position . 1)
    (stencil . ,head-ornamentation::print)
    (meta . ((class . Item)
             (interfaces . (font-interface))))))

\layout {
  \context {
    \Global
    \grobdescriptions #all-grob-descriptions
  }
}

%%%
%%% Engraver
%%%
%% The head-ornamentation engraver, with its note-head acknowledger
%% (which add HeadOrnamentation grobs to note heads)
#(define head-ornamentation-engraver
   (make-engraver
    (acknowledgers
     ((note-head-interface engraver note-grob source)
      ;; helper function to create HeadOrnamentation grobs
      (define (make-ornament-grob text direction shift-when-on-line x-position y-position)
        (let ((ornament-grob (ly:engraver-make-grob engraver
                                                    'HeadOrnamentation
                                                    note-grob)))
          ;; use the ornament event text as the grob text property
          (set! (ly:grob-property ornament-grob 'text) text)
          ;; set the grob direction (either LEFT or RIGHT)
          (set! (ly:grob-property ornament-grob 'direction) direction)
          ;; set the shift-when-on-line property using the given value
          (set! (ly:grob-property ornament-grob 'shift-when-on-line)
                shift-when-on-line)
          ;; set the grob x-pos
          (set! (ly:grob-property ornament-grob 'x-position) x-position)
          ;; set the grob y-pos
          (set! (ly:grob-property ornament-grob 'y-position) y-position)
          (ly:pointer-group-interface::add-grob ornament-grob
                                                'elements
                                                note-grob)
          
          ;; the ornamentation is vertically aligned with the note head
          (set! (ly:grob-parent ornament-grob Y) note-grob)
          ;; compute its font size
          (set! (ly:grob-property ornament-grob 'font-size)
                (+ (ly:grob-property ornament-grob 'font-size 0.0)
                   (ly:grob-property note-grob 'font-size 0.0)))
          ;; move accidentals and dots to avoid collision
          (let* ((ornament-stencil (ly:text-interface::print ornament-grob))
                 (ornament-width (interval-length
                                  (ly:stencil-extent ornament-stencil X)))
                 (note-column (ly:grob-object note-grob 'axis-group-parent-X))
                 ;; accidentals attached to the note:
                 (accidentals (and (ly:grob? note-column)
                                   (ly:note-column-accidentals note-column)))
                 ;; dots attached to the note:
                 (dot-column (and (ly:grob? note-column)
                                  (ly:note-column-dot-column note-column))))
            (cond ((and (= direction LEFT) (ly:grob? accidentals))
                   ;; if the ornament is on the left side, and there are
                   ;; accidentals, then increase padding between note
                   ;; and accidentals to make room for the ornament
                   (set! (ly:grob-property accidentals 'padding)
                         ornament-width))
                  ((and (= direction RIGHT) (ly:grob? dot-column))
                   ;; if the ornament is on the right side, and there
                   ;; are dots, then translate the dots to make room for
                   ;; the ornament
                   (set! (ly:grob-property dot-column 'positioning-done)
                         (lambda (grob)
                           (ly:dot-column::calc-positioning-done grob)
                           (ly:grob-translate-axis! grob ornament-width X))))))
          ornament-grob))
      ;; When the note-head event attached to the note-head grob has
      ;; ornamentation events among its articulations, then create a
      ;; HeadOrnamentation grob
      (for-each
       (lambda (articulation)
         (if (memq 'head-ornamentation-event
                   (ly:event-property articulation 'class))
             ;; this articulation is an ornamentation => make the grob
             ;; (either on LEFT or RIGHT direction)
             (begin
               (if (markup? (ly:event-property articulation 'left-text))
                   (make-ornament-grob
                    (ly:event-property articulation 'left-text)
                    LEFT
                    (ly:event-property articulation 'shift-when-on-line)
                    (ly:event-property articulation 'x-position)
                    (ly:event-property articulation 'y-position)))
               (if (markup? (ly:event-property articulation 'right-text))
                   (make-ornament-grob
                   (ly:event-property articulation 'right-text)
                   RIGHT
                   (ly:event-property articulation 'shift-when-on-line)
                   (ly:event-property articulation 'x-position)
                   (ly:event-property articulation 'y-position))))))
         (ly:event-property (ly:grob-property note-grob 'cause) 'articulations))))))

\layout {
  \context {
    \Score
    \consists #head-ornamentation-engraver
  }
}

%%%
%%% Event type definition
%%%
#(define-music-type HeadOrnamentationEvent (music-event)
   (description . "Print an ornamentation at a note head side")
   (types . (general-music post-event event head-ornamentation-event)))

bendBefore =
#(make-music 'HeadOrnamentationEvent
  'x-position 1
  'y-position 2
  'shift-when-on-line #f
  'left-text #{ \markup { \fontsize #0 \rotate #5 \musicglyph #"brackettips.up"} #})










% [][][][][][][][][][][][][][][][][][][][][][][][][][][][][][][][][][][][][][][][][][][][][]
% Funciones propias
% [][][][][][][][][][][][][][][][][][][][][][][][][][][][][][][][][][][][][][][][][][][][][]





% Índice con borde circular y un cómodo espacio interior (y no el que viene por defecto)
% [][][][][][][][][][][][][][][][][][][][][][][][][][][][][][][][][][][][][][][][][][][][][]
#(define-markup-command (boxindex layout props text) (markup?)
	(interpret-markup layout props
		(markup #:huge #:override '(box-padding . 0.5) #:box text)
	)
)

#(define-markup-command (boxed layout props text) (markup?)
	(interpret-markup layout props
		(markup #:huge #:override '(box-padding . 0.9) #:box text)
	)
)

% Ritardando
% [][][][][][][][][][][][][][][][][][][][][][][][][][][][][][][][][][][][][][][][][][][][][]
rit =
#(make-music 'CrescendoEvent
             'span-direction START
             'span-type 'text
             'span-text "rit.")

% Barras de improvisacion
% [][][][][][][][][][][][][][][][][][][][][][][][][][][][][][][][][][][][][][][][][][][][][]
improOn = {
  \override Rest.stencil = #ly:text-interface::print
  \override Rest.text = \markup \jazzglyph #"noteheads.s2slashjazz"
  \override NoteHead.stencil = #jazz-slashednotehead
}

improOff = {
  \revert Rest.stencil
  \revert Rest.text
  \revert NoteHead.stencil
}

% Pentagrama vacío
% [][][][][][][][][][][][][][][][][][][][][][][][][][][][][][][][][][][][][][][][][][][][][]
emptyStave = {
  \once \override Staff.KeySignature.stencil = ##f
  \once \override Staff.Clef.stencil = ##f
  \break
  s1
  \once \override Staff.BarLine.stencil = ##f
  \break
}










% Añadido de funciones al contexto
% [][][][][][][][][][][][][][][][][][][][][][][][][][][][][][][][][][][][][][][][][][][][][]
\layout {
  \context {
    \Score		
    
    % multi-mark-engraver
    \remove "Mark_engraver"
    \consists #multi-mark-engraver
    \consists "Tweak_engraver"
    
    % merge-rests-on-positioning
    \override RestCollision #'positioning-done = #merge-rests-on-positioning
    
    % aspecto de los silencios multicompás
    \override MultiMeasureRest.expand-limit = #1
    
    % margen extra de las articulaciones para evitar la colisión con las ligaduras
    \override Script.padding = #0.5
    \override Script.avoid-slur = #'inside
    
    % glissando bonito
    \override Glissando.style = #'trill
    \override Glissando.bound-details.left.padding = #.7
    \override Glissando.bound-details.right.padding = #.2
    
    % dinámicas un poco mas gruesas
    \override Hairpin.thickness = #1.75
    \override Hairpin.bound-padding = #2
    
    % Esconde la cancelacion de accidentales en el cambio de armadura
    % \override KeyCancellation.break-visibility = #'#(#f #f #f)
  }
}












% LAYOUT
% ------
% ~.:.~.:.~.:.~.:.~.:.~.:.~.:.~.:.~.:.~.:.~.:.<>.:.~.:.~.:.~.:.~.:.~.:.~.:.~.:.~.:.~.:.~.:.~
% ~.:.~.:.~.:.~.:.~.:.~.:.~.:.~.:.~.:.~.:.~.:.<>.:.~.:.~.:.~.:.~.:.~.:.~.:.~.:.~.:.~.:.~.:.~
% ~.:.~.:.~.:.~.:.~.:.~.:.~.:.~.:.~.:.~.:.~.:.<>.:.~.:.~.:.~.:.~.:.~.:.~.:.~.:.~.:.~.:.~.:.~






\header {
  title = "Why don't you do right"
  subtitle = "(as performed by Peggy Lee & the Benny Goodman Orchestra)"
  instrument = "Baritone Sax"
  composer = "Joe McCOY"
  arranger = ""
  poet = \markup \tiny "Reducción y edición: Gabriel PALACIOS"
  meter = \markup \tiny "gabriel.ps.ms@gmail.com"
  tagline = \markup {
    \center-column {
      \line { \tiny "Reducción y edición: Gabriel PALACIOS" }
      \line { \tiny "gabriel.ps.ms@gmail.com" }
    }
  }
}

\paper {
  % El definir otro tipo de fuente no permite cambiar el tamaño global del staff. Es un bug conocigo
  #(define fonts (make-pango-font-tree "LilyJAZZText" "Nimbus Sans" "Luxi Mono" (/ 20 20)))
  
  % distancia entre la parte superior de la página y el título
  top-markup-spacing #'basic-distance = 5
  
  % distancia entre el título y el primer sistema
  markup-system-spacing #'basic-distance = 25
  
  % distancia entre el texto y el primer sistema 
  top-system-spacing #'basic-distance = 15
  
  % márgen inferior
  bottom-margin = 20
    
  % número de páginas
  page-count = 3
  
  ragged-last-bottom = ##f 
  
  oddHeaderMarkup = \markup {
    \on-the-fly #not-first-page \fill-line {
      \fromproperty #'page:page-number-string
      \fromproperty #'header:title
      \fromproperty #'header:instrument
    }
  }
  
  evenHeaderMarkup = \markup {
    \on-the-fly #not-first-page \fill-line {
      \fromproperty #'header:instrument
      \fromproperty #'header:title
      \fromproperty #'page:page-number-string
    }
  }
}










% MUSIC PARTS
% -----------
% ~.:.~.:.~.:.~.:.~.:.~.:.~.:.~.:.~.:.~.:.~.:.<>.:.~.:.~.:.~.:.~.:.~.:.~.:.~.:.~.:.~.:.~.:.~
% ~.:.~.:.~.:.~.:.~.:.~.:.~.:.~.:.~.:.~.:.~.:.<>.:.~.:.~.:.~.:.~.:.~.:.~.:.~.:.~.:.~.:.~.:.~
% ~.:.~.:.~.:.~.:.~.:.~.:.~.:.~.:.~.:.~.:.~.:.<>.:.~.:.~.:.~.:.~.:.~.:.~.:.~.:.~.:.~.:.~.:.~





% scoreMarkup
% [][][][][][][][][][][][][][][][][][][][][][][][][][][][][][][][][][][][][][][][][][][][][]
scoreMarkup = \new Staff \with {
   \RemoveEmptyStaves
}
{
  % Oculta el primer pentagrama del markup
  \override Staff.VerticalAxisGroup #'remove-first = ##t
  
  % Indicación de tiempo
  \once \override Score.RehearsalMark.X-offset = #5
  \mark \jazzTempoMarkup "Swing" c4 "135"
  
  \partial 8*3
  s4.
  
  \bar "||"
  s1*8
  
  \bar "||"
  \mark \markup \boxed "A"
  s1*12
  
  \bar ".|:-||"
  \once \override Score.RehearsalMark.X-offset = #5
  \mark \markup { 
    \column { \boxed "B" }
    \column { \boxed "Three X!!" }
  }
  s1*14
  
  \bar "||"
  \mark \markup \boxed "C"
  s1*12
  
  \bar "||"
  \mark \markup \boxed "D"
  s1*8
  
  \bar "||"
  \mark \markup \boxed "E"
  s1*8
  
  \bar "||"
  \mark \markup \boxed "F"
  s1*18
  
  \bar "|."
}





% scoreChords
% [][][][][][][][][][][][][][][][][][][][][][][][][][][][][][][][][][][][][][][][][][][][][]
scoreChords = \chords {
    
  \set minorChordModifier = \markup { "-" }
  
  % c1:m f2:m g2:m7
}





% music
% [][][][][][][][][][][][][][][][][][][][][][][][][][][][][][][][][][][][][][][][][][][][][]
baritoneSax = \relative c'' {

  % Para pintar todos los números de compás debajo del pentagrama
  % \override Score.BarNumber #'break-visibility = #end-of-line-invisible
  % \override Score.BarNumber #'direction = #DOWN
  % \override Score.BarNumber #'extra-offset = #'(1.5 . 0)

  \jazzOn
  \compressFullBarRests
  
  % Arregla el problema de tener el scoreMarkup añadido
  \revert MultiMeasureRest #'staff-position
  \override Voice.Rest #'staff-position = #0
  \set Score.explicitKeySignatureVisibility = #begin-of-line-visible
  
  \set Score.tempoHideNote = ##t
  \tempo 4 = 135
  
  % 00: bones (7 clarinet)
  \transpose ees c' \relative c'' {
    
    \key d \minor
    
    \partial 8*3
    r8 r4
    
    r2 r4 \f d -. -^
    r2 r4 d -. -^
    R1*2
    
    \break
    r8 \f cis4. ( -> c8 bes a g )
    a4 ( -- g8 f e g4. -> )
    f4 -^ r r2
    R1
  }
  
  % A0: trumpet I&II, bones I&IV
  \transpose ees c' \relative c'' {
    
    \key d \minor
    
    \break
    R1
    r2 r8 \f a -. -^ r4
    R1*2
    
    \break
    R1*2
    r4 r8 \mf a -- ( r a --  r d
    a f g f g -- f4. )
    
    \break
    g4 -. -^ r r2
    R1
    r8 a4. ( -> f8 a -> f d
    a' -> f e cis -. -^ ) r a4. -> \bendAfter #-4
  }
  
  % B0: bone I, Tenor I, bone III, bari
  \repeat volta 3 {
    
    \relative c'' {
      
      \key b \minor
      
      \break
      b2 ( gis
      g fis )
      b2 ( gis
      g fis )
      
      \break
      e1 -^ ~ 
      e2. ~ e8 \breathe r
      b'2 ( gis
      g fis )
      
      \break
      e2 ( fis4. ) \breathe r8
      r8 e4. -> ~ e4 fis -. -^
    }
  }
    
  \alternative {
    { \relative c'' {
    
        \key b \minor
        
        b2 ( gis
        g fis )
    }}
    
    { % C0: trumpet I&II, bone I, bari
      \relative c'' {
      
        \key b \minor
        
        b2 ( gis
        g fis )
      
    }}
      
  }
  
  % C0: trumpet I&II, bone I, bari
  \relative c'' {
    
    \key b \minor
    
    \break
    r8 \f ^"Vib.!!" gis4. -> ~ gis4 \breathe r
    g?4. fis8 \bendAfter #-4 r4 fis8 -- gis -> ~
    gis1
    g?4. ( fis8 ) \bendAfter #-4 r2
    
    \break
    r4 r8 e' -> d b cis -- g -> \< ~
    g2. fis4 -^ \!
    fis4. -- -> fis8 -^ r ^"No Vib."\mf b ( cis [ b ]
    f' -^ ) ges16 ( f d8 e ~ e4 ) cis8 -> e, -> \f ~ 
    
    \break
    e1 ^"Vib.!!" ~
    e2. ~ e8 r
    \times 2/3 { r \ff g' -> fis } \times 2/3 { e cis ais } fis2 -> ^"No Vib." ~ 
    fis1
  }
  
  % D0: trumpet I&II, bones I&IV
  \transpose ees c' \relative c'' {
    
    \key d \minor
    
    \break
    R1
    r2 r8 \f a -. -^ r4
    R1
    r2 r8 a -. -^ r4
    
    \break
    R1*2
    r8 b -. -^ r a ( b a b a
    b c a f ) \breathe 
  }
  
  % E0: trumpet I&III, bones I&IV
  \transpose ees c' \relative c' {
    
    \key d \minor
    
    r4 d -> \sfp ~
    
    \break
    d1 \< ~
    d2 \> ~ d8 \! \breathe r 
  }
  
  % E3: trumpet I&III, bones II&IV
  \transpose ees c' \relative c' {
    
    \key d \minor
    
    d4 -> \sfp ~
    
    d1 \< ~
    d2 \> ~ d8 \! \breathe r \ff 
  }
  
  % E5: trumpet I&III, bones I&IV
  \transpose ees c' \relative c' {
    
    \key d \minor
    
    d8 -> e ->
    
    \break
    r2 r4 bes8 -> a ->
    r2 r4 bes8 -> a ->
    r8 bes -> a4 -. -^ bes8 -> a -> r bes ->
    a4 -. -^ bes8 a -> ~ a4. \breathe r8
  }
  
  % F0: bone I, Tenor I, bone III, bari
  \relative c'' {
    
    \key b \minor
      
    \break
    b2 ( gis
    g fis )
    b2 ( gis
    g fis )
    
    \break
    e1 -^ ~ 
    e2. ~ e8 \breathe r
    b'2 ( gis
    g fis )
    
    \break
    e2 ( fis4. ) \breathe r8
    r8 e4. -> ~ e4 fis -. -^
    
    b2 \p ( gis
    g fis )
    \break
    b2 \> ( gis
    g fis )
    
    b2 \pp ( gis
    \break
    g fis )
  }
  
  % ED: trumpetI, bones I,II&III
  \transpose ees c' \relative c' {
    
    \key b \minor
    
    d1 \pp -> \< 
    a'4. -> \ff a8 -^ r2
  }
}





% score
% [][][][][][][][][][][][][][][][][][][][][][][][][][][][][][][][][][][][][][][][][][][][][]
\score {
  <<
    \scoreMarkup
    \scoreChords
    \new StaffGroup <<
      \new Staff { \baritoneSax }
    >>
  >>
}


tenorSaxII = \relative c'' {

  % Para pintar todos los números de compás debajo del pentagrama
  % \override Score.BarNumber #'break-visibility = #end-of-line-invisible
  % \override Score.BarNumber #'direction = #DOWN
  % \override Score.BarNumber #'extra-offset = #'(1.5 . 0)

  \jazzOn
  \compressFullBarRests
  
  % Arregla el problema de tener el scoreMarkup añadido
  \revert MultiMeasureRest #'staff-position
  \override Voice.Rest #'staff-position = #0
  \set Score.explicitKeySignatureVisibility = #begin-of-line-visible
  
  % 00: bones (7 clarinet)
  \transpose bes c' \relative c'' {
    
    \key d \minor
    
    \partial 8*3
    r8 r4
    
    r2 r4 \f bes -. -^
    r2 r4 bes -. -^
    R1*2
    
    \break
    r8 \f e4. ( -> d8 cis c bes )
    cis4 ( -- bes8 a g bes4. -> )
    a4 -^ r r2
    R1
  }
  
  % A0: trumpet I&II, bones I&IV
  \transpose bes c'' \relative c'' {
    
    \key d \minor
    
    \break
    R1
    r2 r8 \f g -. -^ r4
    R1*2
    
    \break
    R1*2
    r4 r8 \mf f -- ( r f --  r d
    f d e d e -- d4. )
    
    \break
    f4 -. -^ r r2
    R1
    r8 f4. ( -> d8 f -> d b
    f' -> d dis e -. -^ ) r g4. -> \bendAfter #-4
  }
  
  % B0: bone I, Tenor I, bone III, bari
  \repeat volta 3 {
    
    \transpose bes c' \relative c'' {
      
      \key d \minor
      
      \break
      R1*4
      
      r2 r8 \mf d -> e [ f ] ~
      f2. r4
      R1*2
      
      \break
      R1*2
    }
  }
    
  \alternative {
    { \transpose bes c' \relative c''' {
    
      \key d \minor
      
      R1*2
    }}
    
    { % C0: trumpet I&II, bone I, bari
      \transpose bes c' \relative c'' {
      
        \key d \minor
        
        R1
        r2 r8 \f e4. ->
      
    }}
      
  }
  
  % C0: trumpet I&II, bone I, bari
  \transpose bes c' \relative c''' {
    
    \key d \minor
    
    \break
    a4 -. -^ a8 ( a f g f d )
    r8 f ( d [ e ] ~ e4 ) \glissando g8 -- f -. -^
    r8 a4. -> ( a8 f d b
    d f aes g ) r f ( e [ f ] 
    
    \break
    f -- d -. -^ ) r4 r2
    r8 f4 -> \bendAfter #-4 e8 d d e4 -. -^
    d4. -- -> d8 -. -^ r2
    R1
    
    \break
    r8 f -> r d ( f a -> f d 
    f a -> f d f a -> f g ~
    g2 ) ~ g8  \breathe r aes8 aes ~
    aes4 g8 -- g -. -^ r f4. ->
  }
  
  % D0: trumpet I&II, bones I&IV
  \transpose bes c' \relative c''' {
    
    \key d \minor
    
    \break
    R1
    r2 r8 \f g -. -^ r4
    R1
    r2 r8 g -. -^ r4
    
    \break
    R1*2
    r8 a -. -^ r f ( aes f g f
    gis a f d ) \breathe 
  }
  
  % E0: trumpet I&III, bones I&IV
  \transpose bes c' \relative c'' {
    
    \key d \minor
    
    r4 f -> \sfp ~
    
    \break
    f1 \< ~
    f2 \> ~ f8 \! \breathe r 
  }
  
  % E3: trumpet I&III, bones II&IV
  \transpose bes c' \relative c'' {
    
    \key d \minor
    
    b4 -> \sfp ~
    
    b1 \< ~
    b2 \> ~ b8 \! \breathe r \ff 
  }
  
  % E5: trumpet I&III, bones I&IV
  \transpose bes c' \relative c'' {
    
    \key d \minor
    
    f8 -> g ->
    
    \break
    r2 r4 f8 -> e ->
    r2 r4 f8 -> e ->
    r8 f -> e4 -. -^ f8 -> e -> r f ->
    e4 -. -^ d8 cis -> ~ cis4. \breathe r8
  }
  
  % F0: bone I, Tenor I, bone III, bari
  \transpose bes c' \relative c'' {
      
    \key d \minor
    
    \break
    R1*4
    
    r2 r8 \mf d -> e [ f ] ~
    f2. r4
    R1*2
    
    \break
    R1*8
  }
  
  % ED: trumpetI, bones I,II&III
  \transpose bes c' \relative c'' {
    
    \key d \minor
    
    R1
    b4. -> \ff b8 -. -^ r2
  }
}

tenorSaxI = \relative c'' {

  % Para pintar todos los números de compás debajo del pentagrama
  % \override Score.BarNumber #'break-visibility = #end-of-line-invisible
  % \override Score.BarNumber #'direction = #DOWN
  % \override Score.BarNumber #'extra-offset = #'(1.5 . 0)

  \jazzOn
  \compressFullBarRests
  
  % Arregla el problema de tener el scoreMarkup añadido
  \revert MultiMeasureRest #'staff-position
  \override Voice.Rest #'staff-position = #0
  \set Score.explicitKeySignatureVisibility = #begin-of-line-visible
  
  % 00: bones (7 clarinet)
  \transpose bes c' \relative c'' {
    
    \key d \minor
    
    \partial 8*3
    r8 r4
    
    r2 r4 \f e -. -^
    r2 r4 e -. -^
    R1*2
    
    \break
    r8 \f g4. ( -> f8 e d cis )
    e4 ( -- cis8 bes a cis4. -> )
    b4 -^ r r2
    R1
  }
  
  % A0: trumpet I&II, bones I&IV
  \relative c'' {
    
    \key e \minor
    
    \break
    R1
    r2 r8 \f dis -. -^ r4
    R1*2
    
    \break
    R1*2
    r4 r8 \mf e -- ( r e --  r e
    e cis dis cis dis -- cis4. )
    
    \break
    e4 -. -^ r r2
    R1
    r8 e4. ( -> cis8 e -> cis b
    e -> cis d dis -. -^ ) r fis4. -> \bendAfter #-4
  }
  
  % B0: bone I, Tenor I, bone III, bari
  \repeat volta 3 {
      
    \relative c'' {
    
      \key e \minor
      
      \break
      r8 \mp ^"Vib.!!" g'4. ( -> r8 b,4. ->
      r8 e4. -> r8 dis4. )
      r8 g4. ( -> r8 b,4. ->
      r8 e4. -> r8 dis4. )
      
      \break
      c?1 -^ ~
      c2. ~ c8 \breathe r
      r8 g'4. ( -> r8 b,4. ->
      
      \break
      r8 e4. -> r8 dis4. )
      
      c?2 ( dis4. ) \breathe r8 
      r8 c?4. -> ~ c4 dis4 -^
    }
  }
    
  \alternative {
    { \relative c''' {
    
      \key e \minor
      
      \break
      r8 \mp ^"Vib.!!" g4. ( -> r8 b,4. ->
      r8 e4. -> r8 dis4. )
    }}
    
    { \relative c'' {
    
        \key e \minor
        
        r8 \mp ^"Vib.!!" g'4. ( -> r8 b,4. ->
        r8 e4. -> )
      
      }
      
      % C0: trumpet I&II, bone I, bari
      \relative c'' {
    
        \key e \minor
        
        r8 a4.
    }}
      
  }
  
  % C0: trumpet I&II, bone I, bari
  \relative c'' {
    
    \key e \minor
    
    \break
    e4 -. -^ e8 ( e cis dis cis b )
    r8 e ( cis [ dis ] ~ dis4 ) fis8 -- g -. -^
    r8 g ( -> g [ g ] e cis g e
    g ais e' dis ) r d ( cis [ d ] 
    
    \break
    e -- cis -. -^ ) r4 r2
    r8 e4 -> \bendAfter #-4 d8 c c dis4 -. -^
    cis4. -- -> cis8 -. -^ r2
    R1
    
    \break
    r8 e -> r c ( e g -> e c 
    e g -> e c e g -> e fis ~
    fis2 ) ~ fis8  \breathe r a8 a ~
    a4 fis8 -- fis -. -^ r dis4. ->
  }
  
  % D0: trumpet I&II, bones I&IV
  \relative c'' {
    
    \key e \minor
    
    \break
    R1
    r2 r8 \f fis -. -^ r4
    R1
    r2 r8 fis -. -^ r4
    
    \break
    R1*2
    r8 g -. -^ r e ( g e fis e
    fis g e cis ) \breathe 
  }
  
  % E0: trumpet I&III, bones I&IV
  \relative c'' {
    
    \key e \minor
    
    r4 c -> \sfp ~
    
    \break
    c1 \< ~
    c2 \> ~ c8 \! \breathe r b4 -> \sfp ~
  }
  
  % E3: trumpet I&III, bones II&IV
  \relative c'' {
    
    \key e \minor
    
    b1 \< ~
    b2 \> ~ b8 \! \breathe r \ff e8 -> dis ->
  }
  
  % E5: trumpet I&III, bones I&IV
  \relative c'' {
    
    \key e \minor
    
    \break
    r2 r4 e8 -> dis ->
    r2 r4 e8 -> dis ->
    r8 e -> dis4 -. -^ e8 -> dis -> r e ->
    dis4 -. -^ d8 cis -> ~ cis4. \breathe r8
  }
  
  % F0: bone I, Tenor I, bone III, bari
  \relative c'' {
      
    \key e \minor
    
    \break
    r8 \mp ^"Vib.!!" g'4. ( -> r8 b,4. ->
    r8 e4. -> r8 dis4. )
    r8 g4. ( -> r8 b,4. ->
    r8 e4. -> r8 dis4. )
    
    \break
    c?1 -^ ~
    c2. ~ c8 \breathe r
    r8 g'4. ( -> r8 b,4. ->
    r8 e4. -> r8 dis4. )
    
    \break
    c?2 ( dis4. ) \breathe r8 
    r8 c?4. -> ~ c4 dis4 -^
    
    r8 g4. \p ( -> r8 b,4. ->
    r8 e4. -> r8 dis4. )
    \break
    r8 g4. \> ( -> r8 b,4. ->
    r8 e4. -> r8 dis4. ) \!
    
    r8 g4. \pp ( -> r8 b,4. ->
    \break
    r8 e4. -> r8 dis4. )
    cis1 -> \pp \<
  }
  
  % ED: trumpetI, bones I,II&III
  \transpose bes c' \relative c'' {
    
    \key d \minor
    
    f4. -> \ff f8 -. -^ r2
  }
}

sopranoSax = \relative c'' {

  % Para pintar todos los números de compás debajo del pentagrama
  % \override Score.BarNumber #'break-visibility = #end-of-line-invisible
  % \override Score.BarNumber #'direction = #DOWN
  % \override Score.BarNumber #'extra-offset = #'(1.5 . 0)

  \jazzOn
  \compressFullBarRests
  
  % Arregla el problema de tener el scoreMarkup añadido
  \revert MultiMeasureRest #'staff-position
  \override Voice.Rest #'staff-position = #0
  \set Score.explicitKeySignatureVisibility = #begin-of-line-visible
  
  % 00: trumpet I, bonesII,III&IV (7 clarinet)
  \relative c''' {
    
    \key e \minor
    
    \partial 8*3
    r8 r4
    
    r2 r4 \f b -. -^
    r2 r4 b -. -^
    R1*2
    
    \break
    r8 \f c4. ( -> b8 a g fis )
    a4 ( -- fis8 e dis g4. -> )
    
    \times 2/3 { e8 -^ dis' ( e ) } \times 2/3 { b g e } \times 2/3 { b b' fis } \times 2/3 { a e g }
    b,4 r4 r2
  } 
  
  % A0: trumpet I&II, bones I&IV
  \relative c'' {
    
    \key e \minor
    
    \break
    R1
    r2 r8 \f fis -. -^ r4
    R1*2
    
    \break
    R1*2
    r4 r8 \mf g -- ( r g --  r e
    g e fis e fis -- e4. )
    
    \break
    g4 -. -^ r r2
    R1
    r8 g4. ( -> e8 g -> e cis
    g' -> e f fis -. -^ ) r b4. -> \bendAfter #-4
  }
  
  % B0: bone I, Tenor I, bone III, bari
    
  \repeat volta 3 {
    
    \transpose bes c' \relative c'' {
      
      \key d \minor
      
      \break
      R1*4
      
      r2 r8 \mf bes -> c [ d ] ~
      d2. r4
      R1*2
      
      \break
      R1*2
    }
  }
  
  \alternative {
    { \transpose bes c' \relative c'' {
      
      \key d \minor
      
      R1*2 
    }}
    
    { \relative c'' {
      
      \key e \minor
      
      R1
      r2 r8 \f b4. ->
      
    }}
      
  }
  
  % C0: trumpet I&II, bone I, bari
  \relative c''' {
    
    \key e \minor
    
    \break
    g4 -. -^ g8 ( g e fis e cis )
    r8 g' ( e [ fis ] ~ fis4 ) \glissando b8 -- b -. -^
    r8 b ( -> b [ b ] g e b g
    ais d a' fis ) r e ( fis [ e ] 
    
    \break
    g -- e -. -^ ) r4 r2
    r8 g4 -> \bendAfter #-4 fis8 e e fis4 -. -^
    e4. -- -> e8 -. -^ r2
    R1
    
    \break
    r8 g -> r e ( g b -> g e 
    g b -> g e g b -> g b ~
    b2 ) ~ b8  \breathe r c8 c ~
    c4 b8 -- b -. -^ r g4. ->
  }
  
  % D0: trumpet I&II, bones I&IV
  \relative c''' {
    
    \key e \minor
    
    \break
    R1
    r2 r8 \f b -. -^ r4
    R1
    r2 r8 b -. -^ r4
    
    \break
    R1*2
    r8 b -. -^ r g ( ais g a g
    ais b g e ) \breathe r4 g -> \sfp ~
  }
  
  % E0: trumpet I&III, bones I&IV
  \relative c''' {
    
    \key e \minor
    
    \break
    g1 \< ~
    g2 \> ~ g8 \! \breathe r fis4 -> \sfp ~
  }
  
  % E3: trumpet I&III, bones II&IV
  \relative c'' {
    
    \key e \minor
    
    fis1 \< ~
    fis2 \> ~ fis8 \! \breathe r \ff b8 -> b ->
  }
  
  % E5: trumpet I&III, bones I&IV
  \relative c''' {
    
    \key e \minor
    
    \break
    r2 r4 c8 -> b ->
    r2 r4 c8 -> b ->
    r8 c -> b4 -. -^ c8 -> b -> r c ->
    b4 -. -^ a8 fis -> ~ fis4. \breathe r8
  }
  
  % F0: bone I, Tenor I, bone III, bari
  \transpose bes c' \relative c'' {
      
    \key d \minor
    
    \break
    R1*4
    
    r2 r8 \mf bes -> c [ d ] ~
    d2. r4
    R1*2
    
    \break
    R1*8
  }
  
  % ED: trumpetI, bones I,II&III
  \relative c'' {
    
    \key e \minor
    
    r2 r8 \f e4. -> \glissando
    b'4. \ff -> b8 -. -^ r2
  }
}

violin = \relative c'' {

  % Para pintar todos los números de compás debajo del pentagrama
  % \override Score.BarNumber #'break-visibility = #end-of-line-invisible
  % \override Score.BarNumber #'direction = #DOWN
  % \override Score.BarNumber #'extra-offset = #'(1.5 . 0)

  \jazzOn
  \compressFullBarRests
  
  % Arregla el problema de tener el scoreMarkup añadido
  \revert MultiMeasureRest #'staff-position
  \override Voice.Rest #'staff-position = #0	
  
  \key b \minor
  
  \partial 8*3
  b8 ( \f cis [ b ]
  
  f' ) -^ ges16 ( f d8 e -> ~ e ) r r b (
  f' ) -^ ges16 ( f d8 e -> ~ e ) r r b (
  f' ) -^ ges16 ( f d8 ) b ( f' ) -^ ges16 ( f d8 ) b (
  \break
  f' ) -^ ges16 ( f d8 e -> ~ e ) d ( -> g, fis ~
  
  fis1 ~ 
  fis2 ) r8 fis4. ->
  b4 -^ r r2
  r4 \mf \appoggiatura { g16 fis } eis8 g ( -> fis ) g ( -> eis ) fis (
  
  \break
  d'4 -^ ) d8 ( d b cis b gis )
  r d' ( -> b [ cis ] ~ cis4 ) r8 fis,
  d'4 -^ d8 ( d b cis c gis )
  r d' ( -> b [ cis ] ~ cis8 ) b ( cis b
  
  \break
  d b4. ~ b4 ) r
  r8 d4 ( -- -> cis8 b b cis4 -^ )
  b1 ~
  b8 r r4 r2
  
  \break
  r8 \acciaccatura cis d ( \acciaccatura cis d [ b ] cis4. ) ais8 -. -^
  r8 \acciaccatura cis d ( d [ ais ] b4 cis8 b ~
  b1 ~
  b8 ) r r4 r2
  
  \repeat volta 3 {
    
    \pageBreak
    r8 \mp ^"Vib.!!" fis'4. ( -> r8 cis4. ->
    r8 e4. -> r8 cis4. )
    r8 fis4. ( -> r8 cis4. ->
    r8 e4. -> r8 cis4. )
    
    \break
    d1 -^ ~
    d2. ~ d8 \breathe r
    r8 fis4. ( -> r8 cis4. ->
    
    \break
    r8 e4. -> r8 cis4. )
    
    d2 ( cis4. ) \breathe r8 
    r8 d4. -> ~ d4 cis4 -^
  }
  
  \alternative {
    { \break
      r8 fis4. ( -> r8 cis4. ->
      r8 e4. -> r8 cis4. ) }
    
    { r8 fis4. ( -> r8 cis4. ->
      r8 e4. -> r8 cis4. ) }
  }
  
  \break
  r8 \f ^"Vib.!!" b4. -> ~ b4 \breathe r
  b4. ais8 \bendAfter #-4 r4 ais8 -- b -> ~
  b1
  d4. ( cis8 ) \bendAfter #-4 r2
  
  \break
  r4 r8 e -> d b cis -- g -> \< ~
  g2. fis4 -^ \!
  gis4. -- -> gis8 -^ r ^"No Vib."\mf b ( cis [ b ]
  f' -^ ) ges16 ( f d8 e ~ e4 ) cis8 -> d -> \f ~ 
  
  \break
  d1 ^"Vib.!!" ~
  d2. ~ d8 r
  \times 2/3 { r \ff g -> fis } \times 2/3 { e cis ais } fis2 -> ^"No Vib." ~ 
  fis1
  
  \break
  r8 \mp fis ( b8. cis32 b ais8 b -^ ) r4
  r8 b ( d [ cis ] ) \bendAfter #-4 r2
  r8 \mp fis, ( b8. cis32 b ais8 b -^ ) r4
  r8 b ( d [ cis ] ) \bendAfter #-4 r2
  
  \break
  r4 r8 d -> ~ d2 ~
  d2. \> cis4 -^ \!
  b1 -> \f ~
  b4. b8 -^ r4 d -> \sfp ~
  
  \break
  d1 \<
  d2 \> ~ d8 \! \breathe r cis4 -> \sfp ~
  cis1 \<
  cis2 \> ~ cis8 \! \breathe r cis8 -- \ff cis ->
  
  \break
  r2 r4 d8 -> cis
  r2 r4 g'8 -> fis
  r8 g fis4 -^ g8 -> fis -> r g ->
  fis4 -^ e8 cis -> ~ cis4. \breathe r8
  
  \break
  r8 \mp ^"Vib.!!" fis4. ( -> r8 cis4. ->
  r8 e4. -> r8 cis4. )
  r8 fis4. ( -> r8 cis4. ->
  r8 e4. -> r8 cis4. )
  
  \break
  d1 -^ ~
  d2. ~ d8 \breathe r
  r8 fis4. ( -> r8 cis4. ->
  r8 e4. -> r8 cis4. )
  
  \break
  d2 ( cis4. ) \breathe r8 
  r8 d4. -> ~ d4 cis4 -^
  
  r8 \p fis4. ( -> r8 cis4. ->
  r8 e4. -> r8 cis4. )
  \break
  r8 \> fis4. ( -> r8 cis4. ->
  r8 e4. -> r8 cis4. ) \!
  
  r8 \pp fis4. ( -> r8 cis4. ->
  \break
  r8 e4. -> r8 cis4. )
  cis1 \pp \<
  cis'4. \ff cis8 -^ r2
}


\score {
  <<
    \new StaffGroup <<
      \new Staff \with {midiInstrument = #"violin"} { \transpose c ees, \violin }
      \new Staff \with {midiInstrument = #"soprano sax"} { \transpose c bes, \sopranoSax }
      \new Staff \with {midiInstrument = #"tenor sax"} { \transpose c bes,, \tenorSaxI }
      \new Staff \with {midiInstrument = #"tenor sax"} { \transpose c bes,, \tenorSaxII }
      \new Staff \with {midiInstrument = #"baritone sax"} { \transpose c ees,, \baritoneSax }
    >>
  >>
  \midi {}
}