Piano ==============================
- Beethoven: 60 ok (con repeticiones)
- Orff: 80 ok (con repeticiones)
- Musette: 64 ok
- Oso: 50 ok 
- Blues: 76 partitura? se hace?
- Sonatina: 70
- Holiday: ok, tempo de backing track

Guitarra ===========================
- Jasmine flower
- Hot toddy

Coro ===============================
- Frères Jacques 
D'abord deux pianistes
le canon direct negra=100
repétition con intro de 5 mesures: 4 premières, même tempo, 5eme Blanche= 72, et début du choeur.
Ils chantent avec répétition.
Canto ==============================
- Haendel
- The street where you live: tempo? partitura?
- Amor: tempo? partitura?

Guitarra ===========================
- Delirio: tempo? partitura?
- Sabor
