\version "2.18.2"
\language "english"


% Descripción de funcionalidades
% ~.:.~.:.~.:.~.:.~.:.~.:.~.:.~.:.~.:.~.:.~.:.<>.:.~.:.~.:.~.:.~.:.~.:.~.:.~.:.~.:.~.:.~.:.~
% ~.:.~.:.~.:.~.:.~.:.~.:.~.:.~.:.~.:.~.:.~.:.<>.:.~.:.~.:.~.:.~.:.~.:.~.:.~.:.~.:.~.:.~.:.~
% ~.:.~.:.~.:.~.:.~.:.~.:.~.:.~.:.~.:.~.:.~.:.<>.:.~.:.~.:.~.:.~.:.~.:.~.:.~.:.~.:.~.:.~.:.~

% PLUGINS
% - \eolMark:					mark al final de línea
% - \bendBefore: 				solución al bendBefore (i.e. dis8 \bendBefore)
% - \rit: 						crea una porción de ritardando que debe terminar como las dinámicas, con un \!
% - \improOn, \improOff:	negra de improvisación
% - \emptyStaff:				Imprime un pentagrama vacío
% - \emptyBar:					Imprime un compás invisible (útil para indentados)
% - \glissBefore:				muestra un glissando hacia la nota
% - \shortGlissBefore:		muestra un glissando corto hacia la nota
% - \jazzTurn:					muestra el simbolo equivalente a un turn en jazz
% - \subp:						muestra "sp", subito piano
% - \ap:							(accidental padding), separa un poco una alteración de la siguiente nota
% 									(útil al usar parenthesize)
% - \optOttava:				octavaje opcional

% LAYOUT
% - El aspecto de los silencios multicompás es como los de las partituras de jazz
% - Margen extra de las articulaciones para evitar la colisión con las ligaduras
% - Glissandos bonitos

% PAPER
% - Se imprime el título, instrumento y número de página en todas las páginas
% - Solo se debe tocar el page-count (si eso). Sale bonito tal cual.

% ~.:.~.:.~.:.~.:.~.:.~.:.~.:.~.:.~.:.~.:.~.:.<>.:.~.:.~.:.~.:.~.:.~.:.~.:.~.:.~.:.~.:.~.:.~
% ~.:.~.:.~.:.~.:.~.:.~.:.~.:.~.:.~.:.~.:.~.:.<>.:.~.:.~.:.~.:.~.:.~.:.~.:.~.:.~.:.~.:.~.:.~








% Changelog de funcionalidades
% ~.:.~.:.~.:.~.:.~.:.~.:.~.:.~.:.~.:.~.:.~.:.<>.:.~.:.~.:.~.:.~.:.~.:.~.:.~.:.~.:.~.:.~.:.~
% ~.:.~.:.~.:.~.:.~.:.~.:.~.:.~.:.~.:.~.:.~.:.<>.:.~.:.~.:.~.:.~.:.~.:.~.:.~.:.~.:.~.:.~.:.~
% ~.:.~.:.~.:.~.:.~.:.~.:.~.:.~.:.~.:.~.:.~.:.<>.:.~.:.~.:.~.:.~.:.~.:.~.:.~.:.~.:.~.:.~.:.~

% Plugins
% 23-09-85: Añadida función \emptyStave para imprimir un pentagrama vacío.
% 				En algunas partituras hay un pentagrama vacío antes del coda (lo cual mola bastante, por cierto)
% 05-09-14: Añadido a la función \emptyStave el esconder la armadura de la clave, que no estaba.
% 10-09-14: Mejorada la función \bendBefore
% 				Ahora es genérica, y se puede definir cualquier texto en un lateral que haga las funciones de ornamento
% 16-09-14: Mejorada la función para imprimir barras de improvisación.
% 				Antes se llamaba al comando \rs para pintar una barra que ocupaba una negra
% 				Se reemplaza \rs por \restImproOn y \restImproOff, siendo esta opción mucho más flexible.
% 				Cuando se activa \restImproOn, todo silencio se convierte en barra de improvisación, respetando su duración.
% 20-09-14: Mejorada la función para imprimir barras de improvisación.
% 				Se reemplaza \restImproOn y \restImproOff por \improOn y \improOff
% 				Ahora, también las notas del pentagrama salen como barra de improvisación.
% 				(los comandos \improvisationOn e \improvisationOff de lilypond no se llevan bien con LilyJAZZ)
% 				Se ha añadido un grob correspondiente a los slash de la fuente LilyJAZZ en el archivo lily-jazz.ly
% 01-10-14: Plugins
% 				Renombrada la función \emptyStave a \emptyStaff (stave es el plural de staff) y 
% 				corregida (ya no muestra el número de compás).
% 				Recordar que después de usar \emptyStaff se necesita redefinir el 
% 				número de compás con \set Score.currentBarNumber = #xx
% 01-10-14: Añadida la función \emptyBar que oculta un compás entero. Se puede usar para crear un 
% 				efecto de indentación en un pentagrama dado.
% 				Recordar que después de usar \emptyBar se necesita:
% 				- redefinir el número de compás con \set Score.currentBarNumber = #xx
% 				- volver a pintar la clave con \clef
% 				- volver a pintar la armadura con \key
% 15-10-14: Se le ha aumentado el grosor de los bordes de la función \boxed
% 18-10-15: Añadidas funciones de ornamento para antes de la nota:
% 				- \glissBefore: para mostrar un glissando antes de una nota
% 				- \shortGlissBefore: para mostrar un glissando corto antes de una nota
% 				- \jazzTurn: para mostrar el turn típico trompetero de jazz
% 24-10-15: Añadida funcion \subp para mostrar subito piano "sp"
% 27-10-15: Añadida funcion \ap (de accidental padding) para separar un poco el accidental de la siguiente nota
% 				al usar un paréntesis con \parenthesize, ya que se solapan el uno al otro
% 27-10-15: Añadida funcion \optOttava para imprimir octavaje opcional
% 				También he aprovechado para cambiar la fuente del texto "8va" que utilizaba Feta por defecto
% 28-10-15: Mejorada la función glissBefore y shortGlissBefore.
% 				Ahora se le pasa una lista #'(r x y) en la que "r" es la rotacion, "x" la posicion horizontal 
%				e "y" la positión vertical.

% Markup
% 23-09-85: Añadidas guías para correcta posición y markup de la indicación de tempo
% 27-10-15: Guía para posición de la indicación de tempo mejorada
% 30-10-15: El texto que se coloque sobre silencios de multicompás POR FIN coge la fuente LilyJAZZ
% 31-10-15: El texto de letras (lyricmode) ya coge la fuente LilyJAZZ

% Layout
% 23-09-85: Ahora las articulaciones van por dentro de las ligaduras. Parece que es la mejor solución
% 04-09-14: Los creciendos y decreciendos tienen la línea un poco más gruesa
% 08-09-14: Ahora no se muestra la cancelación de accidentales al haber un cambio de armadura
% 15-09-14: Añadido un poco más de margen a los reguladores
% 20-09-14: Comentada la línea que oculta la cancelación de accidentales al haber cambio de armadura.
% 				Realmente, la cancelación es muy bienvenida.

% Chords
% 09-09-14: Añadida sentencia para que los acordes menores salgan con un guión en vez de con una M minúscula
% 26-10-14: Añadido el include "chord-exception.ily" que recoge una mejor notación de los acordes.
% 				Actualmente, recoge los acordes maj7, 7(b5), 7(#5), 7(b9), 7(#9), 7(add13), maj9(add13), 9(#11)
% 				Se irá añadiendo acordes a menudo.

% Global
% 15-10-14: Todas las instrucciones que se colocaban justo antes de empezar la música están ahora
% 				recogidas en una función \global.
% 				A \global se le ha añadido instrucciones para que agrupe las corcheas de dos en dos
% 				en vez de cuatro en cuatro (el comportamiento por defecto).

% Language
% 15-10-14: Cambiado el lenguaje de entrada de notas del finlandes al inglés
% 				La diferencia es que ahora los sostenidos se escriben "-s" en vez de "-is"
% 				y los bemoles "-f" en vez de "-es".

% Estructura
% 15-10-14: Para poder autoincluir los archivos de instrumento en otros 
% 				(para montar un midi, o un score), se han movido los plugins a un archivo separado
% 				y ahora se utiliza la función \includeOnce, evitando así el problema de las
% 				dependencias circulares. 
% 18-10-15: Mejorada la manera de trabajar con papeles separados y score al mismo tiempo
% 02-11-15: Actualizado a lilyjazz v2
%				Nuevos archivos de fuente para musica y acordes
%				Mucha limpieza en lilyjazz.ily, chords.ily y main.ly

% ~.:.~.:.~.:.~.:.~.:.~.:.~.:.~.:.~.:.~.:.~.:.<>.:.~.:.~.:.~.:.~.:.~.:.~.:.~.:.~.:.~.:.~.:.~
% ~.:.~.:.~.:.~.:.~.:.~.:.~.:.~.:.~.:.~.:.~.:.<>.:.~.:.~.:.~.:.~.:.~.:.~.:.~.:.~.:.~.:.~.:.~








% Dependencias
% ~.:.~.:.~.:.~.:.~.:.~.:.~.:.~.:.~.:.~.:.~.:.<>.:.~.:.~.:.~.:.~.:.~.:.~.:.~.:.~.:.~.:.~.:.~
% ~.:.~.:.~.:.~.:.~.:.~.:.~.:.~.:.~.:.~.:.~.:.<>.:.~.:.~.:.~.:.~.:.~.:.~.:.~.:.~.:.~.:.~.:.~
% ~.:.~.:.~.:.~.:.~.:.~.:.~.:.~.:.~.:.~.:.~.:.<>.:.~.:.~.:.~.:.~.:.~.:.~.:.~.:.~.:.~.:.~.:.~

% \includeOnce
% Incluye una dependencia solo una vez. Así se pueden incluir los archivos en otros 
% (para montar un score por ejemplo) sin liarla parda con dependencias cíclicas.

%{
includeOnce = #(
	define-void-function (parser location filename) (string?) (
		if (not (defined? (string->symbol filename))) (
			begin (ly:parser-include-string parser (string-concatenate (list "\\include \"" filename "\"")))
			(primitive-eval (list 'define (string->symbol filename) #t))
		)
	)
)
%}

% Tamaño global 
% Se debe incluir antes que lilyjazz. Si no, lilyjazz no funciona.
#(set-global-staff-size 20)

% includes
\include "includes/lilyjazz.ily"
\include "includes/chords.ily"
\include "includes/plugins-1.2.ily"

% ~.:.~.:.~.:.~.:.~.:.~.:.~.:.~.:.~.:.~.:.~.:.<>.:.~.:.~.:.~.:.~.:.~.:.~.:.~.:.~.:.~.:.~.:.~
% ~.:.~.:.~.:.~.:.~.:.~.:.~.:.~.:.~.:.~.:.~.:.<>.:.~.:.~.:.~.:.~.:.~.:.~.:.~.:.~.:.~.:.~.:.~











% Disposición
% ~.:.~.:.~.:.~.:.~.:.~.:.~.:.~.:.~.:.~.:.~.:.<>.:.~.:.~.:.~.:.~.:.~.:.~.:.~.:.~.:.~.:.~.:.~
% ~.:.~.:.~.:.~.:.~.:.~.:.~.:.~.:.~.:.~.:.~.:.<>.:.~.:.~.:.~.:.~.:.~.:.~.:.~.:.~.:.~.:.~.:.~
% ~.:.~.:.~.:.~.:.~.:.~.:.~.:.~.:.~.:.~.:.~.:.<>.:.~.:.~.:.~.:.~.:.~.:.~.:.~.:.~.:.~.:.~.:.~

% Cabecera
\header {
	title = "Música que suena"
	instrument = "Alto & Tenor Sax"
	composer = "Sonífera Isla"
	arranger = ""
	poet = ""
	tagline = ""
}

% Márgenes, fuentes y distancias del papel
\paper {
	
	% distancia entre la parte superior de la página y el título
	top-markup-spacing #'basic-distance = 5

	% distancia entre el título y el primer sistema
	markup-system-spacing #'basic-distance = 25

	% distancia entre el texto y el primer sistema 
	top-system-spacing #'basic-distance = 15

	% márgen inferior
	bottom-margin = 20
	
	% intentado del primer sistema
	indent = 0
	 
	% número de páginas
	% page-count = 1

	ragged-last-bottom = ##f 

	oddHeaderMarkup = \markup {
	 \on-the-fly #not-first-page \fill-line {
		\fromproperty #'page:page-number-string
		\fromproperty #'header:title
		\fromproperty #'header:instrument
	 }
	}

	evenHeaderMarkup = \markup {
	 \on-the-fly #not-first-page \fill-line {
		\fromproperty #'header:instrument
		\fromproperty #'header:title
		\fromproperty #'page:page-number-string
	 }
	}
}

% ~.:.~.:.~.:.~.:.~.:.~.:.~.:.~.:.~.:.~.:.~.:.<>.:.~.:.~.:.~.:.~.:.~.:.~.:.~.:.~.:.~.:.~.:.~
% ~.:.~.:.~.:.~.:.~.:.~.:.~.:.~.:.~.:.~.:.~.:.<>.:.~.:.~.:.~.:.~.:.~.:.~.:.~.:.~.:.~.:.~.:.~







% Elementos comunes de la partitura
% ~.:.~.:.~.:.~.:.~.:.~.:.~.:.~.:.~.:.~.:.~.:.<>.:.~.:.~.:.~.:.~.:.~.:.~.:.~.:.~.:.~.:.~.:.~
% ~.:.~.:.~.:.~.:.~.:.~.:.~.:.~.:.~.:.~.:.~.:.<>.:.~.:.~.:.~.:.~.:.~.:.~.:.~.:.~.:.~.:.~.:.~
% ~.:.~.:.~.:.~.:.~.:.~.:.~.:.~.:.~.:.~.:.~.:.<>.:.~.:.~.:.~.:.~.:.~.:.~.:.~.:.~.:.~.:.~.:.~

% Elementos comunes de texto (marcas de ensayo, tempo, etc)
scoreMarkup = \new Staff \with { \RemoveEmptyStaves } {
	% Oculta el primer pentagrama del markup
	\override Staff.VerticalAxisGroup #'remove-first = ##t

	% Indicación de tiempo
	% \once \override Score.RehearsalMark.self-alignment-X = #LEFT
	% \once \override Score.RehearsalMark.extra-offset = #'(0 . 3) 
	% \mark \jazzTempoMarkup "Easy Swing" c4 "112"

	% s1*2
	% \once \override Score.RehearsalMark.X-offset = #5
	% \mark \markup \boxed "A"
}



% Función musical global
global = {
	% Para pintar todos los números de compás debajo del pentagrama
	% \override Score.BarNumber #'break-visibility = #end-of-line-invisible
	% \override Score.BarNumber #'direction = #DOWN
	% \override Score.BarNumber #'extra-offset = #'(1.5 . 0)

	\compressFullBarRests

	% Arregla el problema de tener el scoreMarkup añadido
	\revert MultiMeasureRest #'staff-position
	\override Voice.Rest #'staff-position = #0	

	\set Timing.beamExceptions = #'()
	\set Timing.baseMoment = #(ly:make-moment 1/4)
	\set Timing.beatStructure = #'(1 1 1 1) 
	
	\override ParenthesesItem.font-size = #0
}

% ~.:.~.:.~.:.~.:.~.:.~.:.~.:.~.:.~.:.~.:.~.:.<>.:.~.:.~.:.~.:.~.:.~.:.~.:.~.:.~.:.~.:.~.:.~
% ~.:.~.:.~.:.~.:.~.:.~.:.~.:.~.:.~.:.~.:.~.:.<>.:.~.:.~.:.~.:.~.:.~.:.~.:.~.:.~.:.~.:.~.:.~








% Elementos específicos del instrumento
% ~.:.~.:.~.:.~.:.~.:.~.:.~.:.~.:.~.:.~.:.~.:.<>.:.~.:.~.:.~.:.~.:.~.:.~.:.~.:.~.:.~.:.~.:.~
% ~.:.~.:.~.:.~.:.~.:.~.:.~.:.~.:.~.:.~.:.~.:.<>.:.~.:.~.:.~.:.~.:.~.:.~.:.~.:.~.:.~.:.~.:.~
% ~.:.~.:.~.:.~.:.~.:.~.:.~.:.~.:.~.:.~.:.~.:.<>.:.~.:.~.:.~.:.~.:.~.:.~.:.~.:.~.:.~.:.~.:.~

% Cifrado
scoreChords = \chords {
	% c1:m f2:m g2:m7
}

% Música
altoSax = \relative c'' {
  
	\global
	\key g \major

	\partial 4.
	d,8 e f
	
	\repeat volta 2 {
	  fs? d e b d e fs a 
	  g e fs g b fs ef d
	  fs d e? b d e r4
	  % d8 r r d ~ d4 e8 f
	}
	\alternative {
    { r2 r8 d8 e f }
    { b8 r r b ~ b2 }
	}
	
	\break
	R1*7
	R1*4
	r8 a, c e b' g e c
	b' a ~ a2.
	r8 fs g4 -. g8 gs r gs
	a4 r r2
	
	\break
	R1*3
	e4 fs g a
	b1
	R1*2
	
	\break
	R1*4
	r8 a, c e b' g e c
	b' a ~ a2.
	r8 fs g4 -. g8 gs r gs
	a4 r r2
	
	\break
	r8 a, c e b' g e c
	b a ~ a2.
	r4 a'8 g a b d, e 
	R1
	
	\repeat volta 2 {
		\break
		R1*2
		\small e4 ^"(Con cazú)" \bendBefore b e4. \bendBefore e8
		gs \bendBefore gs4 -. \bendBefore e8 ~ e4 r
		
		\break
		R1*2
	}
	
	\alternative { 
		{ \normalsize g8 fs g b e, e4 -. b'8
		  a gs a c d, d r4 }
		
		{ R1*2 } 
	}
	
	\break
	R1*8
	
	\break
	R1
	b'8 a r4 r2
	R1
	r8 c,8 d4 e fs
	
	\break
	b1
	r2 cs4. d8 ~
	d4 r4 r2
	
	\break
	R1
	b8 b4 -. b8 r2
	R1
	b8 b4 -. b8 r2
	
	\break
	r8 a, c e b' g e c
	b' a ~ a2.
	r8 fs g4 -. g8 gs r gs
	a4 r r2
	
	\break
	R1*3
	e4 fs g a
	b1
	R1*2
	
	\break
	R1*4
	r8 a, c e b' g e c
	b' a ~ a2.
	r8 fs g4 -. g8 gs r gs
	a4 r r2
	
	\break
	r8 a, c e b' g e c
	b a ~ a2.
	r4 a'8 g a b d, e 
	R1
	
	\repeat volta 2 {
		\break
		R1*2
		\small e4 ^"(Con cazú)" \bendBefore b e4. \bendBefore e8
		gs \bendBefore gs4 -. \bendBefore e8 ~ e4 r
		
		\break
		R1*2
	}
	
	\alternative { 
		{ \normalsize g8 fs g b e, e4 -. b'8
		  a gs a c d, d r4 }
		
		{ g8 fs g b e, e4 -. d16 df
		  c8 b \times 2/3 { c d e } b' fs8 ~ fs4 
		  \break
		  g8 fs g b e, e4 -. d16 df
		  c8 b \times 2/3 { c d e } b' fs8 ~ fs4  
		  r8 g8 fs g b e4 -. d16 df
		  c8 b \times 2/3 { c d e } fs4 e8 b ~ } 
	}
	
	\break
	b1 ~
	b1
	b8 d r4 r2
	c8 d r4 r2
	
	\break
	r2 b2 ~
	b1
	b8 d r4 r2
	c8 d r4 r2
	
	\break
	r8 g,8 fs g b e4 -. d16 df
	c8 b \times 2/3 { c d e } fs4 ds8 e ~
	e1 \fermata
	
	\bar "|."
}


tenorSax = \relative c'' {
  
	\global
	\key g \major

	\partial 4.
	d8 e f
	
	\repeat volta 2 {
	  fs? d e b d e fs a 
	  g e fs g b fs ef d
	  fs d e? b d e r4
	}
	\alternative {
    { r2 r8 d8 e f }
    { d8 r r ds ~ ds2 }
	}
	
	\break
	R1*7
	R1*4
	r8 a c e b' g e c
	g' fs ~ fs2.
	r8 e e4 -. e8 e r f
	fs4 r r2
	
	\break
	R1*3
	g,4 b e fs
	g1
	R1*2
	
	\break
	R1*4
	r8 a, c e b' g e c
	g' fs ~ fs2.
	r8 e e4 -. e8 e r f
	fs4 r r2
	
	\break
	r8 a, c e b' g e c
	b a ~ a2.
	r4 a'8 g a b b, c 
	R1
	
	\repeat volta 2 {
		\break
		R1*4
		
		\break
		R1*2
	}
	
	\alternative { 
		{ \normalsize g'8 fs g b e, e4 -. b'8
		  a gs a c d, d r4 }
		
		{ R1*2 } 
	}
	
	\break
	R1*7
	r4 b4 -- c -- cs --
	
	\break
	d8 cs d e d b a g
	d' d r4 r8 b c cs
	d8 cs d e d b a g
	r8 e'8 fs4 g a
	
	\break
	g8 e fs g ~ g2
	r8 fs fs g e d e fs ~
	fs4 r d4 -- ds --
	
	\break
	e8 ds e fs g fs e fs
	d8 d4 -. d8 r8 b d ds
	e8 ds e fs g fs e fs
	d8 d4 -. d8 r b d b ~
	
	\break
  b a ~ a2.
  r4 r8 a a e'4 -- d8 ~
	d1
	d4 r r2
	
	\break
	R1*3
	g,4 b e fs
	g1
	R1*2
	
	\break
	R1*4
	r8 a, c e b' g e c
	g' fs ~ fs2.
	r8 e e4 -. e8 e r f
	fs4 r r2
	
	\break
	r8 a, c e b' g e c
	b a ~ a2.
	r4 a'8 g a b b, c 
	R1
	
	\repeat volta 2 {
		\break
		R1*4
		
		\break
		R1*2
	}
	
	\alternative { 
		{ \normalsize g'8 fs g b e, e4 -. b'8
		  a gs a c d, d r4 }
		
		{ g8 fs g b e, e4 -. d16 df
		  c8 b \times 2/3 { c d e } b' fs8 ~ fs4 
		  g8 fs g b e, e4 -. d16 df
		  c8 b \times 2/3 { c d e } b' fs8 ~ fs4 
		  r8 g,8 fs g b e4 -. d16 df
		  c8 b \times 2/3 { c d e } fs4 e8 d ~ } 
	}
	
	\break
	d1 ~
	d1
	d8 fs r4 r2
	g8 fs r4 r2
	
	\break
	r2 d2 ~
	d1
	d8 fs r4 r2
	g8 fs r4 r2
	
	\break
	r8 g,8 fs g b e4 -. d16 df
	c8 b \times 2/3 { c d e } fs4 g8 b ~
	b1 \fermata
	
	\bar "|."
}

% ~.:.~.:.~.:.~.:.~.:.~.:.~.:.~.:.~.:.~.:.~.:.<>.:.~.:.~.:.~.:.~.:.~.:.~.:.~.:.~.:.~.:.~.:.~
% ~.:.~.:.~.:.~.:.~.:.~.:.~.:.~.:.~.:.~.:.~.:.<>.:.~.:.~.:.~.:.~.:.~.:.~.:.~.:.~.:.~.:.~.:.~








% Impresión de la partitura
% (Sólo se imprime el primer \book que encuentra Lilypond!! ojo al incluir archivos)
% ~.:.~.:.~.:.~.:.~.:.~.:.~.:.~.:.~.:.~.:.~.:.<>.:.~.:.~.:.~.:.~.:.~.:.~.:.~.:.~.:.~.:.~.:.~
% ~.:.~.:.~.:.~.:.~.:.~.:.~.:.~.:.~.:.~.:.~.:.<>.:.~.:.~.:.~.:.~.:.~.:.~.:.~.:.~.:.~.:.~.:.~
% ~.:.~.:.~.:.~.:.~.:.~.:.~.:.~.:.~.:.~.:.~.:.<>.:.~.:.~.:.~.:.~.:.~.:.~.:.~.:.~.:.~.:.~.:.~

\book {
	\paper { 
		% Descomentar para score
		% #(set-paper-size "a4" 'landscape)
		indent = 20
		% systems-per-page = 2
	}
	
	\score {
		% Descomentar para midi
		% \midi { \tempo 4 = 110 }
		
		% ATENCIÓN
		% NO USAR layout-set-staff-size O SE ROMPE lilyjazz!!!
		\layout { }
		
		<<
			\scoreMarkup
			\scoreChords
			\new StaffGroup <<
				\new Staff \with { instrumentName = "Alto Sax" midiInstrument = #"" } { \transpose ef c' \altoSax }
				\new Staff \with { instrumentName = "Tenor Sax" midiInstrument = #"" } { \transpose bf c' \tenorSax }
			>>
		>>
	}
}



%{
\book {
	\header { instrument = "" }
   \bookOutputName ""
	\score {
		<<
			\scoreMarkup
			\scoreChords
			\new StaffGroup <<
				\new Staff { \transpose bf c' \instrumentA }
			>>
		>>
	}
}

\book {
	\header { instrument = "" }
   \bookOutputName ""
	\score {
		<<
			\scoreMarkup
			\scoreChords
			\new StaffGroup <<
				\new Staff { \transpose ef c' \instrumentB }
			>>
		>>
	}
}
%}

