\version "2.18.2"


% Descripción de funcionalidades
% ~.:.~.:.~.:.~.:.~.:.~.:.~.:.~.:.~.:.~.:.~.:.<>.:.~.:.~.:.~.:.~.:.~.:.~.:.~.:.~.:.~.:.~.:.~
% ~.:.~.:.~.:.~.:.~.:.~.:.~.:.~.:.~.:.~.:.~.:.<>.:.~.:.~.:.~.:.~.:.~.:.~.:.~.:.~.:.~.:.~.:.~
% ~.:.~.:.~.:.~.:.~.:.~.:.~.:.~.:.~.:.~.:.~.:.<>.:.~.:.~.:.~.:.~.:.~.:.~.:.~.:.~.:.~.:.~.:.~

% PLUGINS
% - \eolMark:					mark al final de línea
% - \bendBefore: 				solución al bendBefore (i.e. dis8 \bendBefore)
% - \rit: 						crea una porción de ritardando que debe terminar como las dinámicas, con un \!
% - \improOn, \improOff:	negra de improvisación
% - \emptyStaff:				Imprime un pentagrama vacío
% - \emptyBar:					Imprime un compás invisible (útil para indentados)



% LAYOUT
% - El aspecto de los silencios multicompás es como los de las partituras de jazz
% - Margen extra de las articulaciones para evitar la colisión con las ligaduras
% - Glissandos bonitos



% PAPER
% - Se imprime el título, instrumento y número de página en todas las páginas
% - Solo se debe tocar el page-count (si eso). Sale bonito tal cual.

% ~.:.~.:.~.:.~.:.~.:.~.:.~.:.~.:.~.:.~.:.~.:.<>.:.~.:.~.:.~.:.~.:.~.:.~.:.~.:.~.:.~.:.~.:.~
% ~.:.~.:.~.:.~.:.~.:.~.:.~.:.~.:.~.:.~.:.~.:.<>.:.~.:.~.:.~.:.~.:.~.:.~.:.~.:.~.:.~.:.~.:.~








% Descripción de funcionalidades
% ~.:.~.:.~.:.~.:.~.:.~.:.~.:.~.:.~.:.~.:.~.:.<>.:.~.:.~.:.~.:.~.:.~.:.~.:.~.:.~.:.~.:.~.:.~
% ~.:.~.:.~.:.~.:.~.:.~.:.~.:.~.:.~.:.~.:.~.:.<>.:.~.:.~.:.~.:.~.:.~.:.~.:.~.:.~.:.~.:.~.:.~
% ~.:.~.:.~.:.~.:.~.:.~.:.~.:.~.:.~.:.~.:.~.:.<>.:.~.:.~.:.~.:.~.:.~.:.~.:.~.:.~.:.~.:.~.:.~

% 03-09-14: Layout
% Ahora las articulaciones van por dentro de las ligaduras. Parece que es la mejor solución



% 04-09-14: Layout
% Los creciendos y decreciendos tienen la línea un poco más gruesa
%
% Markup
% Añadidas guías para correcta posición y markup de la indicación de tempo
%
% Plugins
% Añadida función \emptyStave para imprimir un pentagrama vacío.
% En algunas partituras hay un pentagrama vacío antes del coda (lo cual mola bastante, por cierto)



% 05-09-14: Plugins
% Añadido a la función \emptyStave el esconder la armadura de la clave, que no estaba.



% 08-09-14: Layout
% Ahora no se muestra la cancelación de accidentales al haber un cambio de armadura



% 09-09-14: Chords
% Añadida sentencia para que los acordes menores salgan con un guión en vez de con una M minúscula



% 10-09-14: Plugins
% Mejorada la función \bendAfter.
% Ahora es genérica, y se puede definir cualquier texto en un lateral que haga las funciones de ornamento



% 15-09-14: Layout
% Añadido un poco más de margen a los reguladores



% 16-09-14: Plugins
% Mejorada la función para imprimir barras de improvisación.
% Antes se llamaba al comando \rs para pintar una barra que ocupaba una negra
% Se reemplaza \rs por \restImproOn y \restImproOff, siendo esta opción mucho más flexible.
% Cuando se activa \restImproOn, todo silencio se convierte en barra de improvisación, respetando su duración.



% 20-09-14: Plugins
% Mejorada la función para imprimir barras de improvisación.
% Se reemplaza \restImproOn y \restImproOff por \improOn y \improOff
% Ahora, también las notas del pentagrama salen como barra de improvisación.
% (los comandos \improvisationOn e \improvisationOff de lilypond no se llevan bien con LilyJAZZ)
% Se ha añadido un grob correspondiente a los slash de la fuente LilyJAZZ en el archivo lily-jazz.ly



% 20-09-14: Layout
% Comentada la línea que oculta la cancelación de accidentales al haber cambio de armadura.
% Realmente, la cancelación es muy bienvenida.



% 01-10-14: Plugins
% Renombrada la función \emptyStave a \emptyStaff (stave es el plural de staff) y 
% corregida (ya no muestra el número de compás).
% Recordar que después de usar \emptyStaff se necesita redefinir el 
% número de compás con \set Score.currentBarNumber = #xx
%
% Añadida la función \emptyBar que oculta un compás entero. Se puede usar para crear un 
% efecto de indentación en un pentagrama dado.
% Recordar que después de usar \emptyBar se necesita:
% - redefinir el número de compás con \set Score.currentBarNumber = #xx
% - volver a pintar la clave con \clef
% - volver a pintar la armadura con \key



% 15-10-14: Language
% Cambiado el lenguaje de entrada de notas del finlandes al inglés
% La diferencia es que ahora los sostenidos se escriben "-s" en vez de "-is"
% y los bemoles "-f" en vez de "-es".
%
% Estructura
% Para poder autoincluir los archivos de instrumento en otros 
% (para montar un midi, o un score), se han movido los plugins a un archivo separado
% y ahora se utiliza la función \includeOnce, evitando así el problema de las
% dependencias circulares.
%
% Global
% Todas las instrucciones que se colocaban justo antes de empezar la música están ahora
% recogidas en una función \global.
% A \global se le ha añadido instrucciones para que agrupe las corcheas de dos en dos
% en vez de cuatro en cuatro (el comportamiento por defecto).
%
% Plugins
% Se le ha aumentado el grosor de los bordes de la función \boxed



% 26-10-14: Chords
% Añadido el include "chord-exception.ily" que recoge una mejor notación de los acordes.
% Actualmente, recoge los acordes maj7, 7(b5), 7(#5), 7(b9), 7(#9), 7(add13), maj9(add13), 9(#11)
% Se irá añadiendo acordes a menudo.
 

% ~.:.~.:.~.:.~.:.~.:.~.:.~.:.~.:.~.:.~.:.~.:.<>.:.~.:.~.:.~.:.~.:.~.:.~.:.~.:.~.:.~.:.~.:.~
% ~.:.~.:.~.:.~.:.~.:.~.:.~.:.~.:.~.:.~.:.~.:.<>.:.~.:.~.:.~.:.~.:.~.:.~.:.~.:.~.:.~.:.~.:.~








% Dependencias
% ~.:.~.:.~.:.~.:.~.:.~.:.~.:.~.:.~.:.~.:.~.:.<>.:.~.:.~.:.~.:.~.:.~.:.~.:.~.:.~.:.~.:.~.:.~
% ~.:.~.:.~.:.~.:.~.:.~.:.~.:.~.:.~.:.~.:.~.:.<>.:.~.:.~.:.~.:.~.:.~.:.~.:.~.:.~.:.~.:.~.:.~
% ~.:.~.:.~.:.~.:.~.:.~.:.~.:.~.:.~.:.~.:.~.:.<>.:.~.:.~.:.~.:.~.:.~.:.~.:.~.:.~.:.~.:.~.:.~

% \includeOnce
% Incluye una dependencia solo una vez. Así se pueden incluir los archivos en otros 
% (para montar un score por ejemplo) sin liarla parda con dependencias cíclicas.

includeOnce = #(
	define-void-function (parser location filename) (string?) (
		if (not (defined? (string->symbol filename))) (
			begin (
				ly:parser-include-string parser (
					string-concatenate (list "\\include \"" filename "\"")
				)
			)
			(primitive-eval (list 'define (string->symbol filename) #t))
		)
	)
)



% LilyJAZZ
\includeOnce "includes/ignatzek-jazz-chords.ily"
\includeOnce "includes/lily-jazz.ily"



% Language
\language "english"



% Plugins
\includeOnce "includes/plugins-1.2.ily"



% Chord Exceptions
\includeOnce "includes/chord-exceptions.ily"

% ~.:.~.:.~.:.~.:.~.:.~.:.~.:.~.:.~.:.~.:.~.:.<>.:.~.:.~.:.~.:.~.:.~.:.~.:.~.:.~.:.~.:.~.:.~
% ~.:.~.:.~.:.~.:.~.:.~.:.~.:.~.:.~.:.~.:.~.:.<>.:.~.:.~.:.~.:.~.:.~.:.~.:.~.:.~.:.~.:.~.:.~











% Disposición
% ~.:.~.:.~.:.~.:.~.:.~.:.~.:.~.:.~.:.~.:.~.:.<>.:.~.:.~.:.~.:.~.:.~.:.~.:.~.:.~.:.~.:.~.:.~
% ~.:.~.:.~.:.~.:.~.:.~.:.~.:.~.:.~.:.~.:.~.:.<>.:.~.:.~.:.~.:.~.:.~.:.~.:.~.:.~.:.~.:.~.:.~
% ~.:.~.:.~.:.~.:.~.:.~.:.~.:.~.:.~.:.~.:.~.:.<>.:.~.:.~.:.~.:.~.:.~.:.~.:.~.:.~.:.~.:.~.:.~

% Cabecera
\header {
	title = "Ráfagas de sol"
	instrument = ""
	composer = "Letra & música: Ander YARZA"
	arranger = ""
	poet = ""
	tagline = ""
}

% Tamaño de las notas y pentagrama
#(set-global-staff-size 20)

% Márgenes, fuentes y distancias del papel
\paper {
	% El definir otro tipo de fuente no permite cambiar el tamaño global del staff. Es un bug conocigo
	#(define fonts (make-pango-font-tree "LilyJAZZText" "Nimbus Sans" "Luxi Mono" (/ 20 20)))

	% distancia entre la parte superior de la página y el título
	top-markup-spacing #'basic-distance = 5

	% distancia entre el título y el primer sistema
	markup-system-spacing #'basic-distance = 25

	% distancia entre el texto y el primer sistema 
	top-system-spacing #'basic-distance = 15

	% márgen inferior
	bottom-margin = 20
	
	% intentado del primer sistema
	indent = 0
	 
	% número de páginas
	% page-count = 1

	ragged-last-bottom = ##f 

	oddHeaderMarkup = \markup {
	 \on-the-fly #not-first-page \fill-line {
		\fromproperty #'page:page-number-string
		\fromproperty #'header:title
		\fromproperty #'header:instrument
	 }
	}

	evenHeaderMarkup = \markup {
	 \on-the-fly #not-first-page \fill-line {
		\fromproperty #'header:instrument
		\fromproperty #'header:title
		\fromproperty #'page:page-number-string
	 }
	}
}

% ~.:.~.:.~.:.~.:.~.:.~.:.~.:.~.:.~.:.~.:.~.:.<>.:.~.:.~.:.~.:.~.:.~.:.~.:.~.:.~.:.~.:.~.:.~
% ~.:.~.:.~.:.~.:.~.:.~.:.~.:.~.:.~.:.~.:.~.:.<>.:.~.:.~.:.~.:.~.:.~.:.~.:.~.:.~.:.~.:.~.:.~







% Elementos comunes de la partitura
% ~.:.~.:.~.:.~.:.~.:.~.:.~.:.~.:.~.:.~.:.~.:.<>.:.~.:.~.:.~.:.~.:.~.:.~.:.~.:.~.:.~.:.~.:.~
% ~.:.~.:.~.:.~.:.~.:.~.:.~.:.~.:.~.:.~.:.~.:.<>.:.~.:.~.:.~.:.~.:.~.:.~.:.~.:.~.:.~.:.~.:.~
% ~.:.~.:.~.:.~.:.~.:.~.:.~.:.~.:.~.:.~.:.~.:.<>.:.~.:.~.:.~.:.~.:.~.:.~.:.~.:.~.:.~.:.~.:.~

% Elementos comunes de texto (marcas de ensayo, tempo, etc)
scoreMarkup = \new Staff \with { \RemoveEmptyStaves } {
	% Oculta el primer pentagrama del markup
	\override Staff.VerticalAxisGroup #'remove-first = ##t

	% Indicación de tiempo
	% \once \override Score.RehearsalMark.X-offset = #5
	% \mark \jazzTempoMarkup "Easy Swing" c4 "112"

	\partial 1
	s1
	
	\once \override Score.RehearsalMark.X-offset = #0
	\mark \markup \boxed "Verso I & II"
	s1*26
	
	\mark \markup \boxed "Puente"
	s1*15
	
	\mark \markup \boxed "Verso III"
	s1*24
	
	\mark \markup \boxed "Puente"
}



% Función musical global
global = {
	% Para pintar todos los números de compás debajo del pentagrama
	% \override Score.BarNumber #'break-visibility = #end-of-line-invisible
	% \override Score.BarNumber #'direction = #DOWN
	% \override Score.BarNumber #'extra-offset = #'(1.5 . 0)

	\jazzOn
	\compressFullBarRests

	% Arregla el problema de tener el scoreMarkup añadido
	\revert MultiMeasureRest #'staff-position
	\override Voice.Rest #'staff-position = #0	

	\set Timing.beamExceptions = #'()
	\set Timing.baseMoment = #(ly:make-moment 1/4)
	\set Timing.beatStructure = #'(1 1 1 1) 
}

% ~.:.~.:.~.:.~.:.~.:.~.:.~.:.~.:.~.:.~.:.~.:.<>.:.~.:.~.:.~.:.~.:.~.:.~.:.~.:.~.:.~.:.~.:.~
% ~.:.~.:.~.:.~.:.~.:.~.:.~.:.~.:.~.:.~.:.~.:.<>.:.~.:.~.:.~.:.~.:.~.:.~.:.~.:.~.:.~.:.~.:.~








% Elementos específicos del instrumento
% ~.:.~.:.~.:.~.:.~.:.~.:.~.:.~.:.~.:.~.:.~.:.<>.:.~.:.~.:.~.:.~.:.~.:.~.:.~.:.~.:.~.:.~.:.~
% ~.:.~.:.~.:.~.:.~.:.~.:.~.:.~.:.~.:.~.:.~.:.<>.:.~.:.~.:.~.:.~.:.~.:.~.:.~.:.~.:.~.:.~.:.~
% ~.:.~.:.~.:.~.:.~.:.~.:.~.:.~.:.~.:.~.:.~.:.<>.:.~.:.~.:.~.:.~.:.~.:.~.:.~.:.~.:.~.:.~.:.~

% Cifrado
scoreChords = \chords {    
	\set minorChordModifier = \markup { "-" }
	\set chordNameExceptions = #chordNameExceptions
	\override ChordName.font-size = #2.5

	d2 d:7
	
	g1
	e:m
	a:7
	d2 d:7
	
	g1
	e:m
	b2:m7 a:7
	d2 d:7
	
	g1
	e:m
	a:7
	d2 d:7
	
	g1
	e:m
	b2:m7 a:7
	b1:m7
	
	e1:7
	d2:7 e:7
	b1:m7
	b:m7
	
	e1:7
	d2:7 e:7
	b1:m7
	a:7
	d2 d:7
	
	b1:m7
	
	a:m7
	d:7
	g1
	c1
	fs:7
	b2:m b:m/a
	
	e1:7
	b2:m b:m/a
	e2:7 s8 d/fs s g
	s2 g:m
	
	d1
	a1:9-
	d1
	a1:9-
	d2 d:7
	
	g1
	e:m
	a:7
	d2 d:7
	
	g1
	e:m
	b2:m7 a:7
	d2 d:7
	
	g1
	e:m
	a:7
	d2 d:7
	
	g1
	e:m
	b2:m7 a:7
	b1:m7
	
	e1:7
	d2:7 e:7
	b1:m7
	b:m7
	
	e1:7
	d2:7 e:7
	b1:m7	
	b1:m7
	
	a:m7
	d:7
	g1
	c1
	fs:7
	b2:m b:m/a
	
	e1:7
	b2:m b:m/a
	e2:7 s8 d/fs s g
	s2 g:m
	
	d1
	a1:9-
	d1
	a1:9-
	
	d1
	a1:9-
	d1
	a1:9-
	
	d1
}

% Música
music = \relative c'' {
  
	\global
	\key d \major

	\partial 1

	r4 fs8 fs fs g fs b, ~
	
	% VI & II
	\repeat volta 2 {
		b4 d8 e ~ e d ~ d e ~ 
		e1 ~
		\break
		e4 cs d8 e d d
		r4 fs8 fs fs g fs b, ~
		
		\break
		b4 d8 e ~ e d ~ d e ~ 
		e1 
		\break
		fs4 d cs8 d ~ d d
		r4 fs8 fs fs g fs b, ~
		
		\break
		b4 d8 e ~ e d ~ d e ~ 
		e1 ~
		\break
		e4 cs d8 e d d
		r4 fs8 fs fs g fs b, ~
		
		\break
		b4 d8 e ~ e d ~ d e ~ 
		e1 
		\break
		fs4 d cs8 d ~ d d
		r4 b8 b cs d ~ d e ~
		
		\break
		e2 r
		r4 b8 b e b e d ~
		\break
		d b ~ b2.
		r4 b8 b cs d ~ d e ~
		
		\break
		e2 r
		r4 b8 b e b e d ~
		\break
		d b ~ b2.
	}
	
	\alternative {
		{ R1
		  r4 fs'8 fs fs g fs b, \laissezVibrer }
		
		{ r4 b8 b cs d ~ d e ~ }
	}
	
	% CH
	\break
	e2 r
	r4 d8 d d e d b ~
	b d ~ d2.
	\break
	r4 g8 g g fs e cs ~
	cs cs ~ cs g' ~ g a ~ a fs
	r4 b,8 b cs d ~ d e ~
		
	\break
	e2 r
	r4 b8 b cs d ~ d e ~
	\break
	e2 r8 fs ~  fs g ~
	g2. a8 fs ~
	
	\break
	fs1
	r4 cs4 d8 e ~ e d ~ 
	d2 r
	\break
	r4 cs4 d8 e ~ e d 
	r4 fs8 fs fs g fs b, ~
	
	% VIV
	\break
	b4 d8 e ~ e d ~ d e ~ 
	e1 ~
	\break
	e4 cs d8 e d d
	r4 fs8 fs fs g fs b, ~
	
	\break
	b4 d8 e ~ e d ~ d e ~ 
	e1 
	\break
	fs4 d cs8 d ~ d d
	r4 fs8 fs fs g fs b, ~
	
	\break
	b4 d8 e ~ e d ~ d e ~ 
	e1 ~
	\break
	e4 cs d8 e d d
	r4 fs8 fs fs g fs b, ~
	
	\break
	b4 d8 e ~ e d ~ d e ~ 
	e1 
	\break
	fs4 d cs8 d ~ d d
	r4 b8 b cs d ~ d e ~
	
	\break
	e2 r
	r4 b8 b e b e d ~
	\break
	d b ~ b2.
	r4 b8 b cs d ~ d e ~
	
	\break
	e2 r
	r4 b8 b e b e d ~
	\break
	d b ~ b2.
	r4 b8 b cs d ~ d e ~
	
	% CH
	\break
	e2 r
	r4 d8 d d e d b ~
	b d ~ d2.
	\break
	r4 g8 g g fs e cs ~
	cs cs ~ cs g' ~ g a ~ a fs
	r4 b,8 b cs d ~ d e ~
		
	\break
	e2 r
	r4 b8 b cs d ~ d e ~
	\break
	e2 r8 fs ~  fs g ~
	g2. a8 fs ~
	
	\break
	fs1
	r4 cs4 d8 e ~ e d ~ 
	d2 r
	\break
	r4 cs4 d8 e ~ e d ~ 
	d2 r
	
	\break
	r4 cs4 d8 e ~ e d ~ 
	d2 r
	\break
	r4 cs4 d8 e ~ e d ~ 
	d1 \fermata
	
	\bar "|."
}

% ~.:.~.:.~.:.~.:.~.:.~.:.~.:.~.:.~.:.~.:.~.:.<>.:.~.:.~.:.~.:.~.:.~.:.~.:.~.:.~.:.~.:.~.:.~
% ~.:.~.:.~.:.~.:.~.:.~.:.~.:.~.:.~.:.~.:.~.:.<>.:.~.:.~.:.~.:.~.:.~.:.~.:.~.:.~.:.~.:.~.:.~








% Impresión de la partitura
% (Sólo se imprime el primer \book que encuentra Lilypond!! ojo al incluir archivos)
% ~.:.~.:.~.:.~.:.~.:.~.:.~.:.~.:.~.:.~.:.~.:.<>.:.~.:.~.:.~.:.~.:.~.:.~.:.~.:.~.:.~.:.~.:.~
% ~.:.~.:.~.:.~.:.~.:.~.:.~.:.~.:.~.:.~.:.~.:.<>.:.~.:.~.:.~.:.~.:.~.:.~.:.~.:.~.:.~.:.~.:.~
% ~.:.~.:.~.:.~.:.~.:.~.:.~.:.~.:.~.:.~.:.~.:.<>.:.~.:.~.:.~.:.~.:.~.:.~.:.~.:.~.:.~.:.~.:.~

\book {
	\score {
		<<
			\scoreMarkup
			\scoreChords
			\new StaffGroup <<
				\new Staff { \new Voice = "one" \music }
			>>
			
			\new Lyrics \lyricsto "one" {
				U -- na~a -- le -- gre -- can -- cion
				
				\set stanza = #"1."
				Uu -- uu -- uu -- uuh,
				te re -- cor __ _ dó
				u -- na vie -- ja~i -- lu -- sión 
				
				Uu -- uu -- uu -- uuh,
				que te~hi -- zo sen tir
				que la vi -- da se -- rá
				
				Uu -- uu -- uu -- uuh,
				la li -- ber __ _ tad
				de~u -- na ni -- ña que jue-ga
				
				Uu -- uu -- uu -- uuh,
				con la~e -- ter -- ni -- dad.
				
				Rá -- fa -- gas de sol,
				el tiem -- po se der -- ri -- te.
				Un a -- ve~al pa -- sar,
				ya se~ha vuel -- to~in -- vi -- si -- ble
				
				En el fon -- do del mar
				
				A mi~al -- re -- de -- dor
				se re -- pi -- te la~his -- to -- ria
				y~al pa -- sar la me -- mo -- ria que -- da -- ran
				rá -- fa -- gas de sol,
				rá -- fa -- gas de sol, de sol uh oh,
				
				pa pa ra pa
				pa pa ra pa
				Cuan -- do vas a~em -- pe -- zar
				
				Uu -- uu -- uu -- uuh,
				a dis -- fru __ _ tar
				ca -- da pa -- so que -- das 
				
				es -- tu -- uu -- uu,
				o -- por -- tu -- ni -- dad
				de cam -- biar pa -- ra bien
				
				Uu -- uu -- uu -- uuh,
				pen -- sar en __ _ dar
				lo me -- jor de tu ser
				
				Uu -- uu -- uu -- uuh,
				u -- na~y o -- tra vez
				
				Rá -- fa -- gas de sol,
				el tiem -- po se der -- ri -- te.
				Un a -- ve~al pa -- sar,
				ya se~ha vuel -- to~in -- vi -- si -- ble
				
				A mi~al -- re -- de -- dor
				se re -- pi -- te la~his -- to -- ria
				y~al pa -- sar la me -- mo -- ria que -- da -- ran
				rá -- fa -- gas de sol,
				rá -- fa -- gas de sol, de sol uh oh,
				
				pa pa ra pa
				pa pa ra pa
				pa pa ra pa
				pa pa ra pa
			}
			
			\new Lyrics \lyricsto "one" {
				\repeat unfold 6 { \skip 8 }
				
				\set stanza = #"2."
				Uu -- uu -- uu -- uuh,
				me des -- per __ _ tó
				la voz de~u -- na si re-na
				
				Uu -- uu -- uu -- uuh,
				"\"Tu" qué~ha -- ces a -- "quí\""
				el -- la me pre -- gun -- tó
				
				Uu -- uu -- uu -- uuh,
				le res -- pon __ _ dí
				"\"He" per -- di -- do~u -- na~es -- "tre-lla\""
				
				Uu -- uu -- uu -- uuh,
				Di -- me si~es -- tá~a -- quí
			}
		>>
	}
}


