\version "2.18.2"
\language "english"

% Se debe incluir antes que lilyjazz. Si no, lilyjazz no funciona.
#(set-global-staff-size 20)

% includes
\include "includes/lilyjazz.ily"
\include "includes/chords.ily"
\include "includes/plugins-1.2.ily"

% Cabecera
% ~.:.~.:.~.:.~.:.~.:.~.:.~.:.~.:.~.:.~.:.~.:.<>.:.~.:.~.:.~.:.~.:.~.:.~.:.~.:.~.:.~.:.~.:.~
\header {
	title = "Pitufos"
	instrument = ""
	composer = "Kerman"
	arranger = ""
	poet = ""
	tagline = ""
}

% Márgenes, fuentes y distancias del papel
% ~.:.~.:.~.:.~.:.~.:.~.:.~.:.~.:.~.:.~.:.~.:.<>.:.~.:.~.:.~.:.~.:.~.:.~.:.~.:.~.:.~.:.~.:.~
\paper {
	
	% distancia entre la parte superior de la página y el título
	top-markup-spacing #'basic-distance = 5

	% distancia entre el título y el primer sistema
	markup-system-spacing #'basic-distance = 25

	% distancia entre el texto y el primer sistema 
	top-system-spacing #'basic-distance = 15

	% márgen inferior
	bottom-margin = 20
	
	% intentado del primer sistema
	indent = 0
	 
	% número de páginas
	% page-count = 1

	ragged-last-bottom = ##f 

	oddHeaderMarkup = \markup {
	 \on-the-fly #not-first-page \fill-line {
		\fromproperty #'page:page-number-string
		\fromproperty #'header:title
		\fromproperty #'header:instrument
	 }
	}

	evenHeaderMarkup = \markup {
	 \on-the-fly #not-first-page \fill-line {
		\fromproperty #'header:instrument
		\fromproperty #'header:title
		\fromproperty #'page:page-number-string
	 }
	}
}

% Elementos comunes de texto (marcas de ensayo, tempo, etc)
% ~.:.~.:.~.:.~.:.~.:.~.:.~.:.~.:.~.:.~.:.~.:.<>.:.~.:.~.:.~.:.~.:.~.:.~.:.~.:.~.:.~.:.~.:.~
scoreMarkup = \new Staff \with { \RemoveEmptyStaves } {
	% Oculta el primer pentagrama del markup
	\override Staff.VerticalAxisGroup #'remove-first = ##t

	% Indicación de tiempo
	% \once \override Score.RehearsalMark.self-alignment-X = #LEFT
	% \once \override Score.RehearsalMark.extra-offset = #'(0 . 3) 
	% \mark \jazzTempoMarkup "Easy Swing" c4 "112"

	% s1*2
	% \once \override Score.RehearsalMark.X-offset = #5
	% \mark \markup \boxed "A"
}



% Función musical global
% ~.:.~.:.~.:.~.:.~.:.~.:.~.:.~.:.~.:.~.:.~.:.<>.:.~.:.~.:.~.:.~.:.~.:.~.:.~.:.~.:.~.:.~.:.~
global = {
	% Para pintar todos los números de compás debajo del pentagrama
	% \override Score.BarNumber #'break-visibility = #end-of-line-invisible
	% \override Score.BarNumber #'direction = #DOWN
	% \override Score.BarNumber #'extra-offset = #'(1.5 . 0)

	\compressFullBarRests

	% Arregla el problema de tener el scoreMarkup añadido
	\revert MultiMeasureRest #'staff-position
	\override Voice.Rest #'staff-position = #0	

	\set Timing.beamExceptions = #'()
	\set Timing.baseMoment = #(ly:make-moment 1/4)
	\set Timing.beatStructure = #'(1 1 1 1) 
	
	\override ParenthesesItem.font-size = #0
}

% Cifrado
% ~.:.~.:.~.:.~.:.~.:.~.:.~.:.~.:.~.:.~.:.~.:.<>.:.~.:.~.:.~.:.~.:.~.:.~.:.~.:.~.:.~.:.~.:.~
scoreChords = \chords {
	s1*16

	s1*24
	s1*8

	s1*16
	s1*8

	g1
	c1
	g1
	c1

	g1
	e1:7
	d1:7
	d1:7
	% c1:m f2:m g2:m7
}

% Música
% ~.:.~.:.~.:.~.:.~.:.~.:.~.:.~.:.~.:.~.:.~.:.<>.:.~.:.~.:.~.:.~.:.~.:.~.:.~.:.~.:.~.:.~.:.~
trombone = \relative c'' {
  
	\global
	\key g \major

	d2 g
	e4-- d8 c-. r d-. r d-.
	r4 d g2
	fs4-- e8 d-. r b c d~->

	\break
	d2 g
	e4-- d8 c-. r g a b
	c4 b a e'
	d8 d ef ef e e fs fs

	\break
	R1*6^"solo sobre billo"
	c8 c16 c c8 c b a e'4--
	d8 d16 d d8 d d e fs4--

	\break
	g4 \bendAfter #-5 r r2
	R1*7
	R1*8
	R1*8

	\break
	R1*2
	e,1~\sfp\<
	e4 a8\f g~\sfp\< g2

	\break
	b4->\f g8 e~ e2~ 
	e8 g a4-. b-. g-.
	a1\sfp\<
	r8\! b8 a4-. b8 b a4-. 

	\break
	g4-> r r2
	R1*7
	R1*8
	R1*8^"E7"

	\break
	\bar ".|:"
	R1*8
	\bar ":|."

	\break
	\repeat volta 2 {
		r8 b16 b b8-. b-. r8 b16 b b8-. b-.
		r8 a16 a a8-. a-. r8 g( a g)
		r8 b16 b b8-. b-. r8 b16 b b8-. b-.
		\break
		r8 a16 a a8-. a-. r8 g( a g)

		r8 b16 b b8-. b-. r8 b16 b b8-. b-.
		r8 b16 b b8-. b-. r8 b( a b)
		\break
		r8 a16 a a8-. a-. r8 a16 a a8-. a-.
	}
	\alternative {
		{r8 e'8( d e d8) d16 d d d d8-. }
		{r8 e8( d e d8) d16 d d d c8-. }
	}
	b4-> r r2
}

% Impresión de la partitura
% (Sólo se imprime el primer \book que encuentra Lilypond!! ojo al incluir archivos)
% ~.:.~.:.~.:.~.:.~.:.~.:.~.:.~.:.~.:.~.:.~.:.<>.:.~.:.~.:.~.:.~.:.~.:.~.:.~.:.~.:.~.:.~.:.~
\book {
	\paper { 
		% Descomentar para score
		% #(set-paper-size "a4" 'landscape)
		% indent = 20
		% systems-per-page = 2
	}
	
	\score {
		% Descomentar para midi
		% \midi { \tempo 4 = 110 }
		
		% NO USAR layout-set-staff-size O SE ROMPE lilyjazz!!!
		\layout { }
		
		<<
			\scoreMarkup
			\scoreChords
			\new StaffGroup <<
				\new Staff \with { instrumentName = "" midiInstrument = #"" } { \trombone }
			>>
		>>
	}
}



%{
\book {
	\header { instrument = "" }
   \bookOutputName ""
	\score {
		<<
			\scoreMarkup
			\scoreChords
			\new StaffGroup <<
				\new Staff { \transpose bf c' \instrumentA }
			>>
		>>
	}
}

\book {
	\header { instrument = "" }
   \bookOutputName ""
	\score {
		<<
			\scoreMarkup
			\scoreChords
			\new StaffGroup <<
				\new Staff { \transpose ef c' \instrumentB }
			>>
		>>
	}
}
%}

