\version "2.18.2"

\include "lily-jazz/ignatzek-jazz-chords.ily"
\include "lily-jazz/lily-jazz.ily"

% PLUGINS
% - \eolMark: 		mark al final de línea
% - \bendBefore: 	solución al bendBefore (i.e. dis8 \bendBefore)
% - \rit: 			crea una porción de ritardando que debe terminar como las dinámicas, con un \!
% - \rs: 			negra de improvisación
% - \emptyStave:	Imprime un pentagrama vacío

% LAYOUT
% - El aspecto de los silencios multicompás es como los de las partituras de jazz
% - Margen extra de las articulaciones para evitar la colisión con las ligaduras
% - Glissandos bonitos

% PAPER
% - Se imprime el título, instrumento y número de página en todas las páginas
% - Solo se debe tocar el page-count (si eso). Sale bonito tal cual.

% CAMBIOS
% 03-09-14: Layout
% Ahora las articulaciones van por dentro de las ligaduras. Parece que es la mejor solución
%
% 04-09-14: Layout
% Los creciendos y decreciendos tienen la línea un poco más gruesa
%
% Markup
% Añadidas guías para correcta posición y markup de la indicación de tempo
%
% Plugins
% Añadida función \emptyStave para imprimir un pentagrama vacío.
% En algunas partituras hay un pentagrama vacío antes del coda (lo cual mola bastante, por cierto)
%
% 05-09-14: Plugins
% Añadido a la función \emptyStave el esconder la armadura de la clave, que no estaba.
%
% 08-09-14: Layout
% Ahora no se muestra la cancelación de accidentales al haber un cambio de armadura
%
% 09-09-14: Chords
% Añadida sentencia para que los acordes menores salgan con un guión en vez de con una M minúscula


% PLUGINS 1.2
% -----------
% ~.:.~.:.~.:.~.:.~.:.~.:.~.:.~.:.~.:.~.:.~.:.<>.:.~.:.~.:.~.:.~.:.~.:.~.:.~.:.~.:.~.:.~.:.~
% ~.:.~.:.~.:.~.:.~.:.~.:.~.:.~.:.~.:.~.:.~.:.<>.:.~.:.~.:.~.:.~.:.~.:.~.:.~.:.~.:.~.:.~.:.~
% ~.:.~.:.~.:.~.:.~.:.~.:.~.:.~.:.~.:.~.:.~.:.<>.:.~.:.~.:.~.:.~.:.~.:.~.:.~.:.~.:.~.:.~.:.~





% multi-mark-engraver
% [][][][][][][][][][][][][][][][][][][][][][][][][][][][][][][][][][][][][][][][][][][][][]
% Aporta la posibilidad de pintar un rehearsal mark al final de una línea y 
% al comienzo de la siguiente.
% http://lists.gnu.org/archive/html/lilypond-user/2011-08/msg00157.html
% [][][][][][][][][][][][][][][][][][][][][][][][][][][][][][][][][][][][][][][][][][][][][]
#(define (multi-mark-engraver ctx)
   (let ((texts '())
         (final-texts '())
         (events '()))

     `((start-translation-timestep
        . ,(lambda (trans)
             (set! final-texts '())))

       (listeners
        (mark-event
         . ,(lambda (trans ev)
              (set! events (cons ev events)))))

       (acknowledgers
        (break-alignment-interface
         . ,(lambda (trans grob source)
              (for-each (lambda (mark)
                          (set! (ly:grob-parent mark X) grob))
                        texts))))

       (process-music
        . ,(lambda (trans)
             (for-each
              (lambda (ev)
                (let* ((mark-grob
                        (ly:engraver-make-grob trans 'RehearsalMark ev))
                       (label (ly:event-property ev 'label))
                       (formatter (ly:context-property ctx 'markFormatter)))

                  (if (and (procedure? formatter)
                           (not (markup? label)))
                      (begin
                       (if (not (number? label))
                           (set! label
                                 (ly:context-property ctx 'rehearsalMark)))

                       (if (and (integer? label)
                                (exact? label))
                           (set! (ly:context-property ctx 'rehearsalMark)
                                 (1+ label)))

                       (if (number? label)
                           (set! label (apply formatter (list label ctx)))
                           (ly:warning "rehearsalMark must have
integer value"))))

                  (if (markup? label)
                      (begin
                       (set! (ly:grob-property mark-grob 'text) label)
                       (let ((dir (ly:event-property ev 'direction)))
                         (and (ly:dir? dir)
                              (set! (ly:grob-property mark-grob 'direction)
                                    dir))))
                      (ly:warning "mark label must be a markup object"))

                  (set! texts (cons mark-grob texts))))
              (reverse events))))

       (stop-translation-timestep
        . ,(lambda (trans)
             (if (pair? texts)
                 (let ((staves (ly:context-property ctx 'stavesFound))
                       (priority-index 0))
                   (for-each (lambda (grob)
                               (let ((my-priority (ly:grob-property
grob 'outside-staff-priority 1500)))
                                 (for-each (lambda (stave)

(ly:pointer-group-interface::add-grob grob 'side-support-elements
                                               stave))
                                           staves)
                                 (set! (ly:grob-property grob
'outside-staff-priority) (+ my-priority priority-index))
                                 (set! priority-index (1+ priority-index))
                                 (set! final-texts (cons grob final-texts))))
                             (reverse texts))
                     (set! texts '())
                     (set! events '())))))

        (finalize
         . ,(lambda (trans)
              (and (pair? final-texts)
                   (for-each (lambda (grob)
                               (set! (ly:grob-property grob 'break-visibility)
                                     end-of-line-visible))
                             final-texts)))))))


% Funciones originales
%{
myMark =
#(define-music-function (parser location text) (markup?)
  (make-music 'MarkEvent
              'label text))
			  
toCoda = {
	\tweak #'self-alignment-X #RIGHT
	\tweak #'break-visibility #begin-of-line-invisible
	\myMark \markup { \hspace #1.25 \raise #1.25 \musicglyph #"scripts.coda" }
}
%}

% Función maqueada.
% Se apoya en el código obtenido por consola al ejecutar { \displayMusic { \toCoda }}
eolMark =
#(define-music-function (parser location text) (markup?)
	(make-music 
		'MarkEvent 
		'tweaks (list 
			(cons (quote self-alignment-X) 1)
			(cons (quote break-visibility) #(#t #t #f))
		) 
		'label (markup
			#:line (
				#:hspace 1.25
				#:raise 1.25
				text
			)
		)
	)
)










% rest-score y merge-rests-on-positioning
% [][][][][][][][][][][][][][][][][][][][][][][][][][][][][][][][][][][][][][][][][][][][][]
% Permite realizar la fusión de los silencios entre dos voces en un mismo pentagrama.
% https://code.google.com/p/lilypond/issues/detail?id=1228 (fichero merge-rests.ily)
% [][][][][][][][][][][][][][][][][][][][][][][][][][][][][][][][][][][][][][][][][][][][][]

#(define (rest-score r)
  (let ((score 0)
	(yoff (ly:grob-property-data r 'Y-offset))
	(sp (ly:grob-property-data r 'staff-position)))
    (if (number? yoff)
	(set! score (+ score 2))
	(if (eq? yoff 'calculation-in-progress)
	    (set! score (- score 3))))
    (and (number? sp)
	 (<= 0 2 sp)
	 (set! score (+ score 2))
	 (set! score (- score (abs (- 1 sp)))))
    score))

#(define (merge-rests-on-positioning grob)
  (let* ((can-merge #f)
	 (elts (ly:grob-object grob 'elements))
	 (num-elts (and (ly:grob-array? elts)
			(ly:grob-array-length elts)))
	 (two-voice? (= num-elts 2)))
    (if two-voice?
	(let* ((v1-grob (ly:grob-array-ref elts 0))
	       (v2-grob (ly:grob-array-ref elts 1))
	       (v1-rest (ly:grob-object v1-grob 'rest))
	       (v2-rest (ly:grob-object v2-grob 'rest)))
	  (and
	   (ly:grob? v1-rest)
	   (ly:grob? v2-rest)
	   (let* ((v1-duration-log (ly:grob-property v1-rest 'duration-log))
		  (v2-duration-log (ly:grob-property v2-rest 'duration-log))
		  (v1-dot (ly:grob-object v1-rest 'dot))
		  (v2-dot (ly:grob-object v2-rest 'dot))
		  (v1-dot-count (and (ly:grob? v1-dot)
				     (ly:grob-property v1-dot 'dot-count -1)))
		  (v2-dot-count (and (ly:grob? v2-dot)
				     (ly:grob-property v2-dot 'dot-count -1))))
	     (set! can-merge
		   (and
		    (number? v1-duration-log)
		    (number? v2-duration-log)
		    (= v1-duration-log v2-duration-log)
		    (eq? v1-dot-count v2-dot-count)))
	     (if can-merge
		 ;; keep the rest that looks best:
		 (let* ((keep-v1? (>= (rest-score v1-rest)
				      (rest-score v2-rest)))
			(rest-to-keep (if keep-v1? v1-rest v2-rest))
			(dot-to-kill (if keep-v1? v2-dot v1-dot)))
		   ;; uncomment if you're curious of which rest was chosen:
		   ;;(ly:grob-set-property! v1-rest 'color green)
		   ;;(ly:grob-set-property! v2-rest 'color blue)
		   (ly:grob-suicide! (if keep-v1? v2-rest v1-rest))
		   (if (ly:grob? dot-to-kill)
		       (ly:grob-suicide! dot-to-kill))
		   (ly:grob-set-property! rest-to-keep 'direction 0)
		   (ly:rest::y-offset-callback rest-to-keep)))))))
    (if can-merge
	#t
	(ly:rest-collision::calc-positioning-done grob))))










% startParenthesis y endParenthesis
% [][][][][][][][][][][][][][][][][][][][][][][][][][][][][][][][][][][][][][][][][][][][][]
% http://comments.gmane.org/gmane.comp.gnu.lilypond.general/64087
% [][][][][][][][][][][][][][][][][][][][][][][][][][][][][][][][][][][][][][][][][][][][][]

% ELIMINADO










% bendBefore
% [][][][][][][][][][][][][][][][][][][][][][][][][][][][][][][][][][][][][][][][][][][][][]
% Adaptación
% http://lilypondblog.org/2013/08/adding-ornamentations-to-note-heads-part-1/
% [][][][][][][][][][][][][][][][][][][][][][][][][][][][][][][][][][][][][][][][][][][][][]

%%%
%%% Utilities for defining new grobs, grob properties and music event types
%%% (there should be built-in commands to do that in LilyPond)
%%%
#(define (define-grob-type grob-name grob-entry)
   "Define a new grob and add it to `all-grob-definitions', after
scm/define-grobs.scm fashion.
After grob definitions are added, use:

\\layout {
  \\context {
    \\Global
    \\grobdescriptions #all-grob-descriptions
  }
}

to register them."
   (let* ((meta-entry   (assoc-get 'meta grob-entry))
          (class        (assoc-get 'class meta-entry))
          (ifaces-entry (assoc-get 'interfaces meta-entry)))
     (set-object-property! grob-name 'translation-type? list?)
     (set-object-property! grob-name 'is-grob? #t)
     (set! ifaces-entry (append (case class
                                  ((Item) '(item-interface))
                                  ((Spanner) '(spanner-interface))
                                  ((Paper_column) '((item-interface
                                                     paper-column-interface)))
                                  ((System) '((system-interface
                                               spanner-interface)))
                                  (else '(unknown-interface)))
                                ifaces-entry))
     (set! ifaces-entry (uniq-list (sort ifaces-entry symbol<?)))
     (set! ifaces-entry (cons 'grob-interface ifaces-entry))
     (set! meta-entry (assoc-set! meta-entry 'name grob-name))
     (set! meta-entry (assoc-set! meta-entry 'interfaces
                                  ifaces-entry))
     (set! grob-entry (assoc-set! grob-entry 'meta meta-entry))
     (set! all-grob-descriptions
           (cons (cons grob-name grob-entry)
                 all-grob-descriptions))))

#(define-public (define-grob-property symbol type? description)
   "Define a new grob property.
`symbol': the property name
`type?': the type predicate for this property
`description': the type documentation"
  (set-object-property! symbol 'backend-type? type?)
  (set-object-property! symbol 'backend-doc description)
  symbol)

#(defmacro*-public define-music-type (type-name parents #:rest properties)
     "Add a new music type description to `music-descriptions'
and `music-name-to-property-table'.

`type-name': the music type name (a symbol)
`parents': the parent event classes (a list of symbols)
`properties': a (key . value) property set, which shall contain at least
   description and type properties.
"
   (let ((gproperties (gensym "properties")))
     `(let ((,gproperties (list-copy ',properties)))
        ,@(map (lambda (parent)
                `(define-event-class ',(ly:camel-case->lisp-identifier type-name)
                   ',parent))
               parents)
        (set-object-property! ',type-name
                              'music-description
                              (cdr (assq 'description ,gproperties)))
        (set! ,gproperties (assoc-set! ,gproperties 'name ',type-name))
        (set! ,gproperties (assq-remove! ,gproperties 'description))
        (hashq-set! music-name-to-property-table ',type-name ,gproperties)
        (set! music-descriptions
              (cons (cons ',type-name ,gproperties)
                    music-descriptions)))))

%%%
%%% Grob definition
%%%
#(define (head-ornamentation::print me)
   "Prints a HeadOrnamentation grob, on the left or right side of the
note head, depending on the grob direction."
   (let* ((notes (ly:grob-object me 'elements))
          (y-ref (ly:grob-common-refpoint-of-array me notes Y))
          (x-ref (ly:grob-common-refpoint-of-array me notes X))
          (x-ext (ly:relative-group-extent notes x-ref X))
          (y-ext (ly:relative-group-extent notes y-ref Y))
          (staff-position (ly:grob-staff-position (ly:grob-array-ref notes 0)))
          (y-coord (+ (interval-center y-ext)
                      (if (and (eq? (ly:grob-property me 'shift-when-on-line) #t)
                               (memq staff-position '(-4 -2 0 2 4)))
                          0.5
                          0)))
          (text (ly:text-interface::print me))
          (width (/ (interval-length (ly:stencil-extent text X)) 2.0))
          (x-coord (if (= (ly:grob-property me 'direction) LEFT)
                       (- (car x-ext) width)
                       (+ (cdr x-ext) width))))
     (ly:stencil-translate
      text
      (cons
       (- (- x-coord (ly:grob-relative-coordinate me x-ref X)) 
          (ly:grob-property me 'x-position))
       (- (- y-coord (ly:grob-relative-coordinate me y-ref Y)) 
          (ly:grob-property me 'y-position))
       ))))

%% a new grob property (used to shift an ornamentation when the
%% note head is on a staff line)
#(define-grob-property 'shift-when-on-line boolean?
   "If true, then the ornamentation is vertically shifted when
the note head is on a staff line.")

#(define-grob-property 'x-position number?
   "X position")

#(define-grob-property 'y-position number?
   "Y position")

#(define-grob-type 'HeadOrnamentation
  `((font-size . 0)
    (shift-when-on-line . #f)
    (x-position . 1)
    (y-position . 1)
    (stencil . ,head-ornamentation::print)
    (meta . ((class . Item)
             (interfaces . (font-interface))))))

\layout {
  \context {
    \Global
    \grobdescriptions #all-grob-descriptions
  }
}

%%%
%%% Engraver
%%%
%% The head-ornamentation engraver, with its note-head acknowledger
%% (which add HeadOrnamentation grobs to note heads)
#(define head-ornamentation-engraver
   (make-engraver
    (acknowledgers
     ((note-head-interface engraver note-grob source)
      ;; helper function to create HeadOrnamentation grobs
      (define (make-ornament-grob text direction shift-when-on-line x-position y-position)
        (let ((ornament-grob (ly:engraver-make-grob engraver
                                                    'HeadOrnamentation
                                                    note-grob)))
          ;; use the ornament event text as the grob text property
          (set! (ly:grob-property ornament-grob 'text) text)
          ;; set the grob direction (either LEFT or RIGHT)
          (set! (ly:grob-property ornament-grob 'direction) direction)
          ;; set the shift-when-on-line property using the given value
          (set! (ly:grob-property ornament-grob 'shift-when-on-line)
                shift-when-on-line)
          ;; set the grob x-pos
          (set! (ly:grob-property ornament-grob 'x-position) x-position)
          ;; set the grob y-pos
          (set! (ly:grob-property ornament-grob 'y-position) y-position)
          (ly:pointer-group-interface::add-grob ornament-grob
                                                'elements
                                                note-grob)
          
          ;; the ornamentation is vertically aligned with the note head
          (set! (ly:grob-parent ornament-grob Y) note-grob)
          ;; compute its font size
          (set! (ly:grob-property ornament-grob 'font-size)
                (+ (ly:grob-property ornament-grob 'font-size 0.0)
                   (ly:grob-property note-grob 'font-size 0.0)))
          ;; move accidentals and dots to avoid collision
          (let* ((ornament-stencil (ly:text-interface::print ornament-grob))
                 (ornament-width (interval-length
                                  (ly:stencil-extent ornament-stencil X)))
                 (note-column (ly:grob-object note-grob 'axis-group-parent-X))
                 ;; accidentals attached to the note:
                 (accidentals (and (ly:grob? note-column)
                                   (ly:note-column-accidentals note-column)))
                 ;; dots attached to the note:
                 (dot-column (and (ly:grob? note-column)
                                  (ly:note-column-dot-column note-column))))
            (cond ((and (= direction LEFT) (ly:grob? accidentals))
                   ;; if the ornament is on the left side, and there are
                   ;; accidentals, then increase padding between note
                   ;; and accidentals to make room for the ornament
                   (set! (ly:grob-property accidentals 'padding)
                         ornament-width))
                  ((and (= direction RIGHT) (ly:grob? dot-column))
                   ;; if the ornament is on the right side, and there
                   ;; are dots, then translate the dots to make room for
                   ;; the ornament
                   (set! (ly:grob-property dot-column 'positioning-done)
                         (lambda (grob)
                           (ly:dot-column::calc-positioning-done grob)
                           (ly:grob-translate-axis! grob ornament-width X))))))
          ornament-grob))
      ;; When the note-head event attached to the note-head grob has
      ;; ornamentation events among its articulations, then create a
      ;; HeadOrnamentation grob
      (for-each
       (lambda (articulation)
         (if (memq 'head-ornamentation-event
                   (ly:event-property articulation 'class))
             ;; this articulation is an ornamentation => make the grob
             ;; (either on LEFT or RIGHT direction)
             (begin
               (if (markup? (ly:event-property articulation 'left-text))
                   (make-ornament-grob
                    (ly:event-property articulation 'left-text)
                    LEFT
                    (ly:event-property articulation 'shift-when-on-line)
                    (ly:event-property articulation 'x-position)
                    (ly:event-property articulation 'y-position)))
               (if (markup? (ly:event-property articulation 'right-text))
                   (make-ornament-grob
                   (ly:event-property articulation 'right-text)
                   RIGHT
                   (ly:event-property articulation 'shift-when-on-line)
                   (ly:event-property articulation 'x-position)
                   (ly:event-property articulation 'y-position))))))
         (ly:event-property (ly:grob-property note-grob 'cause) 'articulations))))))

\layout {
  \context {
    \Score
    \consists #head-ornamentation-engraver
  }
}

%%%
%%% Event type definition
%%%
#(define-music-type HeadOrnamentationEvent (music-event)
   (description . "Print an ornamentation at a note head side")
   (types . (general-music post-event event head-ornamentation-event)))

bendBefore =
#(make-music 'HeadOrnamentationEvent
  'x-position 1
  'y-position 2
  'shift-when-on-line #f
  'left-text #{ \markup { \fontsize #0 \rotate #5 \musicglyph #"brackettips.up"} #})








% [][][][][][][][][][][][][][][][][][][][][][][][][][][][][][][][][][][][][][][][][][][][][]
% Funciones propias
% [][][][][][][][][][][][][][][][][][][][][][][][][][][][][][][][][][][][][][][][][][][][][]





% Índice con borde circular y un cómodo espacio interior (y no el que viene por defecto)
% [][][][][][][][][][][][][][][][][][][][][][][][][][][][][][][][][][][][][][][][][][][][][]
#(define-markup-command (boxindex layout props text) (markup?)
	(interpret-markup layout props
		(markup #:huge #:override '(box-padding . 0.5) #:box text)
	)
)

#(define-markup-command (boxed layout props text) (markup?)
	(interpret-markup layout props
		(markup #:huge #:override '(box-padding . 0.9) #:box text)
	)
)

% Ritardando
% [][][][][][][][][][][][][][][][][][][][][][][][][][][][][][][][][][][][][][][][][][][][][]
rit =
#(make-music 'CrescendoEvent
             'span-direction START
             'span-type 'text
             'span-text "rit.")

% Negra oblicua
% [][][][][][][][][][][][][][][][][][][][][][][][][][][][][][][][][][][][][][][][][][][][][]
rs = {
  \once \override Rest #'stencil = #ly:percent-repeat-item-interface::beat-slash
  \once \override Rest #'thickness = #0.48
  \once \override Rest #'slope = #1.7
  r4
}

% Pentagrama vacío
% [][][][][][][][][][][][][][][][][][][][][][][][][][][][][][][][][][][][][][][][][][][][][]
emptyStave = {
  \once \override Staff.KeySignature.stencil = ##f
  \once \override Staff.Clef.stencil = ##f
  \break
  s1
  \once \override Staff.BarLine.stencil = ##f
  \break
}










% Añadido de funciones al contexto
% [][][][][][][][][][][][][][][][][][][][][][][][][][][][][][][][][][][][][][][][][][][][][]
\layout {
  \context {
    \Score		
    
    % multi-mark-engraver
    \remove "Mark_engraver"
    \consists #multi-mark-engraver
    \consists "Tweak_engraver"
    
    % merge-rests-on-positioning
    \override RestCollision #'positioning-done = #merge-rests-on-positioning
    
    % aspecto de los silencios multicompás
    \override MultiMeasureRest.expand-limit = #1
    
    % margen extra de las articulaciones para evitar la colisión con las ligaduras
    \override Script.padding = #0.5
    \override Script.avoid-slur = #'inside
    
    % glissando bonito
    \override Glissando.style = #'trill
    \override Glissando.bound-details.left.padding = #1.7
    
    % dinámicas un poco mas gruesas
    \override Hairpin.thickness = #1.75
    
    % Esconde la cancelacion de accidentales en el cambio de armadura
    \override KeyCancellation.break-visibility = #'#(#f #f #f)
  }
}












% LAYOUT
% ------
% ~.:.~.:.~.:.~.:.~.:.~.:.~.:.~.:.~.:.~.:.~.:.<>.:.~.:.~.:.~.:.~.:.~.:.~.:.~.:.~.:.~.:.~.:.~
% ~.:.~.:.~.:.~.:.~.:.~.:.~.:.~.:.~.:.~.:.~.:.<>.:.~.:.~.:.~.:.~.:.~.:.~.:.~.:.~.:.~.:.~.:.~
% ~.:.~.:.~.:.~.:.~.:.~.:.~.:.~.:.~.:.~.:.~.:.<>.:.~.:.~.:.~.:.~.:.~.:.~.:.~.:.~.:.~.:.~.:.~






\header {
  title = "Desafinado"
  instrument = "Tenor Sax I"
  composer = "Antonio Carlos JOBIM"
  arranger = "Arr: Frank MANTOOTH"
  poet = ""
  tagline = ""
}

\paper {
  % El definir otro tipo de fuente no permite cambiar el tamaño global del staff. Es un bug conocigo
  #(define fonts (make-pango-font-tree "LilyJAZZText" "Nimbus Sans" "Luxi Mono" (/ 20 20)))
  
  % distancia entre la parte superior de la página y el título
  top-markup-spacing #'basic-distance = 5
  
  % distancia entre el título y el primer sistema
  markup-system-spacing #'basic-distance = 25
  
  % distancia entre el texto y el primer sistema 
  top-system-spacing #'basic-distance = 15
  
  % márgen inferior
  bottom-margin = 20
    
  % número de páginas
  % page-count = 3
  
  ragged-last-bottom = ##f 
  
  oddHeaderMarkup = \markup {
    \on-the-fly #not-first-page \fill-line {
      \fromproperty #'page:page-number-string
      \fromproperty #'header:title
      \fromproperty #'header:instrument
    }
  }
  
  evenHeaderMarkup = \markup {
    \on-the-fly #not-first-page \fill-line {
      \fromproperty #'header:instrument
      \fromproperty #'header:title
      \fromproperty #'page:page-number-string
    }
  }
}










% MUSIC PARTS
% -----------
% ~.:.~.:.~.:.~.:.~.:.~.:.~.:.~.:.~.:.~.:.~.:.<>.:.~.:.~.:.~.:.~.:.~.:.~.:.~.:.~.:.~.:.~.:.~
% ~.:.~.:.~.:.~.:.~.:.~.:.~.:.~.:.~.:.~.:.~.:.<>.:.~.:.~.:.~.:.~.:.~.:.~.:.~.:.~.:.~.:.~.:.~
% ~.:.~.:.~.:.~.:.~.:.~.:.~.:.~.:.~.:.~.:.~.:.<>.:.~.:.~.:.~.:.~.:.~.:.~.:.~.:.~.:.~.:.~.:.~





% scoreMarkup
% [][][][][][][][][][][][][][][][][][][][][][][][][][][][][][][][][][][][][][][][][][][][][]
scoreMarkup = \new Staff \with {
   \RemoveEmptyStaves
}
{
  % Oculta el primer pentagrama del markup
  \override Staff.VerticalAxisGroup #'remove-first = ##t
  
  % Indicación de tiempo
  \once \override Score.RehearsalMark.X-offset = #5
  \mark \markup \small "(Bright Bossa)"
  s1*4
  
  \mark \markup \boxed "5"
  s1*14
  
  \mark \markup \boxed "19"
  s1*12
  
  \bar "||"
  \mark \jazzTempoChange c8 c8
  \mark \markup \boxed "31"
  s1*2*3/4
  
  \bar "||"
  \mark \jazzTempoChange c4. c4
  s1
  
  \bar "||"
  \once \override Score.RehearsalMark.self-alignment-X = #LEFT
  \mark \jazzTempoMarkup "Tempo Primo" c2 "96"
  s1*4
  
  \mark \markup \boxed "38"
  s1*12
  
  \mark \markup \boxed "50"
  s1*12
  
  \mark \markup \boxed "62"
  s1*8
  
  \mark \markup \boxed "70"
  s1*8
  
  \mark \markup \boxed "78"
  s1*10
  
  \mark \markup \boxed "88"
  s1*6
  
  \mark \markup \boxed "94"
  s1*16
  
  \mark \markup \boxed "110"
  s1*12
  
  \mark \markup \boxed "122"
  s1*12
  
  \mark \markup \boxed "134"
  s1*8
  
  \mark \markup \boxed "142"
  s1*8
  
  \bar "||"
  \mark \jazzTempoChange c8 c8
  \mark \markup \boxed "150"
  s1*2*3/4
  
  \bar "||"
  \mark \jazzTempoChange c4. c4
  s1*2
  
  \once \override Score.RehearsalMark.self-alignment-X = #LEFT
  \mark \markup "(Conducted)"
  s1
  
  \bar "||"
  \once \override Score.RehearsalMark.self-alignment-X = #LEFT
  \mark \jazzTempoMarkup "Tempo Primo - Subito Samba" c2 "96"
  \mark \markup \boxed "155"
  s1*6
  
  \bar "||"
  \once \override Score.RehearsalMark.self-alignment-X = #LEFT
  \mark \markup {
    \column { \boxed "161" }
    \hspace #1.5
    \column { "(Funk Out)" }
  }
  s1*8
  
  \once \override Score.RehearsalMark.self-alignment-X = #LEFT
  \mark \markup {
    \column { \boxed "169" }
    \hspace #1.5
    \column { "(Get Rougher)" }
  }
  s1*8
  
  \once \override Score.RehearsalMark.self-alignment-X = #LEFT
  \mark \markup {
    \column { \boxed "177" }
    \hspace #1.5
    \column { "(Goin' Home)" }
  }
  s1*10
  
  \once \override Score.RehearsalMark.self-alignment-X = #LEFT
  \mark \markup "(Molto Rit.)"
  s1*2
  
  \once \override Score.RehearsalMark.self-alignment-X = #LEFT
  \mark \markup "(A Tempo)"
  s1*2
  
  \bar "|."
  
}





% scoreChords
% [][][][][][][][][][][][][][][][][][][][][][][][][][][][][][][][][][][][][][][][][][][][][]
scoreChords = \chords {
    
  \set minorChordModifier = \markup { "-" }
  
  % c1:m f2:m g2:m7
}





% music
% [][][][][][][][][][][][][][][][][][][][][][][][][][][][][][][][][][][][][][][][][][][][][]
tenorSaxI = \relative c'' {

  % Para pintar todos los números de compás debajo del pentagrama
  % \override Score.BarNumber #'break-visibility = #end-of-line-invisible
  \override Score.BarNumber #'direction = #DOWN
  % \override Score.BarNumber #'extra-offset = #'(1.5 . 0)

  \jazzOn
  \compressFullBarRests
  
  % Arregla el problema de tener el scoreMarkup añadido
  \revert MultiMeasureRest #'staff-position
  \override Voice.Rest #'staff-position = #0	
  \set Staff.explicitKeySignatureVisibility = #begin-of-line-visible
  
  % bones
  \transpose bes c' \relative c' {
    
    \key f \major
    
    R1*4
    
    R1*3
    r2 f4. \mp g8 -> \fp ~
    
    g1 ~
    g1 ~
    g1
    r2 f8 ( \mp g a bes -> \fp ~
    
    \break
    bes2. ~ bes8 ) bes -> \fp ~
    bes1
    bes2. -> \fp ~ bes8 bes -> \fp ~
    bes1 ~
    bes ~
    bes \>
  }
  
  % tenor I & bones I, II, IV 19
  \transpose bes c' \relative c'' {
    
    \key f \major
    
    \break
    R1*12 \!
    
    \time 3/4
    des4. c4.
    bes d?
    
    \time 4/4
    e16 -> e -. r8 f4 ^\markup { \hspace #0.6 \musicglyph #'"ties.lyric.short" } f -.
  }
  
  % bones 33*3/4
  \transpose bes c' \relative c'' {
  
    \key f \major
    
    c8 bes -> ~
    
    \break
    bes1 ~
    bes2. r8 bes8 -> ~ 
    bes1 ~
    bes \>
  }
  
  % saxs 38
  \relative c''' {
   
    \key g \major
    
    R1*3 \!
    \break
    r2 r8 g ( \p dis [ e -> \fp ] ~
    
    e2. ) r8 f (
    e2 -> e4. d?8 -> ~
    d1 \< ~
    d \> )
    
    R1*4 \!
  }
  
  % tacet 50
  
  R1*7
  \break
  r2
  
  % saxs 57*2/4
  \relative c'' {
    
    \key g \major
    
    r8 e4. ->
    dis2. r8 fis -> ~
    fis2 ~ fis8 b dis, e 
    fis16 ( gis fis e ) fis2. \<
  }
  
  % bones 61
  \transpose bes c' \relative c'' {
   
    \key f \major 
    
    c2 -> \f des ->
    
    \break
    c4. d?8 c d -. r cis ~
    cis2 cis8 cis -. r c ~
    c4. c8 -. r d -. r b -> ~
    b2 \breathe a -- \ff
    
    \break
    bes?4. a8 -. r bes r a (
    c4 bes a bes8 c -> ~
    c2 b
    bes1 \> )
    
    \break
    R1*2 \!
    r2 r8 a \p bes [ b ] ~
    b c4 cis8 ~ cis d4 bes?8 ~
    
    bes1 ~
    bes2 aes4. ( g8 ~
    \break
    g1
    fis )
    
    R1*4
    
    c'4. \p b8 ~ b4. a8 ~
    a2 b4 -- \bendBefore b -.
    aes4. a8 ~ a4. aes8 ~
    \break
    aes4. aes8 g4 -- g -.
    
    c4. b8 ~ b4. bes8 ~
    bes2 \< ~ bes8 \! r r4
  }
  
  % alto II, tenor I, baritone & bone IV 88
  \relative c'' {
   
    \key g \major
    
    r2 r4 f8 ( \ff e
    ees1 -> \fp ~
    
    \break
    ees ~
    ees ~
    ees ~
    ees \> )
  }
  
  % tacet 94
  R1*16 \!
  R1*12
  
  % bones 122
  \transpose bes c' \relative c'' {
    
    \key f \major
    
    cis4 \p -- \bendBefore cis -. r2
    r4 r8 cis -. r cis-. r4
    \break
    d4 -- \bendBefore d -. r2
    r4 r8 d -. r d-. r4
    
    cis4 -- \bendBefore cis -. r2
    r4 r8 d -. r d-. r4
    c?4 -- \bendBefore c -. r2
    r2 r8 d4. ->
    
    \break
    cis4 ^\markup { \hspace #0.6 \musicglyph #'"ties.lyric.short" } cis -. r2
    r4 r8 cis -. r cis -. r4
    d4 ^\markup { \hspace #0.6 \musicglyph #'"ties.lyric.short" } d -. r2
    a2 -> \mp b ->
    
    b4 ^\markup { \hspace #0.6 \musicglyph #'"ties.lyric.short" } b -. r2
    r4 r8 des -. r des-. r4
    \break
    c4 ^\markup { \hspace #0.6 \musicglyph #'"ties.lyric.short" } c -. r2
    r4 r8 c -. \mp r b-. r bes -> \fp ~
    
    bes2. ~ bes8 c?8 -> \fp ~
    c1
    a2 ( \mf \glissando cis
    \break
    bes4. ges'8 -> ~ ges2 \< \glissando
    
    a,1 \> ~
    a \! )
  }
  
  % saxs 144
  \relative c'' {
   
    \key g \major
    
    r2 r8 b ( \mp cis [ dis -. ] )
    \break
    r8 cis ( dis [ e -. ] ) r8 g d [ e -> ] ~
    
    e2. r8 f (
    e2 -> e4. d8 -> ~
    d1 ~
    d2. \< ~ d8 ) \! r
    
    \break
    \time 3/4
    g4. _\markup { "sub." \dynamic "pp" } f
    e d 
    
    \time 4/4
    f16 -> _\markup { "sub." \dynamic "f" } f -. r8 e4 ( _\markup { "sub." \dynamic "p" } d c8 d -> _\markup { "sub." \dynamic "f" } ~
    d4 ) b _\markup { "sub." \dynamic "p" } d cis8 cis -> ~ 
    cis1 \fermata
    
    \once \override BreathingSign.text = \markup { \musicglyph #"scripts.caesura.straight" }
    \breathe
  }
  
  % bones 155
  \transpose bes c' \relative c'' {
    
    \key f \major
    
    \break
    c4. \mp b8 ~ b4. a8 ~
    a4. a8 b4 -- b -.
    aes4. a8 ~ a4. aes8 ~
    \break
    aes4. aes8 g4 -- g -.
    
    c4. b8 ~ b4. bes8 -> ~
    bes2 \< ~ bes8 \! r r4
    
    R1*8
  }
  
  % alto I, tenor I, bones III, IV 169
  \relative c'' {
     
    \key g \major
    
    \break
    ais8 \mf b g' ees -> ~ ees4. e8 -> ~
    e2 d4. ees8 -> ~
    ees2 cis4. d8 -> ~
    d2 cis8 g' cis, c
    
    \break
    ais8 b g' f -> ~ f2
    f2 -> e ->
    e -> ees ->
    \times 2/3 { ees8 ( f ees } d?4 -. ) cis8 \f g' cis, c
    
    \break
    ais8 \mf b g' ees -> ~ ees4. e8 -> ~
    e2 d4. ees8 -> ~
    ees2 cis4. d8 -> ~
    d2 cis8 g' cis, c
    
    \break
    ais8 b g' f -> ~ f2
    f2 -> e ->
    e -> ees ->
    \times 2/3 { ees8 ( f ees } d?4 -. ) cis8 ( \f g' cis, c
    
    \break
    b4 -. )
  }
  
  % bones 185*2/4
  \transpose bes c' \relative c'' {
   
    \key f \major
    r8 c8 -> \f ~ c2 ~
    c1
    des1 -> ~
    des
  }
  
  % trumpets I, II, bones 3, IV 189
  \relative c''' {
    
    \key g \major
    
    r4 d8 ( \ff des c2 ~
    c1 ) \fermata
  }
}





% score
% [][][][][][][][][][][][][][][][][][][][][][][][][][][][][][][][][][][][][][][][][][][][][]
\score {
  <<
    \scoreMarkup
    \scoreChords
    \new StaffGroup <<
      \new Staff { \tenorSaxI }
    >>
  >>
}


