\version "2.14.2.1"

\header {
	title = "Over the Rainbow"
	composer = "Music by Harold Arlen"
   arranger = "Arranged by Dave Wolpe"
   poet = "Lyrics by E.Y.Harburg"
   instrument = "3rd Trombone"
}

#(define-markup-command (underlinedTx layout props text) (markup?)
   (interpret-markup layout props
      (markup #:normalsize #:italic #:override '(offset . 5) #:underline #:smallCaps text)
   )
)

#(define-markup-command (defaultTx layout props text) (markup?)
  (interpret-markup layout props
      (markup #:normalsize #:italic #:smallCaps text)
   )
)

#(define-markup-command (index layout props text) (markup?)
  (interpret-markup layout props
      (markup #:huge #:override '(circle-padding . 0.5) #:circle text)
   )
)
   
voice = \relative c'''
{
   \compressFullBarRests
   
   \time 4/4
   \key bes \major
   
   
   \override Score.RehearsalMark #'self-alignment-X = #LEFT     
   \override TextSpanner #'(bound-details left text) = "rit. "
   \override TextSpanner #'(bound-details right padding) = #4
   \textSpannerDown
   
   \mark \markup {\underlinedTx "Rubato" \defaultTx "cup mute"}
   
   f,1_\p^\marcato f^\marcato f^\marcato R1*1
   
   \mark \markup{\underlinedTx "Tempo" \defaultTx "(not too fast)"}
   R1*2
   
   r8\mf f4-- f8-- f2 (g\startTextSpan) r2^\markup \defaultTx "open"
   
   \mark \markup \underlinedTx "A tempo"
   R1*2\stopTextSpan
   
   f1\p( g2\< fis f?1\mf\!)
   
   \mark \markup \underlinedTx "To cup"
   R1*2\startTextSpan
   
   \mark \markup \underlinedTx "Rubato"
   f1_\fp^\accent\stopTextSpan ~ f
   
   \mark \markup \underlinedTx "Open"
   \once \override TextSpanner #'(bound-details left text) = "molto rit. "
   R1*2\startTextSpan
   
   \bar "||" 
   \once \override Score.RehearsalMark #'self-alignment-X = #CENTER
   \mark \markup \index A
   
   R1\stopTextSpan^\markup \underlinedTx "A tempo"
   
   << { a2.\p( aes4 g1\mp)} \\ {s2 s2\< s1\!}>>
   R1*5
   
   \bar "||" 
   \once \override Score.RehearsalMark #'self-alignment-X = #CENTER
   \mark \markup \index B
   
   R1*3
   
   r4\p f (c' ces
   bes2) r2^\markup \underlinedTx "To cup"
   R1*2
   r4\mf f2.^\accent\>
   
   \bar "||" 
   \once \override Score.RehearsalMark #'self-alignment-X = #CENTER
   \mark \markup \index C
   
   R1*2\!
   g2\p\< (aes g\! ees4\> ees
   f2\p\!) r2^\markup \underlinedTx "Open"
   R1*2
   r4\mf g2\< (c,4 
   
   \bar "||" 
   \once \override Score.RehearsalMark #'self-alignment-X = #CENTER
   \mark \markup {\index D}
   
   f2\f\! ges f) e8--^\markup{\underlinedTx "Soli"} ([dis]) ees-- ([d])
   d2 (bes a aes\>)
   R1*3\!
   
   r4\mf f'2.^\accent\> (
   
   \bar "||" 
   \once \override Score.RehearsalMark #'self-alignment-X = #CENTER
   \mark \markup {\index E}
   
   f1\p\! f\<)
   r4\f\! g (g2 a4 f\> g ees f2\p\!) r2
   R1*2
   r4\mf g2\< (f4 
   
   \bar "||"
   \once \override Score.RehearsalMark #'self-alignment-X = #CENTER
   \mark \markup {\index F}
   
   g2\f bes a) r2 R1
   r4\mf f (c' ces bes2 bes\> a\p\!) r2 
   R1
   
   r2\startTextSpan g\mf\> (
   
   \bar "||"
   \once \override Score.RehearsalMark #'self-alignment-X = #CENTER
   \mark \markup {\index G}
   
   f1\p\!\stopTextSpan^\markup {\underlinedTx "Rubato"}
   \time 2/4
   g2)
   \time 4/4
   R1\startTextSpan 
   \mark \markup {\underlinedTx "A tempo"} 
   r8\f\stopTextSpan\! f4-- f8-- f2 
   
   << R1 {s2 s2\startTextSpan} >>
   f1\p\fermata\stopTextSpan
   
   \bar "||"
}

\paper { 
	myStaffSize = #20
	#(define fonts
		(make-pango-font-tree
			"Throw My Hands Up in the Air"
			"Nimbus Sans"
            "Luxi Mono"
            (/ myStaffSize 20)))
   system-count = #10
   markup-system-spacing #'basic-distance = #20
}

\score {
   \new Staff { \transpose ees c \voice }
}