\version "2.14.2.1"

\header {
	title = "Over the Rainbow"
	composer = "Music by Harold Arlen"
   arranger = "Arranged by Dave Wolpe"
   poet = "Lyrics by E.Y.Harburg"
   instrument = "1st Trumpet"
}

#(define-markup-command (underlinedTx layout props text) (markup?)
   (interpret-markup layout props
      (markup #:normalsize #:italic #:override '(offset . 5) #:underline #:smallCaps text)
   )
)

#(define-markup-command (defaultTx layout props text) (markup?)
  (interpret-markup layout props
      (markup #:normalsize #:italic #:smallCaps text)
   )
)

#(define-markup-command (index layout props text) (markup?)
  (interpret-markup layout props
      (markup #:huge #:override '(circle-padding . 0.5) #:circle text)
   )
)
   
voice = \relative c'''
{
   \compressFullBarRests
   
   \time 4/4
   \key c \major
   
   
   \override Score.RehearsalMark #'self-alignment-X = #LEFT     
   \override TextSpanner #'(bound-details left text) = "rit. "
   \override TextSpanner #'(bound-details right padding) = #4
   \textSpannerDown
   
   \mark \markup {\underlinedTx "Rubato" \defaultTx "cup mute"}
   
   g1_\p^\marcato g^\marcato g^\marcato R1*1
   
   \mark \markup{\underlinedTx "Tempo" \defaultTx "(not too fast)"}
   R1*2
   
   r8\mf g (a [e] g2 ~) g2\startTextSpan r2
   
   \mark \markup {\underlinedTx "A tempo" \defaultTx "open"}
   R1*3\stopTextSpan
   
   \mark \markup {\underlinedTx "In hat" \defaultTx "(or stand)"} 
   r8\p fis,\< (gis [a] ais4 b\! ~ b2\>) r2\! 
   
   \mark \markup {\underlinedTx "To cup"}
   R1*2\startTextSpan
   
   \mark \markup {\underlinedTx "Rubato"}
   g'1_\fp^\accent\stopTextSpan ~ g
   
   \mark \markup {\underlinedTx "Open"}
   \once \override TextSpanner #'(bound-details left text) = "molto rit. "
   R1*2\startTextSpan
   
   \bar "||" 
   \once \override Score.RehearsalMark #'self-alignment-X = #CENTER
   \mark \markup {\index A}
   
   R1*3\stopTextSpan^\markup {\underlinedTx "A tempo"}
   
   \mark \markup {\underlinedTx "Hat"} 
   r4\mf g, (b bes a2\> aes g\!) r2
   R1*2
   
   \bar "||"
   \once \override Score.RehearsalMark #'self-alignment-X = #CENTER
   \mark \markup {\index B}
   
   R1*3
   \mark \markup {\underlinedTx "Open"}
   r4\p g4 (d' des 
   c2) r2^\markup {\underlinedTx "To cup"}
   R1*2
   r4\mf g'2.^\accent\>
   
   \bar "||" 
   \once \override Score.RehearsalMark #'self-alignment-X = #CENTER
   \mark \markup {\index C}
   
   R1*2\!
   e1\p\< (f2\! e4\> ees
   d2\p\!) r2^\markup {\underlinedTx "Open"}
   R1*2
   r4\mf f4\< (e d 
   
   \bar "||" 
   \once \override Score.RehearsalMark #'self-alignment-X = #CENTER
   \mark \markup {\index D}
   
   c1\f\! b2) r2
   R1*5
   r4 g'2.^\accent\mf\> (
   
   \bar "||" 
   \once \override Score.RehearsalMark #'self-alignment-X = #CENTER
   \mark \markup {\index E}
   
   e1\p\! f\<)
   r4\f\! e4 (eis2 fis4 f\> e ees d2\p\!) r2
   R1*2
   r4\mf f8\< (g a4 b
   
   \bar "||"
   \once \override Score.RehearsalMark #'self-alignment-X = #CENTER
   \mark \markup {\index F}
   
   c1\f b2) r2 R1
   r4\mf g,4 (d'4 des c1\> b2\p\!) r2 
   R1*2\startTextSpan
   
   \bar "||"
   \once \override Score.RehearsalMark #'self-alignment-X = #CENTER
   \mark \markup {\index G}
   
   
   R1\stopTextSpan^\markup {\underlinedTx "Rubato"}
   \time 2/4
   R2
   \time 4/4
   R1\startTextSpan
   
   \mark \markup {\underlinedTx "A tempo"}
   r8\f\stopTextSpan g' (a e g2) 
   
   \mark \markup {\underlinedTx "To harmon mute"}
   <<R1 {s2 s2\startTextSpan} >>
   g1\p\fermata\stopTextSpan
   
   \bar "||"
}

\paper {
	myStaffSize = #20
	#(define fonts
		(make-pango-font-tree
			"Throw My Hands Up in the Air"
			"Nimbus Sans"
            "Luxi Mono"
            (/ myStaffSize 20))) 
   system-count = #11
   markup-system-spacing #'basic-distance = #20
}

\score {
   \new Staff { \transpose ees bes \voice }
}